G04 EAGLE Gerber X2 export*
G75*
%MOMM*%
%FSLAX34Y34*%
%LPD*%
%AMOC8*
5,1,8,0,0,1.08239X$1,22.5*%
G01*
%ADD10C,0.203200*%
%ADD11C,0.127000*%
%ADD12R,0.063500X0.063500*%
%ADD13R,0.063500X0.127000*%
%ADD14R,0.063500X0.508000*%
%ADD15R,0.063500X0.444500*%
%ADD16R,0.063500X0.254000*%
%ADD17R,0.063500X0.190500*%
%ADD18R,0.063500X0.571500*%
%ADD19R,0.063500X0.381000*%
%ADD20R,0.063500X0.317500*%
%ADD21R,0.063500X0.952500*%
%ADD22R,0.063500X0.698500*%
%ADD23R,0.063500X0.635000*%
%ADD24R,0.063500X0.762000*%
%ADD25R,0.063500X0.825500*%
%ADD26R,0.063500X0.889000*%
%ADD27R,0.063500X1.206500*%
%ADD28R,0.063500X1.460500*%
%ADD29R,0.063500X1.587500*%
%ADD30R,0.063500X1.714500*%
%ADD31R,0.063500X1.841500*%
%ADD32R,0.063500X1.968500*%
%ADD33R,0.063500X2.032000*%
%ADD34R,0.063500X2.095500*%
%ADD35R,0.063500X1.016000*%
%ADD36R,0.063500X2.603500*%
%ADD37R,0.063500X1.079500*%
%ADD38R,0.063500X2.476500*%
%ADD39R,0.063500X1.143000*%
%ADD40R,0.063500X2.413000*%
%ADD41R,0.063500X2.349500*%
%ADD42R,0.063500X1.397000*%
%ADD43R,0.063500X1.333500*%
%ADD44R,0.063500X1.270000*%


D10*
X135549Y241516D02*
X131482Y245583D01*
X143684Y245583D01*
X143684Y241516D02*
X143684Y249651D01*
X131482Y133550D02*
X133515Y131516D01*
X131482Y133550D02*
X131482Y137617D01*
X133515Y139651D01*
X135549Y139651D01*
X137583Y137617D01*
X137583Y135583D01*
X137583Y137617D02*
X139617Y139651D01*
X141650Y139651D01*
X143684Y137617D01*
X143684Y133550D01*
X141650Y131516D01*
X118684Y237617D02*
X106482Y237617D01*
X112583Y231516D01*
X112583Y239651D01*
X106482Y149651D02*
X106482Y141516D01*
X112583Y141516D01*
X110549Y145583D01*
X110549Y147617D01*
X112583Y149651D01*
X116650Y149651D01*
X118684Y147617D01*
X118684Y143550D01*
X116650Y141516D01*
X156482Y141516D02*
X156482Y149651D01*
X158515Y149651D01*
X166650Y141516D01*
X168684Y141516D01*
X158515Y235583D02*
X156482Y239651D01*
X158515Y235583D02*
X162583Y231516D01*
X166650Y231516D01*
X168684Y233550D01*
X168684Y237617D01*
X166650Y239651D01*
X164617Y239651D01*
X162583Y237617D01*
X162583Y231516D01*
X88684Y194651D02*
X88684Y186516D01*
X80549Y194651D01*
X78515Y194651D01*
X76482Y192617D01*
X76482Y188550D01*
X78515Y186516D01*
X121482Y188550D02*
X123515Y186516D01*
X121482Y188550D02*
X121482Y192617D01*
X123515Y194651D01*
X125549Y194651D01*
X127583Y192617D01*
X129617Y194651D01*
X131650Y194651D01*
X133684Y192617D01*
X133684Y188550D01*
X131650Y186516D01*
X129617Y186516D01*
X127583Y188550D01*
X125549Y186516D01*
X123515Y186516D01*
X127583Y188550D02*
X127583Y192617D01*
X87884Y242316D02*
X75682Y242316D01*
X75682Y248417D01*
X77715Y250451D01*
X81783Y250451D01*
X83817Y248417D01*
X83817Y242316D01*
X135549Y384516D02*
X131482Y388583D01*
X143684Y388583D01*
X143684Y384516D02*
X143684Y392651D01*
X133515Y495516D02*
X131482Y497550D01*
X131482Y501617D01*
X133515Y503651D01*
X135549Y503651D01*
X137583Y501617D01*
X137583Y499583D01*
X137583Y501617D02*
X139617Y503651D01*
X141650Y503651D01*
X143684Y501617D01*
X143684Y497550D01*
X141650Y495516D01*
X118684Y401617D02*
X106482Y401617D01*
X112583Y395516D01*
X112583Y403651D01*
X106482Y485516D02*
X106482Y493651D01*
X106482Y485516D02*
X112583Y485516D01*
X110549Y489583D01*
X110549Y491617D01*
X112583Y493651D01*
X116650Y493651D01*
X118684Y491617D01*
X118684Y487550D01*
X116650Y485516D01*
X156482Y485516D02*
X156482Y493651D01*
X158515Y493651D01*
X166650Y485516D01*
X168684Y485516D01*
X156482Y403651D02*
X158515Y399583D01*
X162583Y395516D01*
X166650Y395516D01*
X168684Y397550D01*
X168684Y401617D01*
X166650Y403651D01*
X164617Y403651D01*
X162583Y401617D01*
X162583Y395516D01*
X88684Y439516D02*
X88684Y447651D01*
X88684Y439516D02*
X80549Y447651D01*
X78515Y447651D01*
X76482Y445617D01*
X76482Y441550D01*
X78515Y439516D01*
X121482Y441550D02*
X123515Y439516D01*
X121482Y441550D02*
X121482Y445617D01*
X123515Y447651D01*
X125549Y447651D01*
X127583Y445617D01*
X129617Y447651D01*
X131650Y447651D01*
X133684Y445617D01*
X133684Y441550D01*
X131650Y439516D01*
X129617Y439516D01*
X127583Y441550D01*
X125549Y439516D01*
X123515Y439516D01*
X127583Y441550D02*
X127583Y445617D01*
X87884Y496316D02*
X75682Y496316D01*
X75682Y502417D01*
X77715Y504451D01*
X81783Y504451D01*
X83817Y502417D01*
X83817Y496316D01*
D11*
X196220Y404650D02*
X196220Y399650D01*
X196220Y404650D02*
X276220Y404650D01*
X276220Y399650D01*
X196220Y349650D02*
X196220Y344650D01*
X276220Y344650D01*
X276220Y349650D01*
X181220Y344650D02*
X181220Y404650D01*
X176403Y348615D02*
X169539Y348615D01*
X176403Y348615D02*
X176403Y352047D01*
X175259Y353191D01*
X170683Y353191D01*
X169539Y352047D01*
X169539Y348615D01*
X171827Y356099D02*
X169539Y358387D01*
X176403Y358387D01*
X176403Y356099D02*
X176403Y360675D01*
X240070Y407300D02*
X240070Y481700D01*
X240070Y407300D02*
X181570Y407300D01*
X181570Y481700D01*
X240070Y481700D01*
X246501Y419735D02*
X253365Y419735D01*
X253365Y423167D01*
X252221Y424311D01*
X247645Y424311D01*
X246501Y423167D01*
X246501Y419735D01*
X246501Y430651D02*
X253365Y430651D01*
X249933Y427219D02*
X246501Y430651D01*
X249933Y431795D02*
X249933Y427219D01*
D12*
X10795Y204470D03*
X10795Y200025D03*
X10795Y190500D03*
X10795Y181610D03*
D13*
X10795Y176848D03*
D14*
X10795Y166053D03*
D15*
X10795Y153670D03*
D14*
X10795Y141288D03*
D16*
X10795Y128588D03*
X10795Y115253D03*
D17*
X11430Y204470D03*
X11430Y200025D03*
D13*
X11430Y190183D03*
X11430Y181928D03*
D17*
X11430Y177165D03*
D18*
X11430Y166370D03*
X11430Y153670D03*
X11430Y141605D03*
D14*
X11430Y128588D03*
X11430Y115253D03*
D17*
X12065Y204470D03*
X12065Y200025D03*
D13*
X12065Y190183D03*
X12065Y181928D03*
X12065Y177483D03*
X12065Y168593D03*
D17*
X12065Y155575D03*
D13*
X12065Y143828D03*
X12065Y130493D03*
X12065Y126048D03*
D17*
X12065Y117475D03*
D13*
X12065Y113348D03*
D17*
X12700Y204470D03*
X12700Y200025D03*
D13*
X12700Y190183D03*
X12700Y181928D03*
D17*
X12700Y177800D03*
D13*
X12700Y168593D03*
D17*
X12700Y155575D03*
D13*
X12700Y143828D03*
X12700Y131128D03*
X12700Y126048D03*
X12700Y117793D03*
X12700Y112713D03*
X13335Y205423D03*
D12*
X13335Y203835D03*
X13335Y200660D03*
D13*
X13335Y199073D03*
X13335Y190183D03*
X13335Y181928D03*
X13335Y178118D03*
X13335Y168593D03*
D17*
X13335Y155575D03*
D13*
X13335Y143828D03*
X13335Y131128D03*
X13335Y126048D03*
D12*
X13335Y118110D03*
D13*
X13335Y112713D03*
X13970Y205423D03*
X13970Y203518D03*
X13970Y200978D03*
X13970Y199073D03*
X13970Y190183D03*
D14*
X13970Y180023D03*
D13*
X13970Y168593D03*
D17*
X13970Y155575D03*
D13*
X13970Y143828D03*
D17*
X13970Y126365D03*
X13970Y113665D03*
D13*
X14605Y205423D03*
X14605Y203518D03*
X14605Y200978D03*
X14605Y199073D03*
X14605Y190183D03*
D18*
X14605Y179705D03*
X14605Y166370D03*
D17*
X14605Y155575D03*
D18*
X14605Y141605D03*
D19*
X14605Y127953D03*
X14605Y114618D03*
D12*
X15240Y205740D03*
X15240Y203200D03*
X15240Y201295D03*
X15240Y198755D03*
D13*
X15240Y190183D03*
X15240Y181928D03*
X15240Y177483D03*
D14*
X15240Y166688D03*
D17*
X15240Y155575D03*
D14*
X15240Y141923D03*
D19*
X15240Y129223D03*
D20*
X15240Y116205D03*
D13*
X15875Y206058D03*
D12*
X15875Y203200D03*
D13*
X15875Y201613D03*
X15875Y198438D03*
X15875Y190183D03*
X15875Y181928D03*
X15875Y176848D03*
X15875Y168593D03*
D17*
X15875Y155575D03*
D13*
X15875Y143828D03*
X15875Y130493D03*
D17*
X15875Y117475D03*
D13*
X16510Y206058D03*
D16*
X16510Y202248D03*
D13*
X16510Y198438D03*
X16510Y190183D03*
X16510Y181928D03*
X16510Y176848D03*
X16510Y168593D03*
D17*
X16510Y155575D03*
D13*
X16510Y143828D03*
D17*
X16510Y130810D03*
D13*
X16510Y126048D03*
X16510Y117793D03*
X16510Y113348D03*
X17145Y206058D03*
D16*
X17145Y202248D03*
D13*
X17145Y198438D03*
X17145Y190183D03*
X17145Y181928D03*
D17*
X17145Y177165D03*
D13*
X17145Y168593D03*
D17*
X17145Y155575D03*
D13*
X17145Y143828D03*
X17145Y130493D03*
D17*
X17145Y126365D03*
D13*
X17145Y117793D03*
X17145Y113348D03*
X17780Y206693D03*
X17780Y202248D03*
X17780Y197803D03*
X17780Y190183D03*
D18*
X17780Y179705D03*
X17780Y166370D03*
D17*
X17780Y155575D03*
D18*
X17780Y141605D03*
D14*
X17780Y128588D03*
X17780Y115253D03*
D13*
X18415Y206693D03*
X18415Y202248D03*
X18415Y197803D03*
X18415Y190183D03*
D14*
X18415Y180023D03*
D18*
X18415Y166370D03*
D12*
X18415Y155575D03*
D14*
X18415Y141288D03*
D19*
X18415Y128588D03*
D20*
X18415Y115570D03*
D18*
X25400Y199390D03*
D21*
X26035Y199390D03*
D22*
X26035Y177165D03*
D23*
X26035Y163513D03*
D24*
X26035Y149543D03*
D25*
X26035Y139065D03*
D26*
X26035Y116523D03*
D27*
X26670Y199390D03*
D24*
X26670Y176848D03*
D22*
X26670Y163195D03*
D24*
X26670Y149543D03*
D26*
X26670Y138748D03*
D25*
X26670Y116840D03*
D28*
X27305Y199390D03*
D24*
X27305Y176848D03*
D22*
X27305Y163195D03*
D24*
X27305Y149543D03*
D25*
X27305Y138430D03*
X27305Y116840D03*
D29*
X27940Y199390D03*
D24*
X27940Y176848D03*
D22*
X27940Y163195D03*
D24*
X27940Y149543D03*
D25*
X27940Y138430D03*
X27940Y116840D03*
D30*
X28575Y199390D03*
D24*
X28575Y176848D03*
X28575Y163513D03*
X28575Y149543D03*
D25*
X28575Y138430D03*
D26*
X28575Y117158D03*
D31*
X29210Y199390D03*
D24*
X29210Y176848D03*
D25*
X29210Y163195D03*
D24*
X29210Y149543D03*
D26*
X29210Y138113D03*
D25*
X29210Y117475D03*
D32*
X29845Y199390D03*
D24*
X29845Y176848D03*
D25*
X29845Y163195D03*
D24*
X29845Y149543D03*
D25*
X29845Y137795D03*
X29845Y117475D03*
D33*
X30480Y199708D03*
D24*
X30480Y176848D03*
D25*
X30480Y163195D03*
D24*
X30480Y149543D03*
D25*
X30480Y137795D03*
X30480Y117475D03*
D34*
X31115Y199390D03*
D24*
X31115Y176848D03*
D25*
X31115Y163195D03*
D24*
X31115Y149543D03*
D25*
X31115Y137795D03*
X31115Y117475D03*
D34*
X31750Y198755D03*
D24*
X31750Y176848D03*
D26*
X31750Y163513D03*
D24*
X31750Y149543D03*
D25*
X31750Y137795D03*
X31750Y118110D03*
D33*
X32385Y198438D03*
D24*
X32385Y176848D03*
D21*
X32385Y163195D03*
D24*
X32385Y149543D03*
D25*
X32385Y137160D03*
X32385Y118110D03*
D32*
X33020Y198120D03*
D24*
X33020Y176848D03*
D21*
X33020Y163195D03*
D24*
X33020Y149543D03*
D25*
X33020Y137160D03*
X33020Y118110D03*
D23*
X33655Y204153D03*
D35*
X33655Y192723D03*
D24*
X33655Y176848D03*
D21*
X33655Y163195D03*
D24*
X33655Y149543D03*
D25*
X33655Y137160D03*
X33655Y118110D03*
D19*
X34290Y204153D03*
D26*
X34290Y192088D03*
D24*
X34290Y176848D03*
D35*
X34290Y163513D03*
D24*
X34290Y149543D03*
D36*
X34290Y127635D03*
D16*
X34925Y204153D03*
D25*
X34925Y191770D03*
D24*
X34925Y176848D03*
D37*
X34925Y163195D03*
D24*
X34925Y149543D03*
D36*
X34925Y127635D03*
D17*
X35560Y203835D03*
D25*
X35560Y191770D03*
D24*
X35560Y176848D03*
D37*
X35560Y163195D03*
D24*
X35560Y149543D03*
D36*
X35560Y127635D03*
D12*
X36195Y203835D03*
D25*
X36195Y191135D03*
D24*
X36195Y176848D03*
D37*
X36195Y163195D03*
D24*
X36195Y149543D03*
D36*
X36195Y127635D03*
D25*
X36830Y191135D03*
D24*
X36830Y176848D03*
D37*
X36830Y163195D03*
D24*
X36830Y149543D03*
D38*
X36830Y127635D03*
D25*
X37465Y191135D03*
D24*
X37465Y176848D03*
D39*
X37465Y163513D03*
D24*
X37465Y149543D03*
D38*
X37465Y127635D03*
D25*
X38100Y191135D03*
D24*
X38100Y176848D03*
D27*
X38100Y163195D03*
D24*
X38100Y149543D03*
D38*
X38100Y127635D03*
D25*
X38735Y191135D03*
D24*
X38735Y176848D03*
D18*
X38735Y166370D03*
X38735Y160020D03*
D24*
X38735Y149543D03*
D40*
X38735Y127953D03*
D25*
X39370Y191135D03*
D24*
X39370Y176848D03*
D18*
X39370Y166370D03*
X39370Y160020D03*
D24*
X39370Y149543D03*
D41*
X39370Y127635D03*
D25*
X40005Y191135D03*
D24*
X40005Y176848D03*
D23*
X40005Y166688D03*
D18*
X40005Y160020D03*
D24*
X40005Y149543D03*
D41*
X40005Y127635D03*
D25*
X40640Y191135D03*
D24*
X40640Y176848D03*
D23*
X40640Y166688D03*
X40640Y159703D03*
D24*
X40640Y149543D03*
D41*
X40640Y127635D03*
D25*
X41275Y191135D03*
D24*
X41275Y176848D03*
D18*
X41275Y167005D03*
D23*
X41275Y159703D03*
D24*
X41275Y149543D03*
D25*
X41275Y135255D03*
D24*
X41275Y120333D03*
D25*
X41910Y191135D03*
D24*
X41910Y176848D03*
D18*
X41910Y167005D03*
X41910Y159385D03*
D24*
X41910Y149543D03*
X41910Y134938D03*
X41910Y120333D03*
D25*
X42545Y191135D03*
D24*
X42545Y176848D03*
D18*
X42545Y167005D03*
X42545Y159385D03*
D24*
X42545Y149543D03*
X42545Y134938D03*
X42545Y120333D03*
D25*
X43180Y191135D03*
D24*
X43180Y176848D03*
D23*
X43180Y167323D03*
D18*
X43180Y159385D03*
D24*
X43180Y149543D03*
X43180Y134938D03*
X43180Y120333D03*
D25*
X43815Y191135D03*
D24*
X43815Y176848D03*
D18*
X43815Y167640D03*
D23*
X43815Y159068D03*
D24*
X43815Y149543D03*
D22*
X43815Y134620D03*
D24*
X43815Y120968D03*
D25*
X44450Y191135D03*
D24*
X44450Y176848D03*
D18*
X44450Y167640D03*
D23*
X44450Y159068D03*
D24*
X44450Y149543D03*
X44450Y134303D03*
X44450Y120968D03*
D25*
X45085Y191135D03*
D24*
X45085Y176848D03*
D18*
X45085Y167640D03*
X45085Y158750D03*
D24*
X45085Y149543D03*
X45085Y134303D03*
X45085Y120968D03*
D25*
X45720Y191135D03*
D24*
X45720Y176848D03*
D23*
X45720Y167958D03*
D18*
X45720Y158750D03*
D24*
X45720Y149543D03*
X45720Y134303D03*
X45720Y120968D03*
D25*
X46355Y191135D03*
D24*
X46355Y176848D03*
D23*
X46355Y167958D03*
X46355Y158433D03*
D24*
X46355Y149543D03*
D22*
X46355Y133985D03*
X46355Y121285D03*
D25*
X46990Y191135D03*
D24*
X46990Y176848D03*
D18*
X46990Y168275D03*
D23*
X46990Y158433D03*
D24*
X46990Y149543D03*
X46990Y133668D03*
X46990Y121603D03*
D25*
X47625Y191135D03*
D24*
X47625Y176848D03*
D18*
X47625Y168275D03*
D23*
X47625Y158433D03*
D24*
X47625Y149543D03*
X47625Y133668D03*
X47625Y121603D03*
D25*
X48260Y191135D03*
D24*
X48260Y176848D03*
D18*
X48260Y168275D03*
X48260Y158115D03*
D24*
X48260Y149543D03*
X48260Y133668D03*
D22*
X48260Y121920D03*
D25*
X48895Y191135D03*
D24*
X48895Y176848D03*
D23*
X48895Y168593D03*
D18*
X48895Y158115D03*
D24*
X48895Y149543D03*
D22*
X48895Y133350D03*
X48895Y121920D03*
D25*
X49530Y191135D03*
D24*
X49530Y176848D03*
D23*
X49530Y168593D03*
X49530Y157798D03*
D24*
X49530Y149543D03*
D22*
X49530Y133350D03*
X49530Y121920D03*
D25*
X50165Y191135D03*
D24*
X50165Y176848D03*
D18*
X50165Y168910D03*
D23*
X50165Y157798D03*
D24*
X50165Y149543D03*
X50165Y133033D03*
X50165Y122238D03*
D25*
X50800Y191135D03*
D24*
X50800Y176848D03*
D18*
X50800Y168910D03*
D23*
X50800Y157798D03*
D24*
X50800Y149543D03*
X50800Y133033D03*
D22*
X50800Y122555D03*
D25*
X51435Y191135D03*
D24*
X51435Y176848D03*
D23*
X51435Y169228D03*
D18*
X51435Y157480D03*
D24*
X51435Y149543D03*
D22*
X51435Y132715D03*
X51435Y122555D03*
D25*
X52070Y191135D03*
D24*
X52070Y176848D03*
D23*
X52070Y169228D03*
X52070Y157163D03*
D24*
X52070Y149543D03*
D22*
X52070Y132715D03*
X52070Y122555D03*
D25*
X52705Y191135D03*
D24*
X52705Y176848D03*
D23*
X52705Y169228D03*
X52705Y157163D03*
D24*
X52705Y149543D03*
D22*
X52705Y132715D03*
X52705Y122555D03*
D25*
X53340Y191135D03*
D24*
X53340Y176848D03*
D18*
X53340Y169545D03*
D23*
X53340Y157163D03*
D24*
X53340Y149543D03*
X53340Y132398D03*
D22*
X53340Y123190D03*
D25*
X53975Y191135D03*
D42*
X53975Y173673D03*
D18*
X53975Y156845D03*
D24*
X53975Y149543D03*
D22*
X53975Y132080D03*
X53975Y123190D03*
D25*
X54610Y191135D03*
D42*
X54610Y173673D03*
D18*
X54610Y156845D03*
D24*
X54610Y149543D03*
D22*
X54610Y132080D03*
X54610Y123190D03*
D25*
X55245Y191135D03*
D42*
X55245Y173673D03*
X55245Y152718D03*
D22*
X55245Y132080D03*
X55245Y123190D03*
D25*
X55880Y191135D03*
D42*
X55880Y173673D03*
X55880Y152718D03*
D23*
X55880Y131763D03*
D22*
X55880Y123825D03*
D25*
X56515Y191135D03*
D43*
X56515Y173990D03*
D42*
X56515Y152718D03*
D22*
X56515Y131445D03*
X56515Y123825D03*
D25*
X57150Y191135D03*
D43*
X57150Y173990D03*
X57150Y152400D03*
D22*
X57150Y131445D03*
X57150Y123825D03*
D25*
X57785Y191135D03*
D43*
X57785Y173990D03*
X57785Y152400D03*
D22*
X57785Y131445D03*
X57785Y123825D03*
D25*
X58420Y191135D03*
D43*
X58420Y173990D03*
X58420Y152400D03*
D23*
X58420Y131128D03*
X58420Y124143D03*
D25*
X59055Y191135D03*
D43*
X59055Y173990D03*
X59055Y152400D03*
X59055Y127635D03*
D25*
X59690Y191135D03*
D44*
X59690Y174308D03*
D43*
X59690Y152400D03*
X59690Y127635D03*
D25*
X60325Y191135D03*
D44*
X60325Y174308D03*
X60325Y152083D03*
D43*
X60325Y127635D03*
D25*
X60960Y191135D03*
D44*
X60960Y174308D03*
X60960Y152083D03*
D27*
X60960Y127635D03*
D25*
X61595Y191135D03*
D44*
X61595Y174308D03*
X61595Y152083D03*
D13*
X61595Y138748D03*
D27*
X61595Y127635D03*
D12*
X61595Y116840D03*
D25*
X62230Y191135D03*
D44*
X62230Y174308D03*
X62230Y152083D03*
D13*
X62230Y140018D03*
D12*
X62230Y136525D03*
D27*
X62230Y127635D03*
D12*
X62230Y118745D03*
X62230Y115570D03*
D25*
X62865Y191135D03*
D27*
X62865Y174625D03*
D44*
X62865Y152083D03*
D13*
X62865Y141288D03*
D12*
X62865Y137795D03*
D13*
X62865Y134938D03*
D39*
X62865Y127953D03*
D13*
X62865Y120333D03*
D12*
X62865Y117475D03*
D13*
X62865Y114618D03*
D25*
X63500Y191135D03*
D27*
X63500Y174625D03*
X63500Y151765D03*
D13*
X63500Y141923D03*
X63500Y138748D03*
X63500Y135573D03*
D37*
X63500Y127635D03*
D13*
X63500Y119698D03*
X63500Y116523D03*
X63500Y113348D03*
D25*
X64135Y191135D03*
D27*
X64135Y174625D03*
X64135Y151765D03*
D13*
X64135Y142558D03*
X64135Y139383D03*
X64135Y136208D03*
D37*
X64135Y127635D03*
D13*
X64135Y119063D03*
X64135Y115888D03*
X64135Y112713D03*
D25*
X64770Y191135D03*
D27*
X64770Y174625D03*
X64770Y151765D03*
D13*
X64770Y143193D03*
X64770Y140018D03*
X64770Y136843D03*
D37*
X64770Y127635D03*
D13*
X64770Y118428D03*
X64770Y115253D03*
X64770Y112078D03*
D24*
X65405Y191453D03*
D39*
X65405Y174943D03*
X65405Y151448D03*
D13*
X65405Y143828D03*
X65405Y140018D03*
X65405Y136843D03*
D21*
X65405Y127635D03*
D13*
X65405Y118428D03*
X65405Y115253D03*
X65405Y112078D03*
X66040Y143828D03*
D12*
X66040Y140335D03*
D13*
X66040Y136843D03*
X66040Y118428D03*
X66040Y115253D03*
X66040Y111443D03*
D17*
X66675Y144145D03*
D12*
X66675Y140335D03*
D13*
X66675Y136843D03*
D17*
X66675Y118745D03*
D13*
X66675Y115253D03*
X66675Y111443D03*
X67310Y144463D03*
X67310Y140018D03*
X67310Y136208D03*
X67310Y119063D03*
X67310Y115253D03*
D17*
X67310Y111125D03*
D13*
X67945Y144463D03*
X67945Y140018D03*
X67945Y135573D03*
X67945Y119698D03*
X67945Y115253D03*
D17*
X67945Y111125D03*
X68580Y144145D03*
X68580Y139700D03*
X68580Y134620D03*
X68580Y120650D03*
X68580Y115570D03*
X68580Y111125D03*
X69215Y144145D03*
X69215Y139065D03*
D13*
X69215Y133668D03*
D17*
X69215Y121920D03*
X69215Y116205D03*
D13*
X69215Y111443D03*
X69850Y143828D03*
D16*
X69850Y138748D03*
X69850Y116523D03*
D17*
X69850Y111760D03*
X70485Y143510D03*
X70485Y137795D03*
X70485Y117475D03*
X70485Y111760D03*
X71120Y142875D03*
D16*
X71120Y136843D03*
X71120Y118428D03*
D17*
X71120Y112395D03*
X71755Y142240D03*
D16*
X71755Y135573D03*
X71755Y119698D03*
D17*
X71755Y113030D03*
X72390Y141605D03*
D12*
X72390Y133985D03*
D13*
X72390Y120968D03*
D16*
X72390Y113983D03*
X73025Y140653D03*
D17*
X73025Y114935D03*
D16*
X73660Y139383D03*
X73660Y115888D03*
X74295Y138113D03*
X74295Y117158D03*
D13*
X74930Y136843D03*
D17*
X74930Y118745D03*
D11*
X259620Y123590D02*
X289020Y123590D01*
X289020Y110090D01*
X259620Y110090D01*
X259620Y123590D01*
X244243Y120655D02*
X243099Y121799D01*
X240811Y121799D01*
X239667Y120655D01*
X239667Y116079D01*
X240811Y114935D01*
X243099Y114935D01*
X244243Y116079D01*
X247151Y119511D02*
X249439Y121799D01*
X249439Y114935D01*
X247151Y114935D02*
X251727Y114935D01*
X259620Y230270D02*
X289020Y230270D01*
X289020Y216770D01*
X259620Y216770D01*
X259620Y230270D01*
X244243Y222255D02*
X243099Y223399D01*
X240811Y223399D01*
X239667Y222255D01*
X239667Y217679D01*
X240811Y216535D01*
X243099Y216535D01*
X244243Y217679D01*
X247151Y216535D02*
X251727Y216535D01*
X247151Y216535D02*
X251727Y221111D01*
X251727Y222255D01*
X250583Y223399D01*
X248295Y223399D01*
X247151Y222255D01*
X242040Y341180D02*
X162040Y341180D01*
X242040Y341180D02*
X242040Y253180D01*
X162040Y253180D01*
X162040Y341180D01*
X214267Y248799D02*
X214267Y241935D01*
X214267Y248799D02*
X218843Y248799D01*
X216555Y245367D02*
X214267Y245367D01*
X221751Y246511D02*
X224039Y248799D01*
X224039Y241935D01*
X221751Y241935D02*
X226327Y241935D01*
X92180Y341180D02*
X12180Y341180D01*
X92180Y341180D02*
X92180Y253180D01*
X12180Y253180D01*
X12180Y341180D01*
X11067Y248799D02*
X11067Y241935D01*
X11067Y248799D02*
X15643Y248799D01*
X13355Y245367D02*
X11067Y245367D01*
X18551Y241935D02*
X23127Y241935D01*
X18551Y241935D02*
X23127Y246511D01*
X23127Y247655D01*
X21983Y248799D01*
X19695Y248799D01*
X18551Y247655D01*
X12180Y430080D02*
X92180Y430080D01*
X92180Y342080D01*
X12180Y342080D01*
X12180Y430080D01*
X11067Y432435D02*
X11067Y439299D01*
X15643Y439299D01*
X13355Y435867D02*
X11067Y435867D01*
X18551Y438155D02*
X19695Y439299D01*
X21983Y439299D01*
X23127Y438155D01*
X23127Y437011D01*
X21983Y435867D01*
X20839Y435867D01*
X21983Y435867D02*
X23127Y434723D01*
X23127Y433579D01*
X21983Y432435D01*
X19695Y432435D01*
X18551Y433579D01*
X243100Y253180D02*
X323100Y253180D01*
X243100Y253180D02*
X243100Y341180D01*
X323100Y341180D01*
X323100Y253180D01*
X303167Y248799D02*
X303167Y241935D01*
X303167Y248799D02*
X307743Y248799D01*
X305455Y245367D02*
X303167Y245367D01*
X314083Y241935D02*
X314083Y248799D01*
X310651Y245367D01*
X315227Y245367D01*
X222720Y20300D02*
X122720Y20300D01*
X122720Y73300D02*
X213020Y73300D01*
X122720Y73300D02*
X122720Y20300D01*
X222720Y20300D02*
X222720Y62500D01*
X233553Y32259D02*
X232409Y31115D01*
X233553Y32259D02*
X233553Y33403D01*
X232409Y34547D01*
X226689Y34547D01*
X226689Y33403D02*
X226689Y35691D01*
X227833Y38599D02*
X226689Y39743D01*
X226689Y42031D01*
X227833Y43175D01*
X228977Y43175D01*
X230121Y42031D01*
X230121Y40887D01*
X230121Y42031D02*
X231265Y43175D01*
X232409Y43175D01*
X233553Y42031D01*
X233553Y39743D01*
X232409Y38599D01*
X220180Y553700D02*
X120180Y553700D01*
X120180Y606700D02*
X210480Y606700D01*
X120180Y606700D02*
X120180Y553700D01*
X220180Y553700D02*
X220180Y595900D01*
D10*
X235204Y564136D02*
X233425Y562356D01*
X235204Y564136D02*
X235204Y565915D01*
X233425Y567695D01*
X224527Y567695D01*
X224527Y569474D02*
X224527Y565915D01*
X224527Y579389D02*
X235204Y579389D01*
X229865Y574050D02*
X224527Y579389D01*
X229865Y581168D02*
X229865Y574050D01*
D11*
X215860Y167020D02*
X261660Y167020D01*
X261660Y127620D02*
X215860Y127620D01*
X215860Y160520D02*
X215860Y167020D01*
X215860Y134120D02*
X215860Y127620D01*
X261660Y160520D02*
X261660Y167020D01*
X261660Y134120D02*
X261660Y127620D01*
X264760Y163320D02*
X264762Y163383D01*
X264768Y163445D01*
X264778Y163507D01*
X264791Y163569D01*
X264809Y163629D01*
X264830Y163688D01*
X264855Y163746D01*
X264884Y163802D01*
X264916Y163856D01*
X264951Y163908D01*
X264989Y163957D01*
X265031Y164005D01*
X265075Y164049D01*
X265123Y164091D01*
X265172Y164129D01*
X265224Y164164D01*
X265278Y164196D01*
X265334Y164225D01*
X265392Y164250D01*
X265451Y164271D01*
X265511Y164289D01*
X265573Y164302D01*
X265635Y164312D01*
X265697Y164318D01*
X265760Y164320D01*
X265823Y164318D01*
X265885Y164312D01*
X265947Y164302D01*
X266009Y164289D01*
X266069Y164271D01*
X266128Y164250D01*
X266186Y164225D01*
X266242Y164196D01*
X266296Y164164D01*
X266348Y164129D01*
X266397Y164091D01*
X266445Y164049D01*
X266489Y164005D01*
X266531Y163957D01*
X266569Y163908D01*
X266604Y163856D01*
X266636Y163802D01*
X266665Y163746D01*
X266690Y163688D01*
X266711Y163629D01*
X266729Y163569D01*
X266742Y163507D01*
X266752Y163445D01*
X266758Y163383D01*
X266760Y163320D01*
X266758Y163257D01*
X266752Y163195D01*
X266742Y163133D01*
X266729Y163071D01*
X266711Y163011D01*
X266690Y162952D01*
X266665Y162894D01*
X266636Y162838D01*
X266604Y162784D01*
X266569Y162732D01*
X266531Y162683D01*
X266489Y162635D01*
X266445Y162591D01*
X266397Y162549D01*
X266348Y162511D01*
X266296Y162476D01*
X266242Y162444D01*
X266186Y162415D01*
X266128Y162390D01*
X266069Y162369D01*
X266009Y162351D01*
X265947Y162338D01*
X265885Y162328D01*
X265823Y162322D01*
X265760Y162320D01*
X265697Y162322D01*
X265635Y162328D01*
X265573Y162338D01*
X265511Y162351D01*
X265451Y162369D01*
X265392Y162390D01*
X265334Y162415D01*
X265278Y162444D01*
X265224Y162476D01*
X265172Y162511D01*
X265123Y162549D01*
X265075Y162591D01*
X265031Y162635D01*
X264989Y162683D01*
X264951Y162732D01*
X264916Y162784D01*
X264884Y162838D01*
X264855Y162894D01*
X264830Y162952D01*
X264809Y163011D01*
X264791Y163071D01*
X264778Y163133D01*
X264768Y163195D01*
X264762Y163257D01*
X264760Y163320D01*
X265760Y163320D02*
X266760Y163320D01*
X264346Y163320D02*
X264348Y163395D01*
X264354Y163469D01*
X264364Y163543D01*
X264377Y163616D01*
X264395Y163689D01*
X264416Y163760D01*
X264441Y163831D01*
X264470Y163900D01*
X264503Y163967D01*
X264539Y164032D01*
X264578Y164096D01*
X264620Y164157D01*
X264666Y164216D01*
X264715Y164273D01*
X264767Y164326D01*
X264821Y164377D01*
X264878Y164426D01*
X264938Y164470D01*
X265000Y164512D01*
X265064Y164551D01*
X265130Y164586D01*
X265197Y164617D01*
X265267Y164645D01*
X265337Y164669D01*
X265409Y164690D01*
X265482Y164706D01*
X265555Y164719D01*
X265630Y164728D01*
X265704Y164733D01*
X265779Y164734D01*
X265853Y164731D01*
X265928Y164724D01*
X266001Y164713D01*
X266075Y164699D01*
X266147Y164680D01*
X266218Y164658D01*
X266288Y164632D01*
X266357Y164602D01*
X266423Y164569D01*
X266488Y164532D01*
X266551Y164492D01*
X266612Y164448D01*
X266670Y164402D01*
X266726Y164352D01*
X266779Y164300D01*
X266830Y164245D01*
X266877Y164187D01*
X266921Y164127D01*
X266962Y164064D01*
X267000Y164000D01*
X267034Y163934D01*
X267065Y163865D01*
X267092Y163796D01*
X267115Y163725D01*
X267134Y163653D01*
X267150Y163580D01*
X267162Y163506D01*
X267170Y163432D01*
X267174Y163357D01*
X267174Y163283D01*
X267170Y163208D01*
X267162Y163134D01*
X267150Y163060D01*
X267134Y162987D01*
X267115Y162915D01*
X267092Y162844D01*
X267065Y162775D01*
X267034Y162706D01*
X267000Y162640D01*
X266962Y162576D01*
X266921Y162513D01*
X266877Y162453D01*
X266830Y162395D01*
X266779Y162340D01*
X266726Y162288D01*
X266670Y162238D01*
X266612Y162192D01*
X266551Y162148D01*
X266488Y162108D01*
X266423Y162071D01*
X266357Y162038D01*
X266288Y162008D01*
X266218Y161982D01*
X266147Y161960D01*
X266075Y161941D01*
X266001Y161927D01*
X265928Y161916D01*
X265853Y161909D01*
X265779Y161906D01*
X265704Y161907D01*
X265630Y161912D01*
X265555Y161921D01*
X265482Y161934D01*
X265409Y161950D01*
X265337Y161971D01*
X265267Y161995D01*
X265197Y162023D01*
X265130Y162054D01*
X265064Y162089D01*
X265000Y162128D01*
X264938Y162170D01*
X264878Y162214D01*
X264821Y162263D01*
X264767Y162314D01*
X264715Y162367D01*
X264666Y162424D01*
X264620Y162483D01*
X264578Y162544D01*
X264539Y162608D01*
X264503Y162673D01*
X264470Y162740D01*
X264441Y162809D01*
X264416Y162880D01*
X264395Y162951D01*
X264377Y163024D01*
X264364Y163097D01*
X264354Y163171D01*
X264348Y163245D01*
X264346Y163320D01*
X202565Y140335D02*
X195701Y140335D01*
X202565Y140335D02*
X202565Y143767D01*
X201421Y144911D01*
X196845Y144911D01*
X195701Y143767D01*
X195701Y140335D01*
X202565Y147819D02*
X202565Y152395D01*
X202565Y147819D02*
X197989Y152395D01*
X196845Y152395D01*
X195701Y151251D01*
X195701Y148963D01*
X196845Y147819D01*
X215860Y212740D02*
X261660Y212740D01*
X261660Y173340D02*
X215860Y173340D01*
X215860Y206240D02*
X215860Y212740D01*
X215860Y179840D02*
X215860Y173340D01*
X261660Y206240D02*
X261660Y212740D01*
X261660Y179840D02*
X261660Y173340D01*
X264760Y209040D02*
X264762Y209103D01*
X264768Y209165D01*
X264778Y209227D01*
X264791Y209289D01*
X264809Y209349D01*
X264830Y209408D01*
X264855Y209466D01*
X264884Y209522D01*
X264916Y209576D01*
X264951Y209628D01*
X264989Y209677D01*
X265031Y209725D01*
X265075Y209769D01*
X265123Y209811D01*
X265172Y209849D01*
X265224Y209884D01*
X265278Y209916D01*
X265334Y209945D01*
X265392Y209970D01*
X265451Y209991D01*
X265511Y210009D01*
X265573Y210022D01*
X265635Y210032D01*
X265697Y210038D01*
X265760Y210040D01*
X265823Y210038D01*
X265885Y210032D01*
X265947Y210022D01*
X266009Y210009D01*
X266069Y209991D01*
X266128Y209970D01*
X266186Y209945D01*
X266242Y209916D01*
X266296Y209884D01*
X266348Y209849D01*
X266397Y209811D01*
X266445Y209769D01*
X266489Y209725D01*
X266531Y209677D01*
X266569Y209628D01*
X266604Y209576D01*
X266636Y209522D01*
X266665Y209466D01*
X266690Y209408D01*
X266711Y209349D01*
X266729Y209289D01*
X266742Y209227D01*
X266752Y209165D01*
X266758Y209103D01*
X266760Y209040D01*
X266758Y208977D01*
X266752Y208915D01*
X266742Y208853D01*
X266729Y208791D01*
X266711Y208731D01*
X266690Y208672D01*
X266665Y208614D01*
X266636Y208558D01*
X266604Y208504D01*
X266569Y208452D01*
X266531Y208403D01*
X266489Y208355D01*
X266445Y208311D01*
X266397Y208269D01*
X266348Y208231D01*
X266296Y208196D01*
X266242Y208164D01*
X266186Y208135D01*
X266128Y208110D01*
X266069Y208089D01*
X266009Y208071D01*
X265947Y208058D01*
X265885Y208048D01*
X265823Y208042D01*
X265760Y208040D01*
X265697Y208042D01*
X265635Y208048D01*
X265573Y208058D01*
X265511Y208071D01*
X265451Y208089D01*
X265392Y208110D01*
X265334Y208135D01*
X265278Y208164D01*
X265224Y208196D01*
X265172Y208231D01*
X265123Y208269D01*
X265075Y208311D01*
X265031Y208355D01*
X264989Y208403D01*
X264951Y208452D01*
X264916Y208504D01*
X264884Y208558D01*
X264855Y208614D01*
X264830Y208672D01*
X264809Y208731D01*
X264791Y208791D01*
X264778Y208853D01*
X264768Y208915D01*
X264762Y208977D01*
X264760Y209040D01*
X265760Y209040D02*
X266760Y209040D01*
X264346Y209040D02*
X264348Y209115D01*
X264354Y209189D01*
X264364Y209263D01*
X264377Y209336D01*
X264395Y209409D01*
X264416Y209480D01*
X264441Y209551D01*
X264470Y209620D01*
X264503Y209687D01*
X264539Y209752D01*
X264578Y209816D01*
X264620Y209877D01*
X264666Y209936D01*
X264715Y209993D01*
X264767Y210046D01*
X264821Y210097D01*
X264878Y210146D01*
X264938Y210190D01*
X265000Y210232D01*
X265064Y210271D01*
X265130Y210306D01*
X265197Y210337D01*
X265267Y210365D01*
X265337Y210389D01*
X265409Y210410D01*
X265482Y210426D01*
X265555Y210439D01*
X265630Y210448D01*
X265704Y210453D01*
X265779Y210454D01*
X265853Y210451D01*
X265928Y210444D01*
X266001Y210433D01*
X266075Y210419D01*
X266147Y210400D01*
X266218Y210378D01*
X266288Y210352D01*
X266357Y210322D01*
X266423Y210289D01*
X266488Y210252D01*
X266551Y210212D01*
X266612Y210168D01*
X266670Y210122D01*
X266726Y210072D01*
X266779Y210020D01*
X266830Y209965D01*
X266877Y209907D01*
X266921Y209847D01*
X266962Y209784D01*
X267000Y209720D01*
X267034Y209654D01*
X267065Y209585D01*
X267092Y209516D01*
X267115Y209445D01*
X267134Y209373D01*
X267150Y209300D01*
X267162Y209226D01*
X267170Y209152D01*
X267174Y209077D01*
X267174Y209003D01*
X267170Y208928D01*
X267162Y208854D01*
X267150Y208780D01*
X267134Y208707D01*
X267115Y208635D01*
X267092Y208564D01*
X267065Y208495D01*
X267034Y208426D01*
X267000Y208360D01*
X266962Y208296D01*
X266921Y208233D01*
X266877Y208173D01*
X266830Y208115D01*
X266779Y208060D01*
X266726Y208008D01*
X266670Y207958D01*
X266612Y207912D01*
X266551Y207868D01*
X266488Y207828D01*
X266423Y207791D01*
X266357Y207758D01*
X266288Y207728D01*
X266218Y207702D01*
X266147Y207680D01*
X266075Y207661D01*
X266001Y207647D01*
X265928Y207636D01*
X265853Y207629D01*
X265779Y207626D01*
X265704Y207627D01*
X265630Y207632D01*
X265555Y207641D01*
X265482Y207654D01*
X265409Y207670D01*
X265337Y207691D01*
X265267Y207715D01*
X265197Y207743D01*
X265130Y207774D01*
X265064Y207809D01*
X265000Y207848D01*
X264938Y207890D01*
X264878Y207934D01*
X264821Y207983D01*
X264767Y208034D01*
X264715Y208087D01*
X264666Y208144D01*
X264620Y208203D01*
X264578Y208264D01*
X264539Y208328D01*
X264503Y208393D01*
X264470Y208460D01*
X264441Y208529D01*
X264416Y208600D01*
X264395Y208671D01*
X264377Y208744D01*
X264364Y208817D01*
X264354Y208891D01*
X264348Y208965D01*
X264346Y209040D01*
X202565Y191135D02*
X195701Y191135D01*
X202565Y191135D02*
X202565Y194567D01*
X201421Y195711D01*
X196845Y195711D01*
X195701Y194567D01*
X195701Y191135D01*
X196845Y198619D02*
X195701Y199763D01*
X195701Y202051D01*
X196845Y203195D01*
X197989Y203195D01*
X199133Y202051D01*
X199133Y200907D01*
X199133Y202051D02*
X200277Y203195D01*
X201421Y203195D01*
X202565Y202051D01*
X202565Y199763D01*
X201421Y198619D01*
M02*
