G04 EAGLE Gerber RS-274X export*
G75*
%MOMM*%
%FSLAX34Y34*%
%LPD*%
%INSolderpaste Bottom*%
%IPPOS*%
%AMOC8*
5,1,8,0,0,1.08239X$1,22.5*%
G01*
%ADD10R,0.637100X0.562100*%
%ADD11R,0.929100X0.888400*%
%ADD12R,0.562100X0.637100*%
%ADD13R,0.600000X0.550000*%
%ADD14R,0.550000X1.500000*%
%ADD15R,0.280000X1.558800*%
%ADD16R,1.558800X0.280000*%
%ADD17R,1.155900X1.505900*%
%ADD18C,1.000000*%
%ADD19R,0.550000X0.600000*%
%ADD20R,0.599100X1.968500*%
%ADD21C,0.125000*%
%ADD22R,1.968500X0.599100*%
%ADD23R,0.888400X0.929100*%
%ADD24R,2.180800X3.120200*%
%ADD25R,4.611800X2.052800*%
%ADD26R,0.267500X0.922800*%


D10*
X210566Y462739D03*
X210566Y472489D03*
D11*
X185166Y425153D03*
X185166Y409745D03*
D10*
X191770Y358443D03*
X191770Y348693D03*
D12*
X487221Y501396D03*
X477471Y501396D03*
X446581Y320294D03*
X436831Y320294D03*
D10*
X495681Y430579D03*
X495681Y420829D03*
D12*
X487221Y487426D03*
X477471Y487426D03*
X446581Y332994D03*
X436831Y332994D03*
D11*
X511556Y427058D03*
X511556Y411650D03*
D12*
X244299Y371094D03*
X254049Y371094D03*
X238809Y286766D03*
X229059Y286766D03*
D10*
X195326Y462739D03*
X195326Y472489D03*
X199136Y419149D03*
X199136Y409399D03*
D12*
X487221Y518414D03*
X477471Y518414D03*
X487221Y533654D03*
X477471Y533654D03*
D10*
X395732Y619809D03*
X395732Y610059D03*
X380746Y620063D03*
X380746Y610313D03*
D12*
X390701Y325374D03*
X380951Y325374D03*
X390701Y312674D03*
X380951Y312674D03*
D13*
X208026Y335966D03*
X208026Y326466D03*
X191770Y335966D03*
X191770Y326466D03*
X222504Y490144D03*
X222504Y480644D03*
D14*
X146564Y311404D03*
X179064Y311404D03*
D15*
X315666Y508837D03*
X320666Y508837D03*
X325666Y508837D03*
X330666Y508837D03*
X335666Y508837D03*
X340666Y508837D03*
X345666Y508837D03*
X350666Y508837D03*
X355666Y508837D03*
X360666Y508837D03*
X365666Y508837D03*
X370666Y508837D03*
X375666Y508837D03*
X380666Y508837D03*
X385666Y508837D03*
X390666Y508837D03*
X395666Y508837D03*
X400666Y508837D03*
X405666Y508837D03*
X410666Y508837D03*
X415666Y508837D03*
X420666Y508837D03*
X425666Y508837D03*
X430666Y508837D03*
X435666Y508837D03*
D16*
X452449Y492054D03*
X452449Y487054D03*
X452449Y482054D03*
X452449Y477054D03*
X452449Y472054D03*
X452449Y467054D03*
X452449Y462054D03*
X452449Y457054D03*
X452449Y452054D03*
X452449Y447054D03*
X452449Y442054D03*
X452449Y437054D03*
X452449Y432054D03*
X452449Y427054D03*
X452449Y422054D03*
X452449Y417054D03*
X452449Y412054D03*
X452449Y407054D03*
X452449Y402054D03*
X452449Y397054D03*
X452449Y392054D03*
X452449Y387054D03*
X452449Y382054D03*
X452449Y377054D03*
X452449Y372054D03*
D15*
X435666Y355271D03*
X430666Y355271D03*
X425666Y355271D03*
X420666Y355271D03*
X415666Y355271D03*
X410666Y355271D03*
X405666Y355271D03*
X400666Y355271D03*
X395666Y355271D03*
X390666Y355271D03*
X385666Y355271D03*
X380666Y355271D03*
X375666Y355271D03*
X370666Y355271D03*
X365666Y355271D03*
X360666Y355271D03*
X355666Y355271D03*
X350666Y355271D03*
X345666Y355271D03*
X340666Y355271D03*
X335666Y355271D03*
X330666Y355271D03*
X325666Y355271D03*
X320666Y355271D03*
X315666Y355271D03*
D16*
X298883Y372054D03*
X298883Y377054D03*
X298883Y382054D03*
X298883Y387054D03*
X298883Y392054D03*
X298883Y397054D03*
X298883Y402054D03*
X298883Y407054D03*
X298883Y412054D03*
X298883Y417054D03*
X298883Y422054D03*
X298883Y427054D03*
X298883Y432054D03*
X298883Y437054D03*
X298883Y442054D03*
X298883Y447054D03*
X298883Y452054D03*
X298883Y457054D03*
X298883Y462054D03*
X298883Y467054D03*
X298883Y472054D03*
X298883Y477054D03*
X298883Y482054D03*
X298883Y487054D03*
X298883Y492054D03*
D17*
X254084Y345154D03*
X254084Y305594D03*
X229024Y305594D03*
X229024Y345154D03*
D12*
X41861Y294386D03*
X51611Y294386D03*
D13*
X395986Y601904D03*
X395986Y592404D03*
D18*
X180086Y471678D03*
D10*
X275336Y331929D03*
X275336Y341679D03*
X288036Y331929D03*
X288036Y341679D03*
D18*
X171323Y409829D03*
X279146Y293624D03*
D10*
X482981Y430579D03*
X482981Y420829D03*
X210566Y419149D03*
X210566Y409399D03*
D13*
X223266Y500456D03*
X223266Y509956D03*
X46736Y447624D03*
X46736Y457124D03*
X208026Y348691D03*
X208026Y358191D03*
X243586Y569544D03*
X243586Y579044D03*
X256286Y569544D03*
X256286Y579044D03*
X357886Y572084D03*
X357886Y581584D03*
X383286Y572084D03*
X383286Y581584D03*
X230886Y579044D03*
X230886Y569544D03*
X268986Y579044D03*
X268986Y569544D03*
X345186Y581584D03*
X345186Y572084D03*
X370586Y581584D03*
X370586Y572084D03*
X333121Y569544D03*
X333121Y579044D03*
X317246Y569544D03*
X317246Y579044D03*
X301371Y569544D03*
X301371Y579044D03*
X230886Y536880D03*
X230886Y527380D03*
D19*
X192964Y543814D03*
X183464Y543814D03*
D13*
X192786Y569544D03*
X192786Y579044D03*
X205486Y569544D03*
X205486Y579044D03*
X218186Y527888D03*
X218186Y537388D03*
D19*
X183464Y528574D03*
X192964Y528574D03*
X183464Y558546D03*
X192964Y558546D03*
D13*
X218186Y579044D03*
X218186Y569544D03*
D20*
X531876Y494888D03*
X544576Y494888D03*
X557276Y494888D03*
X569976Y494888D03*
X569976Y445420D03*
X557276Y445420D03*
X544576Y445420D03*
X531876Y445420D03*
D13*
X531876Y518744D03*
X531876Y528244D03*
X544576Y518744D03*
X544576Y528244D03*
X544576Y424104D03*
X544576Y414604D03*
X557276Y424104D03*
X557276Y414604D03*
X569976Y424104D03*
X569976Y414604D03*
X557276Y518744D03*
X557276Y528244D03*
D12*
X522556Y424434D03*
X532306Y424434D03*
D18*
X398526Y579120D03*
D21*
X304246Y589509D02*
X304246Y593259D01*
X304246Y589509D02*
X298496Y589509D01*
X298496Y593259D01*
X304246Y593259D01*
X304246Y590696D02*
X298496Y590696D01*
X298496Y591883D02*
X304246Y591883D01*
X304246Y593070D02*
X298496Y593070D01*
X304246Y598509D02*
X304246Y602259D01*
X304246Y598509D02*
X298496Y598509D01*
X298496Y602259D01*
X304246Y602259D01*
X304246Y599696D02*
X298496Y599696D01*
X298496Y600883D02*
X304246Y600883D01*
X304246Y602070D02*
X298496Y602070D01*
X320121Y593259D02*
X320121Y589509D01*
X314371Y589509D01*
X314371Y593259D01*
X320121Y593259D01*
X320121Y590696D02*
X314371Y590696D01*
X314371Y591883D02*
X320121Y591883D01*
X320121Y593070D02*
X314371Y593070D01*
X320121Y598509D02*
X320121Y602259D01*
X320121Y598509D02*
X314371Y598509D01*
X314371Y602259D01*
X320121Y602259D01*
X320121Y599696D02*
X314371Y599696D01*
X314371Y600883D02*
X320121Y600883D01*
X320121Y602070D02*
X314371Y602070D01*
X335996Y593259D02*
X335996Y589509D01*
X330246Y589509D01*
X330246Y593259D01*
X335996Y593259D01*
X335996Y590696D02*
X330246Y590696D01*
X330246Y591883D02*
X335996Y591883D01*
X335996Y593070D02*
X330246Y593070D01*
X335996Y598509D02*
X335996Y602259D01*
X335996Y598509D02*
X330246Y598509D01*
X330246Y602259D01*
X335996Y602259D01*
X335996Y599696D02*
X330246Y599696D01*
X330246Y600883D02*
X335996Y600883D01*
X335996Y602070D02*
X330246Y602070D01*
D22*
X192374Y229870D03*
X192374Y217170D03*
X192374Y204470D03*
X192374Y191770D03*
X142906Y191770D03*
X142906Y204470D03*
X142906Y217170D03*
X142906Y229870D03*
D19*
X109550Y218440D03*
X119050Y218440D03*
X109550Y203200D03*
X119050Y203200D03*
X213690Y229870D03*
X223190Y229870D03*
X213690Y191770D03*
X223190Y191770D03*
D10*
X95250Y193499D03*
X95250Y203249D03*
X95250Y228141D03*
X95250Y218391D03*
D23*
X142918Y247396D03*
X158326Y247396D03*
D22*
X398114Y229870D03*
X398114Y217170D03*
X398114Y204470D03*
X398114Y191770D03*
X348646Y191770D03*
X348646Y204470D03*
X348646Y217170D03*
X348646Y229870D03*
D19*
X315290Y218440D03*
X324790Y218440D03*
X315290Y203200D03*
X324790Y203200D03*
X419430Y229870D03*
X428930Y229870D03*
X419430Y191770D03*
X428930Y191770D03*
D10*
X299466Y193753D03*
X299466Y203503D03*
X299466Y228395D03*
X299466Y218645D03*
D23*
X358056Y246380D03*
X373464Y246380D03*
D22*
X606394Y227330D03*
X606394Y214630D03*
X606394Y201930D03*
X606394Y189230D03*
X556926Y189230D03*
X556926Y201930D03*
X556926Y214630D03*
X556926Y227330D03*
D19*
X523570Y215900D03*
X533070Y215900D03*
X523570Y200660D03*
X533070Y200660D03*
X627710Y227330D03*
X637210Y227330D03*
X627710Y189230D03*
X637210Y189230D03*
D10*
X508000Y190705D03*
X508000Y200455D03*
X508000Y225855D03*
X508000Y216105D03*
D23*
X556176Y243840D03*
X571584Y243840D03*
D19*
X59004Y218440D03*
X68504Y218440D03*
X59004Y203200D03*
X68504Y203200D03*
D24*
X227867Y144780D03*
X158213Y144780D03*
D19*
X263982Y218440D03*
X273482Y218440D03*
X264236Y203708D03*
X273736Y203708D03*
D24*
X387887Y144780D03*
X318233Y144780D03*
D19*
X469722Y216154D03*
X479222Y216154D03*
X469976Y200406D03*
X479476Y200406D03*
D24*
X522703Y135890D03*
X592357Y135890D03*
D18*
X154686Y336804D03*
X482600Y382270D03*
D25*
X243586Y448039D03*
X243586Y408449D03*
D21*
X289641Y589509D02*
X289641Y593259D01*
X289641Y589509D02*
X283891Y589509D01*
X283891Y593259D01*
X289641Y593259D01*
X289641Y590696D02*
X283891Y590696D01*
X283891Y591883D02*
X289641Y591883D01*
X289641Y593070D02*
X283891Y593070D01*
X289641Y598509D02*
X289641Y602259D01*
X289641Y598509D02*
X283891Y598509D01*
X283891Y602259D01*
X289641Y602259D01*
X289641Y599696D02*
X283891Y599696D01*
X283891Y600883D02*
X289641Y600883D01*
X289641Y602070D02*
X283891Y602070D01*
D13*
X286766Y569544D03*
X286766Y579044D03*
D10*
X350520Y938325D03*
X350520Y928575D03*
D12*
X345997Y861314D03*
X336247Y861314D03*
D11*
X367030Y943948D03*
X367030Y928540D03*
D23*
X351366Y848360D03*
X335958Y848360D03*
D13*
X332740Y938860D03*
X332740Y948360D03*
X367030Y879018D03*
X367030Y869518D03*
X367030Y908990D03*
X367030Y899490D03*
D19*
X315646Y879094D03*
X306146Y879094D03*
X316154Y909066D03*
X306654Y909066D03*
D18*
X386080Y879094D03*
X386080Y909066D03*
X363220Y848360D03*
X332740Y924560D03*
D26*
X346590Y879048D03*
X341590Y879048D03*
X336590Y879048D03*
X331590Y879048D03*
X331590Y909112D03*
X336590Y909112D03*
X341590Y909112D03*
X346590Y909112D03*
D13*
X302006Y323774D03*
X302006Y314274D03*
X317246Y323774D03*
X317246Y314274D03*
X332486Y323774D03*
X332486Y314274D03*
X347726Y323774D03*
X347726Y314274D03*
D21*
X503911Y562529D02*
X507661Y562529D01*
X503911Y562529D02*
X503911Y568279D01*
X507661Y568279D01*
X507661Y562529D01*
X507661Y563716D02*
X503911Y563716D01*
X503911Y564903D02*
X507661Y564903D01*
X507661Y566090D02*
X503911Y566090D01*
X503911Y567277D02*
X507661Y567277D01*
X512911Y562529D02*
X516661Y562529D01*
X512911Y562529D02*
X512911Y568279D01*
X516661Y568279D01*
X516661Y562529D01*
X516661Y563716D02*
X512911Y563716D01*
X512911Y564903D02*
X516661Y564903D01*
X516661Y566090D02*
X512911Y566090D01*
X512911Y567277D02*
X516661Y567277D01*
X507661Y547289D02*
X503911Y547289D01*
X503911Y553039D01*
X507661Y553039D01*
X507661Y547289D01*
X507661Y548476D02*
X503911Y548476D01*
X503911Y549663D02*
X507661Y549663D01*
X507661Y550850D02*
X503911Y550850D01*
X503911Y552037D02*
X507661Y552037D01*
X512911Y547289D02*
X516661Y547289D01*
X512911Y547289D02*
X512911Y553039D01*
X516661Y553039D01*
X516661Y547289D01*
X516661Y548476D02*
X512911Y548476D01*
X512911Y549663D02*
X516661Y549663D01*
X516661Y550850D02*
X512911Y550850D01*
X512911Y552037D02*
X516661Y552037D01*
D19*
X477596Y565404D03*
X487096Y565404D03*
X477596Y550164D03*
X487096Y550164D03*
D18*
X80772Y218440D03*
X80264Y203200D03*
X285242Y203708D03*
X284988Y218440D03*
X493014Y200406D03*
X491998Y216154D03*
X650240Y284480D03*
X45720Y1270000D03*
X645160Y1270000D03*
M02*
