^C:\R2000HEXPREP.11.30.2020\R2000HEXPREP\STDAFX.CPP
/c /ZI /nologo /W3 /WX- /diagnostics:column /Od /Oy- /D WIN32 /D _DEBUG /D _CONSOLE /D _CRT_SECURE_NO_WARNINGS /Gm /EHsc /RTC1 /MT /GS /fp:precise /Zc:wchar_t /Zc:forScope /Zc:inline /Yc"stdafx.h" /Fp"DEBUG\R2000HEXPREP.PCH" /Fo"DEBUG\\" /Fd"DEBUG\VC142.PDB" /Gd /TP /analyze- /FC C:\R2000HEXPREP.11.30.2020\R2000HEXPREP\STDAFX.CPP
^C:\R2000HEXPREP.11.30.2020\R2000HEXPREP\R2000HEXPREP.CPP
/c /ZI /nologo /W3 /WX- /diagnostics:column /Od /Oy- /D WIN32 /D _DEBUG /D _CONSOLE /D _CRT_SECURE_NO_WARNINGS /Gm /EHsc /RTC1 /MT /GS /fp:precise /Zc:wchar_t /Zc:forScope /Zc:inline /Yu"stdafx.h" /Fp"DEBUG\R2000HEXPREP.PCH" /Fo"DEBUG\\" /Fd"DEBUG\VC142.PDB" /Gd /TP /analyze- /FC C:\R2000HEXPREP.11.30.2020\R2000HEXPREP\R2000HEXPREP.CPP
