^C:\R2000HEXPREP.11.30.2020\R2000HEXPREP\DEBUG\R2000HEXPREP.OBJ|C:\R2000HEXPREP.11.30.2020\R2000HEXPREP\DEBUG\STDAFX.OBJ
C:\R2000HEXPREP.11.30.2020\DEBUG\R2000HEXPREP.EXE
C:\R2000HEXPREP.11.30.2020\DEBUG\R2000HEXPREP.ILK
C:\R2000HEXPREP.11.30.2020\DEBUG\R2000HEXPREP.PDB
