C100	48.23	51.84	0.00	0.1uF	CAPC1005X60
C101	48.23	53.37	0.00	10nF	CAPC1005X60
C102	39.57	61.49	270.00	0.1uF	CAPC1005X60
C103	38.07	61.52	270.00	10nF	CAPC1005X60
C104	34.37	84.84	0.00	1uF	CAPC1608X55
C105	34.11	86.13	0.00	0.1uF	CAPC1005X60
C106	35.05	93.34	270.00	0.1uF	CAPC1005X60
C107	36.70	93.62	270.00	1uF	CAPC1608X55
C70	50.80	19.56	90.00	15pF	CAPC1005X60
C71	9.53	19.84	90.00	15pF	CAPC1005X60
C72	29.95	19.86	90.00	15pF	CAPC1005X60
C73	50.80	22.10	270.00	15pF	CAPC1005X60
C74	9.53	22.33	270.00	15pF	CAPC1005X60
C75	29.95	22.35	270.00	15pF	CAPC1005X60
C76	56.39	24.38	180.00	1uF	CAPC1608X55
C77	36.58	24.64	180.00	1uF	CAPC1608X55
C78	15.06	24.74	180.00	1uF	CAPC1608X55
C79	23.39	28.68	0.00	20pF	CAPC1005X60
C80	4.67	29.44	180.00	0.1uF	CAPC1005X60
C81	38.58	31.27	0.00	10nF	CAPC1005X60
C82	44.17	32.03	0.00	10nF	CAPC1005X60
C83	38.58	32.54	0.00	0.1uF	CAPC1005X60
C84	44.17	33.30	0.00	0.1uF	CAPC1005X60
C85	27.53	33.68	90.00	10nF	CAPC1005X60
C86	28.80	33.68	90.00	0.1uF	CAPC1005X60
C87	19.18	35.36	270.00	0.1uF	CAPC1005X60
C88	24.92	37.11	180.00	20pF	CAPC1005X60
C89	19.91	41.43	270.00	0.1uF	CAPC1005X60
C90	21.06	41.43	270.00	10nF	CAPC1005X60
C91	18.52	41.74	270.00	DNP	CAPC1608X55
C92	51.16	41.94	270.00	4.7uF	CAPC1608X55
C93	52.74	42.44	180.00	0.1uF	CAPC1005X60
C94	48.30	42.57	270.00	10nF	CAPC1005X60
C95	49.57	42.57	270.00	0.1uF	CAPC1005X60
C96	19.53	46.76	90.00	10nF	CAPC1005X60
C97	21.06	46.76	90.00	0.1uF	CAPC1005X60
C98	48.23	48.74	0.00	10nF	CAPC1005X60
C99	48.23	50.14	0.00	0.1uF	CAPC1005X60
D22	55.75	13.59	180.00	1SMC33AT3G	DIOM7959X262N
D23	19.30	14.48	0.00	1SMC33AT3G	DIOM7959X262N
D24	35.31	14.48	0.00	1SMC33AT3G	DIOM7959X262N
D25	51.03	55.02	270.00	1830-1056-1-ND	LEDC1005X60N
D26	51.03	56.54	270.00	1830-1056-1-ND	LEDC1005X60N
D27	28.68	59.59	180.00	1830-1056-1-ND	LEDC1005X60N
D28	30.14	59.59	180.00	1830-1056-1-ND	LEDC1005X60N
D29	31.72	59.59	180.00	1830-1056-1-ND	LEDC1005X60N
D30	33.31	59.59	180.00	1830-1056-1-ND	LEDC1005X60N
J8	6.83	37.11	180.00	TC2050-IDC-NL	TAG-CONNECT_TC2050-IDC-NL
L7	24.36	42.82	270.00	10uH	INDM4949X400
R100	47.47	20.04	180.00	0	RESC1005X40
R101	52.83	20.07	180.00	0	RESC1005X40
R102	6.38	20.32	180.00	0	RESC1005X40
R103	11.43	20.32	180.00	0	RESC1005X40
R104	32.00	20.32	180.00	0	RESC1005X40
R105	26.90	20.37	180.00	0	RESC1005X40
R106	52.83	21.59	180.00	0	RESC1005X40
R107	47.45	21.62	180.00	0	RESC1005X40
R108	6.38	21.84	180.00	0	RESC1005X40
R109	11.43	21.84	180.00	0	RESC1005X40
R110	26.87	21.84	180.00	0	RESC1005X40
R111	32.00	21.84	180.00	0	RESC1005X40
R112	63.25	22.73	180.00	0	RESC1005X40
R113	21.84	22.99	180.00	0	RESC1005X40
R114	42.42	22.99	180.00	0	RESC1005X40
R115	30.20	31.90	270.00	DNP	RESC1005X40
R116	31.72	31.90	270.00	DNP	RESC1005X40
R117	33.25	31.90	270.00	DNP	RESC1005X40
R118	34.77	31.90	270.00	DNP	RESC1005X40
R119	19.18	33.12	270.00	100	RESC1005X40
R120	20.80	33.12	270.00	100K	RESC1005X40
R121	20.80	35.34	90.00	100	RESC1005X40
R122	54.46	41.94	270.00	10K	RESC1005X40
R123	55.73	41.94	270.00	10K	RESC1005X40
R124	57.00	41.94	270.00	DNP	RESC1005X40
R125	4.67	45.24	90.00	DNP	RESC1005X40
R126	22.25	48.54	270.00	100K	RESC1005X40
R127	22.33	50.52	90.00	100K	RESC1005X40
R128	53.19	52.35	90.00	10K	RESC1005X40
R129	54.46	52.35	90.00	DNP	RESC1005X40
R130	55.73	52.35	90.00	10K	RESC1005X40
R131	18.82	52.86	180.00	DNP	RESC1005X40
R132	23.09	53.21	270.00	DNP	RESC1005X40
R133	21.82	53.26	90.00	DNP	RESC1005X40
R134	18.82	54.38	0.00	DNP	RESC1005X40
R135	48.23	55.02	180.00	510	RESC1005X40
R136	18.82	55.85	180.00	DNP	RESC1005X40
R137	48.23	56.54	180.00	510	RESC1005X40
R138	19.28	57.43	90.00	DNP	RESC1005X40
R139	20.55	57.43	90.00	DNP	RESC1005X40
R140	21.82	57.43	270.00	DNP	RESC1005X40
R141	23.09	57.43	270.00	DNP	RESC1005X40
R142	24.36	57.43	90.00	DNP	RESC1005X40
R143	25.63	57.43	90.00	DNP	RESC1005X40
R144	26.90	57.43	270.00	DNP	RESC1005X40
R145	28.68	57.43	90.00	510	RESC1005X40
R146	30.14	57.43	90.00	510	RESC1005X40
R147	31.72	57.43	90.00	510	RESC1005X40
R148	33.31	57.43	90.00	510	RESC1005X40
R149	34.52	57.68	270.00	DNP	RESC1005X40
R150	35.79	57.68	90.00	DNP	RESC1005X40
R151	37.06	57.68	270.00	DNP	RESC1005X40
R152	38.33	57.68	90.00	DNP	RESC1005X40
R153	39.60	59.72	270.00	0	RESC1005X40
R154	36.70	87.43	270.00	4.7K	RESC1005X40
R155	31.09	87.91	0.00	4.7K	RESC1005X40
R156	36.70	90.42	270.00	4.7K	RESC1005X40
R157	31.14	90.91	0.00	4.7K	RESC1005X40
R158	33.27	94.36	90.00	4.7K	RESC1005X40
R97	63.25	18.92	180.00	0	RESC1005X40
R98	21.84	19.18	180.00	0	RESC1005X40
R99	42.42	19.18	180.00	0	RESC1005X40
SW1	16.28	31.14	180.00	KXT331LHS	CKSWITCHES_KXT3
TP22	49.30	20.04	90.00	INTERFACE_1	CIR_PAD_1MM
TP23	8.03	20.32	0.00	INTERFACE_1	CIR_PAD_1MM
TP24	28.52	20.37	0.00	INTERFACE_1	CIR_PAD_1MM
TP25	49.20	21.62	270.00	INTERFACE_1	CIR_PAD_1MM
TP26	8.08	21.84	90.00	INTERFACE_1	CIR_PAD_1MM
TP27	28.50	21.84	180.00	INTERFACE_1	CIR_PAD_1MM
TP28	27.91	29.36	90.00	GND	CIR_PAD_1MM
TP29	48.26	38.23	0.00	COM_7.3	CIR_PAD_1MM
TP30	15.47	33.68	180.00	COM_7.3	CIR_PAD_1MM
TP31	17.13	40.98	270.00	VDDCORE	CIR_PAD_1MM
TP32	18.01	47.17	0.00	3V3	CIR_PAD_1MM
TP33	39.85	57.91	180.00	VDD_A	CIR_PAD_1MM
TP34	36.32	84.84	180.00	GND	CIR_PAD_1MM
TP35	38.61	87.91	180.00	SDA2_5V	CIR_PAD_1MM
TP36	38.61	90.91	180.00	SCL_2	CIR_PAD_1MM
TP37	33.27	92.46	270.00	OE	CIR_PAD_1MM
TP40	65.02	28.45	0.00		CIR_PAD_1MM
TP41	4.57	127.00	0.00		CIR_PAD_1MM
TP42	64.52	127.00	0.00		CIR_PAD_1MM
U10	58.17	20.83	0.00	ADM3061EBRZ	SOIC127P600X175-8
U11	16.76	21.08	0.00	ADM3061EBRZ	SOIC127P600X175-8
U12	37.34	21.08	0.00	ADM3061EBRZ	SOIC127P600X175-8
U13	37.57	43.21	270.00	SAM51N19/SAMD51N20	QFP50P1600X1600X120-100
U14	55.09	47.02	270.00	W25x40CL/MX25V8035FM1I 	SOIC127P600X175-8
U15	33.91	89.41	90.00	TCA9406DCUR	SOP50P310X90-8
Y1	24.16	32.54	270.00	ECS_ECX-53B-DU	OSCCC500X320X110
