C1	22.68	16.64	180.00	DNP	CAPC1608X55
C10	50.88	44.64	180.00	DNP	CAPC1608X55
C11	20.52	44.64	180.00	DNP	CAPC1608X55
C12	35.39	44.64	180.00	DNP	CAPC1608X55
C13	52.32	59.31	90.00	22nF	CAPC1608X55
C14	64.77	61.85	270.00	6.8nF	CAPC1608X55
C15	31.09	62.04	180.00	0.1uF	CAPC1005X60
C16	31.34	63.59	180.00	1uF	CAPC1608X55
C17	49.48	69.29	270.00	DNP	CAPC2012X127
C18	51.82	69.29	270.00	DNP	CAPC1608X55
C19	17.68	70.13	180.00	4.7uF	CAPC2012X127
C2	37.80	16.76	180.00	DNP	CAPC1608X55
C20	34.67	71.98	180.00	0.1uF	CAPC1005X60
C21	17.55	72.14	180.00	0.1uF	CAPC1608X55
C22	56.26	72.52	270.00	0.1uF	CAPC1005X60
C23	5.84	73.66	180.00	0.1uF	CAPC1005X60
C24	17.35	73.69	180.00	10nF	CAPC1005X60
C25	11.56	76.71	0.00	10nF	CAPC1005X60
C26	17.27	76.71	180.00	330pF	CAPC1005X60
C27	53.21	78.36	90.00	10nF	CAPC1005X60
C28	21.15	78.57	0.00	0.1uF	CAPC1005X60
C29	20.89	80.29	0.00	1uF	CAPC1608X55
C3	53.04	16.76	180.00	DNP	CAPC1608X55
C30	56.49	84.96	270.00	10nF	CAPC1005X60
C31	58.12	85.17	270.00	0.1uF	CAPC1608X55
C32	59.97	85.27	270.00	4.7uF	CAPC2012X127
C33	54.32	85.47	270.00	330pF	CAPC1005X60
C34	7.37	85.98	0.00	0.1uF	CAPC1608X55
C35	19.05	87.63	0.00	4.7uF	CAPC2012X127
C36	7.32	88.01	180.00	4.7uF	CAPC2012X127
C37	19.05	90.04	0.00	4.7uF	CAPC2012X127
C38	43.43	90.60	270.00	10nF	CAPC1005X60
C39	7.32	90.42	180.00	4.7uF	CAPC2012X127
C4	50.67	34.80	180.00	10nF	CAPC1608X55
C40	44.98	90.81	270.00	0.1uF	CAPC1608X55
C41	47.12	90.93	90.00	4.7uF	CAPC2012X127
C42	49.40	90.93	90.00	4.7uF	CAPC2012X127
C43	51.69	90.93	90.00	4.7uF	CAPC2012X127
C44	53.98	90.93	90.00	4.7uF	CAPC2012X127
C45	7.68	92.33	0.00	10nF	CAPC1005X60
C46	51.54	96.04	0.00	220nF	CAPC1005X60
C47	53.28	96.01	0.00	220nF	CAPC1005X60
C48	19.30	98.17	0.00	3.3uF	CAPC1608X55
C49	37.16	100.10	90.00	1uF	CAPC1608X55
C5	35.31	34.80	180.00	10nF	CAPC1608X55
C50	35.51	100.38	90.00	0.1uF	CAPC1005X60
C51	46.76	100.47	90.00	3.3uF	CAPC1608X55
C52	48.59	102.67	90.00	0.1uF	CAPC1005X60
C53	21.08	103.89	270.00	0.1uF	CAPC1005X60
C54	22.86	106.36	270.00	3.3uF	CAPC1608X55
C55	34.57	107.59	180.00	0.1uF	CAPC1005X60
C56	50.55	108.46	180.00	3.3uF	CAPC1608X55
C57	34.82	108.89	180.00	1uF	CAPC1608X55
C58	16.29	110.59	180.00	220nF	CAPC1005X60
C59	18.03	110.62	180.00	220nF	CAPC1005X60
C6	20.32	34.80	180.00	10nF	CAPC1608X55
C60	48.96	113.92	180.00	3.3uF	CAPC1608X55
C61	26.10	114.25	180.00	3.3uF	CAPC1608X55
C62	46.96	115.67	180.00	0.1uF	CAPC1005X60
C63	23.90	115.80	180.00	0.1uF	CAPC1005X60
C64	40.89	117.48	270.00	3.3uF	CAPC1608X55
C65	18.03	117.86	270.00	3.3uF	CAPC1608X55
C66	53.59	118.75	90.00	220nF	CAPC1005X60
C67	30.73	119.13	90.00	220nF	CAPC1005X60
C68	53.59	120.48	90.00	220nF	CAPC1005X60
C69	30.73	120.87	90.00	220nF	CAPC1005X60
C7	50.88	42.95	180.00	DNP	CAPC1608X55
C8	20.52	42.95	180.00	DNP	CAPC1608X55
C9	35.39	42.95	180.00	DNP	CAPC1608X55
D1	24.26	13.21	0.00	ES2D-13-F	DO214AA_SMB
D10	46.66	44.45	90.00	ES2D-13-F	DO214AA_SMB
D11	31.42	45.47	90.00	ES2D-13-F	DO214AA_SMB
D12	16.51	44.70	90.00	ES2D-13-F	DO214AA_SMB
D16	45.47	67.92	270.00	CDBA140-G 	DO214AC_SMA
D17	31.88	68.86	180.00	CGRA4001-G	DO214AC_SMA
D18	63.02	69.93	90.00	DNP	DO214AC_SMA
D19	50.16	77.85	90.00	B320A-13-F/B220A-13-F 	DO214AC_SMA
D2	39.18	13.21	0.00	ES2D-13-F	DO214AA_SMB
D20	11.18	80.26	0.00	B320A-13-F/B220A-13-F 	DO214AC_SMA
D21	45.97	85.41	270.00	DNP	DO214AC_SMA
D3	54.48	13.21	0.00	ES2D-13-F	DO214AA_SMB
D4	20.45	24.77	180.00	DNP	DO214AC_SMA
D5	35.31	24.77	180.00	DNP	DO214AC_SMA
D6	50.80	24.77	180.00	DNP	DO214AC_SMA
D7	35.31	31.88	180.00	3SMAJ5925B-TP	DO214AC_SMA
D8	50.67	31.88	180.00	3SMAJ5925B-TP	DO214AC_SMA
D9	20.45	31.88	180.00	3SMAJ5925B-TP	DO214AC_SMA
GND	65.02	28.45	0.00	GND	CIR_PAD_1MM
L1	25.15	65.05	270.00	10uH	INDM4949X400
L2	13.97	66.29	0.00	DNP	INDM5050X430
L3	63.63	80.65	90.00	10uH	INDM5050X430
L4	26.29	82.83	180.00	10uH	INDM4949X400
L5	50.55	85.22	90.00	22uH	INDM5050X430
L6	14.10	85.85	90.00	22uH	INDM5050X430
Q1	19.69	20.27	270.00	SSM3J356R,LF 	SOT95P280X135-3
Q10	47.69	59.08	270.00	BUK72150-55A,118	TO457P1000X238-3
Q11	31.18	73.18	270.00	CMST2907A TR PBFREE	SOT65P210X110-3
Q2	35.31	20.27	270.00	SSM3J356R,LF 	SOT95P280X135-3
Q3	50.80	20.27	270.00	SSM3J356R,LF 	SOT95P280X135-3
Q4	39.50	36.32	270.00	SSM3K2615R,LF 	SOT95P280X135-3
Q5	54.89	36.83	270.00	SSM3K2615R,LF 	SOT95P280X135-3
Q6	50.11	37.97	270.00	SSM3J356R,LF 	SOT95P280X135-3
Q7	24.26	36.58	270.00	SSM3K2615R,LF 	SOT95P280X135-3
Q8	34.62	37.97	270.00	SSM3J356R,LF 	SOT95P280X135-3
Q9	19.63	37.97	270.00	SSM3J356R,LF 	SOT95P280X135-3
R1	18.80	16.64	0.00	DNP	RESC1608X55
R10	37.54	28.37	270.00	0	RESC1608X55
R11	53.04	28.37	270.00	0	RESC1608X55
R12	18.92	28.40	180.00	442K	RESC1608X55
R13	42.67	36.27	0.00	10K	RESC1005X40
R14	59.56	37.72	270.00	10K	RESC1005X40
R15	27.43	36.07	0.00	10K	RESC1005X40
R159	61.72	49.53	90.00	0	RESC2012X70
R16	39.47	41.33	90.00	30K	RESC1608X55
R160	42.67	37.72	180.00	470	RESC1005X40
R161	58.04	37.72	90.00	470	RESC1005X40
R162	58.17	49.53	90.00	0	RESC2012X70
R163	27.43	37.59	180.00	470	RESC1005X40
R164	65.53	49.53	90.00	0	RESC2012X70
R165	66.04	69.91	90.00	0	RESC2012X70
R166	42.93	84.71	270.00	0	RESC2012X70
R17	54.97	41.71	90.00	30K	RESC1608X55
R18	24.23	41.33	90.00	30K	RESC1608X55
R19	27.81	43.43	90.00	DNP	RESC2012X70
R2	34.29	16.76	0.00	DNP	RESC1608X55
R20	13.21	45.21	90.00	DNP	RESC2012X70
R21	43.18	45.47	90.00	DNP	RESC2012X70
R22	35.69	47.37	180.00	0	RESC3115X70
R23	21.46	47.88	180.00	0	RESC3115X70
R24	57.15	54.99	180.00	0.20	RESC2012X70
R25	54.10	56.16	270.00	0	RESC2012X70
R26	57.15	57.28	180.00	DNP	RESC2012X70
R27	60.71	57.53	0.00	56K	RESC1005X40
R28	66.29	57.91	0.00	10K	RESC1005X40
R29	66.55	59.56	90.00	10K	RESC1005X40
R3	49.66	16.76	0.00	DNP	RESC1608X55
R30	54.61	60.07	180.00	1K	RESC1005X40
R31	54.61	61.72	0.00	10	RESC1005X40
R32	66.55	62.10	90.00	8.87K	RESC1005X40
R33	57.15	62.99	0.00	470K	RESC1005X40
R34	13.97	62.74	0.00	0	RESC1608X55
R35	58.93	62.99	0.00	0	RESC1005X40
R36	28.77	65.11	90.00	DNP	RESC1608X55
R37	4.83	70.61	0.00	1K	RESC1608X55
R38	59.31	71.50	90.00	1K	RESC1608X55
R39	5.84	72.39	0.00	DNP	RESC1005X40
R4	24.89	21.59	180.00	DNP	RESC1608X55
R40	57.53	72.52	90.00	DNP	RESC1005X40
R41	31.36	75.65	180.00	49.9K	RESC1005X40
R42	53.21	76.33	90.00	3	RESC1005X40
R43	9.65	76.71	0.00	3	RESC1005X40
R44	15.24	76.71	180.00	5.1	RESC1005X40
R45	26.23	78.51	180.00	931	RESC1608X55
R46	29.46	78.51	0.00	1.58K	RESC1608X55
R47	67.18	80.65	90.00	DNP	RESC1608X55
R48	54.34	83.69	270.00	5.1	RESC1005X40
R49	7.37	84.12	0.00	6.34K	RESC1608X55
R5	40.13	21.59	180.00	DNP	RESC1608X55
R50	26.28	87.27	0.00	DNP	RESC1608X55
R51	55.88	87.91	180.00	2.94K	RESC1608X55
R52	19.02	96.42	180.00	0	RESC1005X40
R53	48.13	96.90	180.00	0	RESC1005X40
R54	48.13	98.23	0.00	1K	RESC1005X40
R55	22.35	98.68	180.00	0	RESC1005X40
R56	33.27	99.24	180.00	4.7K	RESC1005X40
R57	15.37	99.44	270.00	DNP	RESC1005X40
R58	16.76	99.44	90.00	1K	RESC1005X40
R59	22.35	99.95	180.00	DNP	RESC1005X40
R6	55.30	21.49	180.00	DNP	RESC1608X55
R60	48.56	100.14	270.00	DNP	RESC1005X40
R61	22.35	101.22	180.00	0	RESC1005X40
R62	31.95	102.34	270.00	4.7K	RESC1005X40
R63	22.35	102.49	180.00	DNP	RESC1005X40
R64	37.03	103.28	90.00	4.7K	RESC1005X40
R65	47.50	104.14	0.00	0	RESC1005X40
R66	47.50	105.41	0.00	DNP	RESC1005X40
R67	47.50	106.68	0.00	0	RESC1005X40
R68	32.08	106.30	90.00	4.7K	RESC1005X40
R69	37.03	106.30	90.00	4.7K	RESC1005X40
R7	33.91	28.40	180.00	442K	RESC1608X55
R70	21.11	106.49	90.00	0	RESC1005X40
R71	53.09	107.19	270.00	1K	RESC1005X40
R72	54.48	107.19	90.00	DNP	RESC1005X40
R73	47.50	107.95	0.00	DNP	RESC1005X40
R74	21.44	108.62	180.00	1K	RESC1005X40
R75	21.44	109.86	0.00	DNP	RESC1005X40
R76	50.80	110.11	0.00	0	RESC1005X40
R77	41.66	114.68	90.00	DNP	RESC1005X40
R78	42.93	114.68	90.00	0	RESC1005X40
R79	44.17	114.68	90.00	DNP	RESC1005X40
R8	49.40	28.40	180.00	442K	RESC1608X55
R80	45.42	114.71	90.00	0	RESC1005X40
R81	51.37	115.06	90.00	1K	RESC1005X40
R82	52.71	115.06	270.00	DNP	RESC1005X40
R83	28.51	115.44	90.00	1K	RESC1005X40
R84	29.85	115.44	270.00	0	RESC1005X40
R85	18.54	115.06	90.00	0	RESC1005X40
R86	19.81	115.06	90.00	DNP	RESC1005X40
R87	21.08	115.06	90.00	0	RESC1005X40
R88	22.35	115.06	90.00	DNP	RESC1005X40
R89	49.40	115.67	0.00	0	RESC1005X40
R9	22.68	28.37	270.00	0	RESC1608X55
R90	26.35	115.82	0.00	DNP	RESC1005X40
R91	39.24	117.73	90.00	0	RESC1005X40
R92	16.38	118.11	90.00	0	RESC1005X40
R93	42.42	120.02	0.00	1K	RESC1005X40
R94	19.56	120.40	0.00	1K	RESC1005X40
R95	42.42	121.41	180.00	DNP	RESC1005X40
R96	19.56	121.79	180.00	DNP	RESC1005X40
TP1	65.53	41.66	0.00	INTERFACE_3	CIR_PAD_1MM
TP10	33.73	101.27	90.00	OE	CIR_PAD_1MM
TP11	38.73	102.64	0.00	SCL1_5V	CIR_PAD_1MM
TP12	30.99	98.02	90.00	OE	CIR_PAD_1MM
TP13	32.00	104.75	90.00	OE	CIR_PAD_1MM
TP14	38.43	105.77	0.00	SDA1_5V	CIR_PAD_1MM
TP15	58.45	108.13	90.00	PA03	CIR_PAD_1MM
TP16	36.78	108.89	0.00	GND	CIR_PAD_1MM
TP17	58.60	109.78	180.00	HB3_SPEED	CIR_PAD_1MM
TP18	36.98	130.45	0.00	HB3_SPEED	CIR_PAD_1MM
TP19	32.94	130.61	180.00	HB3_SPEED	CIR_PAD_1MM
TP2	58.17	41.66	0.00	INTERFACE_1	CIR_PAD_1MM
TP20	32.94	132.59	270.00	PA02	CIR_PAD_1MM
TP21	37.34	132.59	0.00	PA02	CIR_PAD_1MM
TP3	61.72	41.66	0.00	INTERFACE_2	CIR_PAD_1MM
TP38	4.57	127.00	0.00		CIR_PAD_1MM
TP39	64.52	127.00	0.00		CIR_PAD_1MM
TP4	41.02	46.86	90.00	AISG_3_VOUT	CIR_PAD_1MM
TP5	28.19	46.86	180.00	AISG_2_VOUT	CIR_PAD_1MM
TP6	13.21	48.26	90.00	AISG_1_VOUT	CIR_PAD_1MM
TP7	60.71	63.12	180.00	PG_OUT	CIR_PAD_1MM
TP8	5.92	96.77	180.00	HB3_DIR	CIR_PAD_1MM
TP9	5.08	97.79	270.00	PA02	CIR_PAD_1MM
U1	60.45	60.07	180.00	TPS2491DGSR	SOP50P490X110-10
U2	25.27	72.92	270.00	LM317AEMP/NOPB	SOT230P700X180-4
U3	10.92	73.03	0.00	LM22672MRX-ADJ	SOIC127P600X175-9
U4	56.90	77.60	90.00	LM22672MRX-ADJ	SOIC127P600X175-9
U5	54.10	101.35	270.00	AMIS 30624	QFN65P700X700X80-33
U6	34.37	104.32	270.00	TCA9406DCUR	SOP50P310X90-8
U7	15.75	105.28	90.00	AMIS 30624	QFN65P700X700X80-33
U8	48.26	121.03	0.00	AMIS 30624	QFN65P700X700X80-33
U9	25.40	121.41	0.00	AMIS 30624	QFN65P700X700X80-33
