G04 EAGLE Gerber RS-274X export*
G75*
%MOMM*%
%FSLAX34Y34*%
%LPD*%
%INBottom Copper*%
%IPPOS*%
%AMOC8*
5,1,8,0,0,1.08239X$1,22.5*%
G01*
%ADD10C,1.208000*%
%ADD11C,1.270000*%
%ADD12C,1.422400*%
%ADD13C,0.660400*%

G36*
X528378Y57159D02*
X528378Y57159D01*
X528436Y57157D01*
X528518Y57179D01*
X528602Y57191D01*
X528655Y57214D01*
X528711Y57229D01*
X528784Y57272D01*
X528861Y57307D01*
X528906Y57345D01*
X528956Y57374D01*
X529014Y57436D01*
X529078Y57490D01*
X529110Y57539D01*
X529150Y57582D01*
X529189Y57657D01*
X529236Y57727D01*
X529253Y57783D01*
X529280Y57835D01*
X529291Y57903D01*
X529321Y57998D01*
X529324Y58098D01*
X529335Y58166D01*
X529335Y216154D01*
X529327Y216212D01*
X529329Y216270D01*
X529307Y216352D01*
X529295Y216436D01*
X529272Y216489D01*
X529257Y216545D01*
X529214Y216618D01*
X529179Y216695D01*
X529141Y216740D01*
X529112Y216790D01*
X529050Y216848D01*
X528996Y216912D01*
X528947Y216944D01*
X528904Y216984D01*
X528829Y217023D01*
X528759Y217070D01*
X528703Y217087D01*
X528651Y217114D01*
X528583Y217125D01*
X528488Y217155D01*
X528388Y217158D01*
X528320Y217169D01*
X276860Y217169D01*
X276802Y217161D01*
X276744Y217163D01*
X276662Y217141D01*
X276579Y217129D01*
X276525Y217106D01*
X276469Y217091D01*
X276396Y217048D01*
X276319Y217013D01*
X276274Y216975D01*
X276224Y216946D01*
X276166Y216884D01*
X276102Y216830D01*
X276070Y216781D01*
X276030Y216738D01*
X275991Y216663D01*
X275945Y216593D01*
X275927Y216537D01*
X275900Y216485D01*
X275889Y216417D01*
X275859Y216322D01*
X275856Y216222D01*
X275845Y216154D01*
X275845Y173735D01*
X114300Y173735D01*
X114242Y173727D01*
X114184Y173729D01*
X114102Y173707D01*
X114019Y173695D01*
X113965Y173672D01*
X113909Y173657D01*
X113836Y173614D01*
X113759Y173579D01*
X113714Y173541D01*
X113664Y173512D01*
X113606Y173450D01*
X113542Y173396D01*
X113510Y173347D01*
X113470Y173304D01*
X113431Y173229D01*
X113385Y173159D01*
X113367Y173103D01*
X113340Y173051D01*
X113329Y172983D01*
X113299Y172888D01*
X113296Y172788D01*
X113285Y172720D01*
X113285Y111760D01*
X113293Y111702D01*
X113291Y111644D01*
X113313Y111562D01*
X113325Y111479D01*
X113349Y111425D01*
X113363Y111369D01*
X113406Y111296D01*
X113441Y111219D01*
X113479Y111174D01*
X113509Y111124D01*
X113570Y111066D01*
X113625Y111002D01*
X113673Y110970D01*
X113716Y110930D01*
X113791Y110891D01*
X113861Y110845D01*
X113917Y110827D01*
X113969Y110800D01*
X114037Y110789D01*
X114132Y110759D01*
X114232Y110756D01*
X114300Y110745D01*
X260605Y110745D01*
X260605Y58166D01*
X260613Y58108D01*
X260611Y58050D01*
X260633Y57968D01*
X260645Y57884D01*
X260669Y57831D01*
X260683Y57775D01*
X260726Y57702D01*
X260761Y57625D01*
X260799Y57580D01*
X260829Y57530D01*
X260890Y57472D01*
X260945Y57408D01*
X260993Y57376D01*
X261036Y57336D01*
X261111Y57297D01*
X261181Y57250D01*
X261237Y57233D01*
X261289Y57206D01*
X261357Y57195D01*
X261452Y57165D01*
X261552Y57162D01*
X261620Y57151D01*
X528320Y57151D01*
X528378Y57159D01*
G37*
G36*
X256658Y57166D02*
X256658Y57166D01*
X256777Y57173D01*
X256815Y57186D01*
X256856Y57191D01*
X256966Y57234D01*
X257079Y57271D01*
X257114Y57293D01*
X257151Y57308D01*
X257247Y57378D01*
X257348Y57441D01*
X257376Y57471D01*
X257409Y57494D01*
X257485Y57586D01*
X257566Y57673D01*
X257586Y57708D01*
X257611Y57739D01*
X257662Y57847D01*
X257720Y57951D01*
X257730Y57991D01*
X257747Y58027D01*
X257769Y58144D01*
X257799Y58259D01*
X257803Y58320D01*
X257807Y58340D01*
X257805Y58360D01*
X257809Y58420D01*
X257809Y106680D01*
X257794Y106798D01*
X257787Y106917D01*
X257774Y106955D01*
X257769Y106996D01*
X257726Y107106D01*
X257689Y107219D01*
X257667Y107254D01*
X257652Y107291D01*
X257583Y107387D01*
X257519Y107488D01*
X257489Y107516D01*
X257466Y107549D01*
X257374Y107625D01*
X257287Y107706D01*
X257252Y107726D01*
X257221Y107751D01*
X257113Y107802D01*
X257009Y107860D01*
X256969Y107870D01*
X256933Y107887D01*
X256816Y107909D01*
X256701Y107939D01*
X256641Y107943D01*
X256621Y107947D01*
X256600Y107945D01*
X256540Y107949D01*
X110489Y107949D01*
X110489Y176531D01*
X271780Y176531D01*
X271898Y176546D01*
X272017Y176553D01*
X272055Y176566D01*
X272096Y176571D01*
X272206Y176614D01*
X272319Y176651D01*
X272354Y176673D01*
X272391Y176688D01*
X272487Y176758D01*
X272588Y176821D01*
X272616Y176851D01*
X272649Y176874D01*
X272725Y176966D01*
X272806Y177053D01*
X272826Y177088D01*
X272851Y177119D01*
X272902Y177227D01*
X272960Y177331D01*
X272970Y177371D01*
X272987Y177407D01*
X273009Y177524D01*
X273039Y177639D01*
X273043Y177700D01*
X273047Y177720D01*
X273045Y177740D01*
X273049Y177800D01*
X273049Y215900D01*
X273034Y216018D01*
X273027Y216137D01*
X273014Y216175D01*
X273009Y216216D01*
X272966Y216326D01*
X272929Y216439D01*
X272907Y216474D01*
X272892Y216511D01*
X272823Y216607D01*
X272759Y216708D01*
X272729Y216736D01*
X272706Y216769D01*
X272614Y216845D01*
X272527Y216926D01*
X272492Y216946D01*
X272461Y216971D01*
X272353Y217022D01*
X272249Y217080D01*
X272209Y217090D01*
X272173Y217107D01*
X272056Y217129D01*
X271941Y217159D01*
X271881Y217163D01*
X271861Y217167D01*
X271840Y217165D01*
X271780Y217169D01*
X6350Y217169D01*
X6232Y217154D01*
X6113Y217147D01*
X6075Y217134D01*
X6034Y217129D01*
X5924Y217086D01*
X5811Y217049D01*
X5776Y217027D01*
X5739Y217012D01*
X5643Y216943D01*
X5542Y216879D01*
X5514Y216849D01*
X5481Y216826D01*
X5405Y216734D01*
X5324Y216647D01*
X5304Y216612D01*
X5279Y216581D01*
X5228Y216473D01*
X5170Y216369D01*
X5160Y216329D01*
X5143Y216293D01*
X5121Y216176D01*
X5091Y216061D01*
X5087Y216001D01*
X5083Y215981D01*
X5085Y215960D01*
X5081Y215900D01*
X5081Y58420D01*
X5096Y58302D01*
X5103Y58183D01*
X5116Y58145D01*
X5121Y58104D01*
X5164Y57994D01*
X5201Y57881D01*
X5223Y57846D01*
X5238Y57809D01*
X5307Y57713D01*
X5371Y57612D01*
X5401Y57584D01*
X5424Y57551D01*
X5516Y57476D01*
X5603Y57394D01*
X5638Y57374D01*
X5669Y57349D01*
X5777Y57298D01*
X5881Y57240D01*
X5921Y57230D01*
X5957Y57213D01*
X6074Y57191D01*
X6189Y57161D01*
X6249Y57157D01*
X6269Y57153D01*
X6290Y57155D01*
X6350Y57151D01*
X256540Y57151D01*
X256658Y57166D01*
G37*
G36*
X673218Y57166D02*
X673218Y57166D01*
X673337Y57173D01*
X673375Y57186D01*
X673416Y57191D01*
X673526Y57234D01*
X673639Y57271D01*
X673674Y57293D01*
X673711Y57308D01*
X673807Y57378D01*
X673908Y57441D01*
X673936Y57471D01*
X673969Y57494D01*
X674045Y57586D01*
X674126Y57673D01*
X674146Y57708D01*
X674171Y57739D01*
X674222Y57847D01*
X674280Y57951D01*
X674290Y57991D01*
X674307Y58027D01*
X674329Y58144D01*
X674359Y58259D01*
X674363Y58320D01*
X674367Y58340D01*
X674365Y58360D01*
X674369Y58420D01*
X674369Y215900D01*
X674354Y216018D01*
X674347Y216137D01*
X674334Y216175D01*
X674329Y216216D01*
X674286Y216326D01*
X674249Y216439D01*
X674227Y216474D01*
X674212Y216511D01*
X674143Y216607D01*
X674079Y216708D01*
X674049Y216736D01*
X674026Y216769D01*
X673934Y216845D01*
X673847Y216926D01*
X673812Y216946D01*
X673781Y216971D01*
X673673Y217022D01*
X673569Y217080D01*
X673529Y217090D01*
X673493Y217107D01*
X673376Y217129D01*
X673261Y217159D01*
X673201Y217163D01*
X673181Y217167D01*
X673160Y217165D01*
X673100Y217169D01*
X533400Y217169D01*
X533282Y217154D01*
X533163Y217147D01*
X533125Y217134D01*
X533084Y217129D01*
X532974Y217086D01*
X532861Y217049D01*
X532826Y217027D01*
X532789Y217012D01*
X532693Y216943D01*
X532592Y216879D01*
X532564Y216849D01*
X532531Y216826D01*
X532456Y216734D01*
X532374Y216647D01*
X532354Y216612D01*
X532329Y216581D01*
X532278Y216473D01*
X532220Y216369D01*
X532210Y216329D01*
X532193Y216293D01*
X532171Y216176D01*
X532141Y216061D01*
X532137Y216001D01*
X532133Y215981D01*
X532135Y215960D01*
X532131Y215900D01*
X532131Y58420D01*
X532146Y58302D01*
X532153Y58183D01*
X532166Y58145D01*
X532171Y58104D01*
X532214Y57994D01*
X532251Y57881D01*
X532273Y57846D01*
X532288Y57809D01*
X532358Y57713D01*
X532421Y57612D01*
X532451Y57584D01*
X532474Y57551D01*
X532566Y57476D01*
X532653Y57394D01*
X532688Y57374D01*
X532719Y57349D01*
X532827Y57298D01*
X532931Y57240D01*
X532971Y57230D01*
X533007Y57213D01*
X533124Y57191D01*
X533239Y57161D01*
X533300Y57157D01*
X533320Y57153D01*
X533340Y57155D01*
X533400Y57151D01*
X673100Y57151D01*
X673218Y57166D01*
G37*
%LPC*%
G36*
X650874Y162359D02*
X650874Y162359D01*
X647536Y163742D01*
X644982Y166296D01*
X643599Y169634D01*
X643599Y173246D01*
X644982Y176584D01*
X647536Y179138D01*
X650874Y180521D01*
X654486Y180521D01*
X657824Y179138D01*
X660378Y176584D01*
X661761Y173246D01*
X661761Y169634D01*
X660378Y166296D01*
X657824Y163742D01*
X654486Y162359D01*
X650874Y162359D01*
G37*
%LPD*%
%LPC*%
G36*
X93434Y151039D02*
X93434Y151039D01*
X90096Y152422D01*
X87542Y154976D01*
X86159Y158314D01*
X86159Y161926D01*
X87542Y165264D01*
X90096Y167818D01*
X93434Y169201D01*
X97046Y169201D01*
X100384Y167818D01*
X102938Y165264D01*
X104321Y161926D01*
X104321Y158314D01*
X102938Y154976D01*
X100384Y152422D01*
X97046Y151039D01*
X93434Y151039D01*
G37*
%LPD*%
%LPC*%
G36*
X303693Y128777D02*
X303693Y128777D01*
X300611Y130053D01*
X298253Y132411D01*
X296977Y135493D01*
X296977Y138827D01*
X298253Y141909D01*
X300611Y144267D01*
X303693Y145543D01*
X307027Y145543D01*
X310109Y144267D01*
X312467Y141909D01*
X313743Y138827D01*
X313743Y135493D01*
X312467Y132411D01*
X310109Y130053D01*
X307027Y128777D01*
X303693Y128777D01*
G37*
%LPD*%
%LPC*%
G36*
X313943Y104027D02*
X313943Y104027D01*
X310861Y105303D01*
X308503Y107661D01*
X307227Y110743D01*
X307227Y114077D01*
X308503Y117159D01*
X310861Y119517D01*
X313943Y120793D01*
X317277Y120793D01*
X320359Y119517D01*
X322717Y117159D01*
X323993Y114077D01*
X323993Y110743D01*
X322717Y107661D01*
X320359Y105303D01*
X317277Y104027D01*
X313943Y104027D01*
G37*
%LPD*%
%LPC*%
G36*
X363443Y104027D02*
X363443Y104027D01*
X360361Y105303D01*
X358003Y107661D01*
X356727Y110743D01*
X356727Y114077D01*
X358003Y117159D01*
X360361Y119517D01*
X363443Y120793D01*
X366777Y120793D01*
X369859Y119517D01*
X372217Y117159D01*
X373493Y114077D01*
X373493Y110743D01*
X372217Y107661D01*
X369859Y105303D01*
X366777Y104027D01*
X363443Y104027D01*
G37*
%LPD*%
%LPC*%
G36*
X373693Y128777D02*
X373693Y128777D01*
X370611Y130053D01*
X368253Y132411D01*
X366977Y135493D01*
X366977Y138827D01*
X368253Y141909D01*
X370611Y144267D01*
X373693Y145543D01*
X377027Y145543D01*
X380109Y144267D01*
X382467Y141909D01*
X383743Y138827D01*
X383743Y135493D01*
X382467Y132411D01*
X380109Y130053D01*
X377027Y128777D01*
X373693Y128777D01*
G37*
%LPD*%
%LPC*%
G36*
X363443Y153527D02*
X363443Y153527D01*
X360361Y154803D01*
X358003Y157161D01*
X356727Y160243D01*
X356727Y163577D01*
X358003Y166659D01*
X360361Y169017D01*
X363443Y170293D01*
X366777Y170293D01*
X369859Y169017D01*
X372217Y166659D01*
X373493Y163577D01*
X373493Y160243D01*
X372217Y157161D01*
X369859Y154803D01*
X366777Y153527D01*
X363443Y153527D01*
G37*
%LPD*%
%LPC*%
G36*
X313943Y153527D02*
X313943Y153527D01*
X310861Y154803D01*
X308503Y157161D01*
X307227Y160243D01*
X307227Y163577D01*
X308503Y166659D01*
X310861Y169017D01*
X313943Y170293D01*
X317277Y170293D01*
X320359Y169017D01*
X322717Y166659D01*
X323993Y163577D01*
X323993Y160243D01*
X322717Y157161D01*
X320359Y154803D01*
X317277Y153527D01*
X313943Y153527D01*
G37*
%LPD*%
%LPC*%
G36*
X633074Y101867D02*
X633074Y101867D01*
X630107Y103096D01*
X627836Y105367D01*
X626607Y108334D01*
X626607Y111546D01*
X627836Y114513D01*
X630107Y116784D01*
X633074Y118013D01*
X636286Y118013D01*
X639253Y116784D01*
X641524Y114513D01*
X642753Y111546D01*
X642753Y108334D01*
X641524Y105367D01*
X639253Y103096D01*
X636286Y101867D01*
X633074Y101867D01*
G37*
%LPD*%
%LPC*%
G36*
X613074Y146867D02*
X613074Y146867D01*
X610107Y148096D01*
X607836Y150367D01*
X606607Y153334D01*
X606607Y156546D01*
X607836Y159513D01*
X610107Y161784D01*
X613074Y163013D01*
X616286Y163013D01*
X619253Y161784D01*
X621524Y159513D01*
X622753Y156546D01*
X622753Y153334D01*
X621524Y150367D01*
X619253Y148096D01*
X616286Y146867D01*
X613074Y146867D01*
G37*
%LPD*%
%LPC*%
G36*
X77134Y190047D02*
X77134Y190047D01*
X74167Y191276D01*
X71896Y193547D01*
X70667Y196514D01*
X70667Y199726D01*
X71896Y202693D01*
X74167Y204964D01*
X77134Y206193D01*
X80346Y206193D01*
X83313Y204964D01*
X85584Y202693D01*
X86813Y199726D01*
X86813Y196514D01*
X85584Y193547D01*
X83313Y191276D01*
X80346Y190047D01*
X77134Y190047D01*
G37*
%LPD*%
%LPC*%
G36*
X47134Y190047D02*
X47134Y190047D01*
X44167Y191276D01*
X41896Y193547D01*
X40667Y196514D01*
X40667Y199726D01*
X41896Y202693D01*
X44167Y204964D01*
X47134Y206193D01*
X50346Y206193D01*
X53313Y204964D01*
X55584Y202693D01*
X56813Y199726D01*
X56813Y196514D01*
X55584Y193547D01*
X53313Y191276D01*
X50346Y190047D01*
X47134Y190047D01*
G37*
%LPD*%
%LPC*%
G36*
X613074Y116867D02*
X613074Y116867D01*
X610107Y118096D01*
X607836Y120367D01*
X606607Y123334D01*
X606607Y126546D01*
X607836Y129513D01*
X610107Y131784D01*
X613074Y133013D01*
X616286Y133013D01*
X619253Y131784D01*
X621524Y129513D01*
X622753Y126546D01*
X622753Y123334D01*
X621524Y120367D01*
X619253Y118096D01*
X616286Y116867D01*
X613074Y116867D01*
G37*
%LPD*%
%LPC*%
G36*
X32134Y170047D02*
X32134Y170047D01*
X29167Y171276D01*
X26896Y173547D01*
X25667Y176514D01*
X25667Y179726D01*
X26896Y182693D01*
X29167Y184964D01*
X32134Y186193D01*
X35346Y186193D01*
X38313Y184964D01*
X40584Y182693D01*
X41813Y179726D01*
X41813Y176514D01*
X40584Y173547D01*
X38313Y171276D01*
X35346Y170047D01*
X32134Y170047D01*
G37*
%LPD*%
%LPC*%
G36*
X279863Y129285D02*
X279863Y129285D01*
X277902Y130097D01*
X276401Y131598D01*
X275589Y133559D01*
X275589Y135681D01*
X276401Y137642D01*
X277902Y139143D01*
X279863Y139955D01*
X281985Y139955D01*
X283946Y139143D01*
X284524Y138564D01*
X284571Y138529D01*
X284611Y138487D01*
X284684Y138444D01*
X284751Y138393D01*
X284806Y138373D01*
X284856Y138343D01*
X284938Y138322D01*
X285017Y138292D01*
X285075Y138287D01*
X285132Y138273D01*
X285216Y138276D01*
X285300Y138269D01*
X285358Y138280D01*
X285416Y138282D01*
X285496Y138308D01*
X285579Y138325D01*
X285631Y138352D01*
X285687Y138369D01*
X285743Y138409D01*
X285831Y138456D01*
X285904Y138524D01*
X285960Y138564D01*
X286538Y139143D01*
X288499Y139955D01*
X290621Y139955D01*
X292582Y139143D01*
X294083Y137642D01*
X294895Y135681D01*
X294895Y133559D01*
X294083Y131598D01*
X292582Y130097D01*
X290621Y129285D01*
X288499Y129285D01*
X286538Y130097D01*
X285960Y130676D01*
X285913Y130711D01*
X285873Y130753D01*
X285800Y130796D01*
X285733Y130847D01*
X285678Y130867D01*
X285628Y130897D01*
X285546Y130918D01*
X285467Y130948D01*
X285409Y130953D01*
X285352Y130967D01*
X285268Y130964D01*
X285184Y130971D01*
X285126Y130960D01*
X285068Y130958D01*
X284988Y130932D01*
X284905Y130915D01*
X284853Y130889D01*
X284797Y130871D01*
X284741Y130830D01*
X284653Y130784D01*
X284580Y130716D01*
X284524Y130676D01*
X283946Y130097D01*
X281985Y129285D01*
X279863Y129285D01*
G37*
%LPD*%
%LPC*%
G36*
X293579Y202945D02*
X293579Y202945D01*
X291618Y203757D01*
X290117Y205258D01*
X289305Y207219D01*
X289305Y209341D01*
X290117Y211302D01*
X291618Y212803D01*
X293579Y213615D01*
X295701Y213615D01*
X297662Y212803D01*
X299163Y211302D01*
X299975Y209341D01*
X299975Y207219D01*
X299163Y205258D01*
X297662Y203757D01*
X295701Y202945D01*
X293579Y202945D01*
G37*
%LPD*%
%LPC*%
G36*
X423119Y202945D02*
X423119Y202945D01*
X421158Y203757D01*
X419657Y205258D01*
X418845Y207219D01*
X418845Y209341D01*
X419657Y211302D01*
X421158Y212803D01*
X423119Y213615D01*
X425241Y213615D01*
X427202Y212803D01*
X428703Y211302D01*
X429515Y209341D01*
X429515Y207219D01*
X428703Y205258D01*
X427202Y203757D01*
X425241Y202945D01*
X423119Y202945D01*
G37*
%LPD*%
%LPC*%
G36*
X316439Y187705D02*
X316439Y187705D01*
X314478Y188517D01*
X312977Y190018D01*
X312165Y191979D01*
X312165Y194101D01*
X312977Y196062D01*
X314478Y197563D01*
X316439Y198375D01*
X318561Y198375D01*
X320522Y197563D01*
X322023Y196062D01*
X322835Y194101D01*
X322835Y191979D01*
X322023Y190018D01*
X320522Y188517D01*
X318561Y187705D01*
X316439Y187705D01*
G37*
%LPD*%
%LPC*%
G36*
X377399Y187705D02*
X377399Y187705D01*
X375438Y188517D01*
X373937Y190018D01*
X373125Y191979D01*
X373125Y194101D01*
X373937Y196062D01*
X375438Y197563D01*
X377399Y198375D01*
X379521Y198375D01*
X381482Y197563D01*
X382983Y196062D01*
X383795Y194101D01*
X383795Y191979D01*
X382983Y190018D01*
X381482Y188517D01*
X379521Y187705D01*
X377399Y187705D01*
G37*
%LPD*%
%LPC*%
G36*
X268179Y60705D02*
X268179Y60705D01*
X266218Y61517D01*
X264717Y63018D01*
X263905Y64979D01*
X263905Y67101D01*
X264717Y69062D01*
X266218Y70563D01*
X268179Y71375D01*
X270301Y71375D01*
X272262Y70563D01*
X273763Y69062D01*
X274575Y67101D01*
X274575Y64979D01*
X273763Y63018D01*
X272262Y61517D01*
X270301Y60705D01*
X268179Y60705D01*
G37*
%LPD*%
%LPC*%
G36*
X298659Y60705D02*
X298659Y60705D01*
X296698Y61517D01*
X295197Y63018D01*
X294385Y64979D01*
X294385Y67101D01*
X295197Y69062D01*
X296698Y70563D01*
X298659Y71375D01*
X300781Y71375D01*
X302742Y70563D01*
X304243Y69062D01*
X305055Y67101D01*
X305055Y64979D01*
X304243Y63018D01*
X302742Y61517D01*
X300781Y60705D01*
X298659Y60705D01*
G37*
%LPD*%
%LPC*%
G36*
X283419Y75945D02*
X283419Y75945D01*
X281458Y76757D01*
X279957Y78258D01*
X279145Y80219D01*
X279145Y82341D01*
X279957Y84302D01*
X281458Y85803D01*
X283419Y86615D01*
X285541Y86615D01*
X287502Y85803D01*
X289003Y84302D01*
X289815Y82341D01*
X289815Y80219D01*
X289003Y78258D01*
X287502Y76757D01*
X285541Y75945D01*
X283419Y75945D01*
G37*
%LPD*%
%LPC*%
G36*
X311359Y75945D02*
X311359Y75945D01*
X309398Y76757D01*
X307897Y78258D01*
X307085Y80219D01*
X307085Y82341D01*
X307897Y84302D01*
X309398Y85803D01*
X311359Y86615D01*
X313481Y86615D01*
X315442Y85803D01*
X316943Y84302D01*
X317755Y82341D01*
X317755Y80219D01*
X316943Y78258D01*
X315442Y76757D01*
X313481Y75945D01*
X311359Y75945D01*
G37*
%LPD*%
%LPC*%
G36*
X283419Y60705D02*
X283419Y60705D01*
X281458Y61517D01*
X279957Y63018D01*
X279145Y64979D01*
X279145Y67101D01*
X279957Y69062D01*
X281458Y70563D01*
X283419Y71375D01*
X285541Y71375D01*
X287502Y70563D01*
X289003Y69062D01*
X289815Y67101D01*
X289815Y64979D01*
X289003Y63018D01*
X287502Y61517D01*
X285541Y60705D01*
X283419Y60705D01*
G37*
%LPD*%
%LPC*%
G36*
X326599Y91185D02*
X326599Y91185D01*
X324638Y91997D01*
X323137Y93498D01*
X322325Y95459D01*
X322325Y97581D01*
X323137Y99542D01*
X324638Y101043D01*
X326599Y101855D01*
X328721Y101855D01*
X330682Y101043D01*
X332183Y99542D01*
X332995Y97581D01*
X332995Y95459D01*
X332183Y93498D01*
X330682Y91997D01*
X328721Y91185D01*
X326599Y91185D01*
G37*
%LPD*%
%LPC*%
G36*
X440264Y131825D02*
X440264Y131825D01*
X438303Y132637D01*
X436802Y134138D01*
X435990Y136099D01*
X435990Y138221D01*
X436802Y140182D01*
X438303Y141683D01*
X440264Y142495D01*
X442386Y142495D01*
X444347Y141683D01*
X445848Y140182D01*
X446660Y138221D01*
X446660Y136099D01*
X445848Y134138D01*
X444347Y132637D01*
X442386Y131825D01*
X440264Y131825D01*
G37*
%LPD*%
%LPC*%
G36*
X268179Y93725D02*
X268179Y93725D01*
X266218Y94537D01*
X264717Y96038D01*
X263905Y97999D01*
X263905Y100121D01*
X264717Y102082D01*
X266218Y103583D01*
X268179Y104395D01*
X270301Y104395D01*
X272262Y103583D01*
X273763Y102082D01*
X274575Y100121D01*
X274575Y97999D01*
X273763Y96038D01*
X272262Y94537D01*
X270301Y93725D01*
X268179Y93725D01*
G37*
%LPD*%
%LPC*%
G36*
X298659Y93725D02*
X298659Y93725D01*
X296698Y94537D01*
X295197Y96038D01*
X294385Y97999D01*
X294385Y100121D01*
X295197Y102082D01*
X296698Y103583D01*
X298659Y104395D01*
X300781Y104395D01*
X302742Y103583D01*
X304243Y102082D01*
X305055Y100121D01*
X305055Y97999D01*
X304243Y96038D01*
X302742Y94537D01*
X300781Y93725D01*
X298659Y93725D01*
G37*
%LPD*%
%LPC*%
G36*
X438359Y98805D02*
X438359Y98805D01*
X436398Y99617D01*
X434897Y101118D01*
X434085Y103079D01*
X434085Y105201D01*
X434897Y107162D01*
X436398Y108663D01*
X438359Y109475D01*
X440481Y109475D01*
X442442Y108663D01*
X443943Y107162D01*
X444755Y105201D01*
X444755Y103079D01*
X443943Y101118D01*
X442442Y99617D01*
X440481Y98805D01*
X438359Y98805D01*
G37*
%LPD*%
%LPC*%
G36*
X405339Y96265D02*
X405339Y96265D01*
X403378Y97077D01*
X401877Y98578D01*
X401065Y100539D01*
X401065Y102661D01*
X401877Y104622D01*
X403378Y106123D01*
X405339Y106935D01*
X407461Y106935D01*
X409422Y106123D01*
X410923Y104622D01*
X411735Y102661D01*
X411735Y100539D01*
X410923Y98578D01*
X409422Y97077D01*
X407461Y96265D01*
X405339Y96265D01*
G37*
%LPD*%
%LPC*%
G36*
X377399Y96265D02*
X377399Y96265D01*
X375438Y97077D01*
X373937Y98578D01*
X373125Y100539D01*
X373125Y102661D01*
X373937Y104622D01*
X375438Y106123D01*
X377399Y106935D01*
X379521Y106935D01*
X381482Y106123D01*
X382983Y104622D01*
X383795Y102661D01*
X383795Y100539D01*
X382983Y98578D01*
X381482Y97077D01*
X379521Y96265D01*
X377399Y96265D01*
G37*
%LPD*%
%LPC*%
G36*
X410419Y60705D02*
X410419Y60705D01*
X408458Y61517D01*
X406957Y63018D01*
X406145Y64979D01*
X406145Y67101D01*
X406957Y69062D01*
X408458Y70563D01*
X410419Y71375D01*
X412541Y71375D01*
X414502Y70563D01*
X416003Y69062D01*
X416815Y67101D01*
X416815Y64979D01*
X416003Y63018D01*
X414502Y61517D01*
X412541Y60705D01*
X410419Y60705D01*
G37*
%LPD*%
%LPC*%
G36*
X369779Y60705D02*
X369779Y60705D01*
X367818Y61517D01*
X366317Y63018D01*
X365505Y64979D01*
X365505Y67101D01*
X366317Y69062D01*
X367818Y70563D01*
X369779Y71375D01*
X371901Y71375D01*
X373862Y70563D01*
X375363Y69062D01*
X376175Y67101D01*
X376175Y64979D01*
X375363Y63018D01*
X373862Y61517D01*
X371901Y60705D01*
X369779Y60705D01*
G37*
%LPD*%
%LPC*%
G36*
X326599Y60705D02*
X326599Y60705D01*
X324638Y61517D01*
X323137Y63018D01*
X322325Y64979D01*
X322325Y67101D01*
X323137Y69062D01*
X324638Y70563D01*
X326599Y71375D01*
X328721Y71375D01*
X330682Y70563D01*
X332183Y69062D01*
X332995Y67101D01*
X332995Y64979D01*
X332183Y63018D01*
X330682Y61517D01*
X328721Y60705D01*
X326599Y60705D01*
G37*
%LPD*%
%LPC*%
G36*
X313899Y60705D02*
X313899Y60705D01*
X311938Y61517D01*
X310437Y63018D01*
X309625Y64979D01*
X309625Y67101D01*
X310437Y69062D01*
X311938Y70563D01*
X313899Y71375D01*
X316021Y71375D01*
X317982Y70563D01*
X319483Y69062D01*
X320295Y67101D01*
X320295Y64979D01*
X319483Y63018D01*
X317982Y61517D01*
X316021Y60705D01*
X313899Y60705D01*
G37*
%LPD*%
%LPC*%
G36*
X184359Y78485D02*
X184359Y78485D01*
X182398Y79297D01*
X180897Y80798D01*
X180085Y82759D01*
X180085Y84881D01*
X180897Y86842D01*
X182398Y88343D01*
X184359Y89155D01*
X186481Y89155D01*
X188442Y88343D01*
X189943Y86842D01*
X190755Y84881D01*
X190755Y82759D01*
X189943Y80798D01*
X188442Y79297D01*
X186481Y78485D01*
X184359Y78485D01*
G37*
%LPD*%
%LPC*%
G36*
X214839Y78485D02*
X214839Y78485D01*
X212878Y79297D01*
X211377Y80798D01*
X210565Y82759D01*
X210565Y84881D01*
X211377Y86842D01*
X212878Y88343D01*
X214839Y89155D01*
X216961Y89155D01*
X218922Y88343D01*
X220423Y86842D01*
X221235Y84881D01*
X221235Y82759D01*
X220423Y80798D01*
X218922Y79297D01*
X216961Y78485D01*
X214839Y78485D01*
G37*
%LPD*%
%LPC*%
G36*
X247859Y78485D02*
X247859Y78485D01*
X245898Y79297D01*
X244397Y80798D01*
X243585Y82759D01*
X243585Y84881D01*
X244397Y86842D01*
X245898Y88343D01*
X247859Y89155D01*
X249981Y89155D01*
X251942Y88343D01*
X253443Y86842D01*
X254255Y84881D01*
X254255Y82759D01*
X253443Y80798D01*
X251942Y79297D01*
X249981Y78485D01*
X247859Y78485D01*
G37*
%LPD*%
%LPC*%
G36*
X164039Y93725D02*
X164039Y93725D01*
X162078Y94537D01*
X160577Y96038D01*
X159765Y97999D01*
X159765Y100121D01*
X160577Y102082D01*
X162078Y103583D01*
X164039Y104395D01*
X166161Y104395D01*
X168122Y103583D01*
X169623Y102082D01*
X170435Y100121D01*
X170435Y97999D01*
X169623Y96038D01*
X168122Y94537D01*
X166161Y93725D01*
X164039Y93725D01*
G37*
%LPD*%
%LPC*%
G36*
X115779Y93725D02*
X115779Y93725D01*
X113818Y94537D01*
X112317Y96038D01*
X111505Y97999D01*
X111505Y100121D01*
X112317Y102082D01*
X113818Y103583D01*
X115779Y104395D01*
X117901Y104395D01*
X119862Y103583D01*
X121363Y102082D01*
X122175Y100121D01*
X122175Y97999D01*
X121363Y96038D01*
X119862Y94537D01*
X117901Y93725D01*
X115779Y93725D01*
G37*
%LPD*%
%LPC*%
G36*
X52279Y81660D02*
X52279Y81660D01*
X50318Y82472D01*
X48817Y83973D01*
X48005Y85934D01*
X48005Y88056D01*
X48817Y90017D01*
X50318Y91518D01*
X52279Y92330D01*
X54401Y92330D01*
X56362Y91518D01*
X57863Y90017D01*
X58675Y88056D01*
X58675Y85934D01*
X57863Y83973D01*
X56362Y82472D01*
X54401Y81660D01*
X52279Y81660D01*
G37*
%LPD*%
%LPC*%
G36*
X75139Y81660D02*
X75139Y81660D01*
X73178Y82472D01*
X71677Y83973D01*
X70865Y85934D01*
X70865Y88056D01*
X71677Y90017D01*
X73178Y91518D01*
X75139Y92330D01*
X77261Y92330D01*
X79222Y91518D01*
X80723Y90017D01*
X81535Y88056D01*
X81535Y85934D01*
X80723Y83973D01*
X79222Y82472D01*
X77261Y81660D01*
X75139Y81660D01*
G37*
%LPD*%
%LPC*%
G36*
X100539Y81660D02*
X100539Y81660D01*
X98578Y82472D01*
X97077Y83973D01*
X96265Y85934D01*
X96265Y88056D01*
X97077Y90017D01*
X98578Y91518D01*
X100539Y92330D01*
X102661Y92330D01*
X104622Y91518D01*
X106123Y90017D01*
X106935Y88056D01*
X106935Y85934D01*
X106123Y83973D01*
X104622Y82472D01*
X102661Y81660D01*
X100539Y81660D01*
G37*
%LPD*%
%LPC*%
G36*
X65489Y179869D02*
X65489Y179869D01*
X65489Y183931D01*
X65502Y183929D01*
X66601Y183473D01*
X67591Y182812D01*
X68432Y181971D01*
X69093Y180981D01*
X69549Y179882D01*
X69551Y179869D01*
X65489Y179869D01*
G37*
%LPD*%
%LPC*%
G36*
X636429Y141689D02*
X636429Y141689D01*
X636429Y145751D01*
X636442Y145749D01*
X637541Y145293D01*
X638531Y144632D01*
X639372Y143791D01*
X640033Y142801D01*
X640489Y141702D01*
X640491Y141689D01*
X636429Y141689D01*
G37*
%LPD*%
%LPC*%
G36*
X65489Y176371D02*
X65489Y176371D01*
X69551Y176371D01*
X69549Y176358D01*
X69093Y175259D01*
X68432Y174269D01*
X67591Y173428D01*
X66601Y172767D01*
X65502Y172311D01*
X65489Y172309D01*
X65489Y176371D01*
G37*
%LPD*%
%LPC*%
G36*
X57929Y179869D02*
X57929Y179869D01*
X57931Y179882D01*
X58387Y180981D01*
X59048Y181971D01*
X59889Y182812D01*
X60879Y183473D01*
X61978Y183929D01*
X61991Y183931D01*
X61991Y179869D01*
X57929Y179869D01*
G37*
%LPD*%
%LPC*%
G36*
X628869Y141689D02*
X628869Y141689D01*
X628871Y141702D01*
X629327Y142801D01*
X629988Y143791D01*
X630829Y144632D01*
X631819Y145293D01*
X632918Y145749D01*
X632931Y145751D01*
X632931Y141689D01*
X628869Y141689D01*
G37*
%LPD*%
%LPC*%
G36*
X636429Y138191D02*
X636429Y138191D01*
X640491Y138191D01*
X640489Y138178D01*
X640033Y137079D01*
X639372Y136089D01*
X638531Y135248D01*
X637541Y134587D01*
X636442Y134131D01*
X636429Y134129D01*
X636429Y138191D01*
G37*
%LPD*%
%LPC*%
G36*
X632918Y134131D02*
X632918Y134131D01*
X631819Y134587D01*
X630829Y135248D01*
X629988Y136089D01*
X629327Y137079D01*
X628871Y138178D01*
X628869Y138191D01*
X632931Y138191D01*
X632931Y134129D01*
X632918Y134131D01*
G37*
%LPD*%
%LPC*%
G36*
X61978Y172311D02*
X61978Y172311D01*
X60879Y172767D01*
X59889Y173428D01*
X59048Y174269D01*
X58387Y175259D01*
X57931Y176358D01*
X57929Y176371D01*
X61991Y176371D01*
X61991Y172309D01*
X61978Y172311D01*
G37*
%LPD*%
D10*
X614680Y154940D03*
X634680Y139940D03*
X614680Y124940D03*
X634680Y109940D03*
X78740Y198120D03*
X63740Y178120D03*
X48740Y198120D03*
X33740Y178120D03*
D11*
X305360Y137160D03*
X375360Y137160D03*
X315610Y161910D03*
X365110Y161910D03*
X315610Y112410D03*
X365110Y112410D03*
D12*
X340360Y197993D03*
X336550Y197993D03*
X344170Y197993D03*
X347980Y197993D03*
X332740Y197993D03*
D13*
X12700Y66040D03*
X38100Y66040D03*
X12700Y144780D03*
X12700Y124460D03*
X12700Y104140D03*
X12700Y83820D03*
X12700Y165100D03*
X12700Y185420D03*
X12700Y203200D03*
X25400Y208280D03*
X63500Y208280D03*
X101600Y208280D03*
X139700Y208280D03*
X170180Y208280D03*
X266700Y208280D03*
X266700Y190500D03*
X254000Y180340D03*
X218440Y180340D03*
X185420Y180340D03*
X144780Y180340D03*
X121920Y180340D03*
X165100Y180340D03*
X45720Y162560D03*
X76200Y165100D03*
X104140Y144780D03*
X76200Y147320D03*
X55880Y147320D03*
X38100Y144780D03*
X38100Y124460D03*
X38100Y104140D03*
X38100Y83820D03*
X111760Y68580D03*
X167640Y68580D03*
X200660Y91440D03*
X233680Y91440D03*
X66040Y94615D03*
X88900Y94615D03*
X541020Y208280D03*
X591820Y208280D03*
X668020Y208280D03*
X609600Y208280D03*
X629920Y208280D03*
X650240Y208280D03*
X668020Y66040D03*
X627380Y66040D03*
X538480Y66040D03*
X586740Y66040D03*
X607060Y66040D03*
X647700Y66040D03*
X586740Y86360D03*
X627380Y86360D03*
X668020Y86360D03*
X668020Y106680D03*
X668020Y139700D03*
X668020Y168910D03*
X668020Y187960D03*
X647700Y187960D03*
X627380Y187960D03*
X607060Y187960D03*
X607060Y167640D03*
X650240Y127000D03*
X635000Y167640D03*
X546100Y172720D03*
X571500Y172720D03*
X576580Y208280D03*
X538480Y88900D03*
X541020Y193040D03*
X650240Y101600D03*
X650240Y152400D03*
X586740Y104140D03*
X538480Y127000D03*
X538480Y149860D03*
X576580Y127000D03*
X576580Y147320D03*
X294640Y208280D03*
X424180Y208280D03*
X441325Y137160D03*
X439420Y104140D03*
X406400Y101600D03*
X378460Y101600D03*
X317500Y193040D03*
X378460Y193040D03*
X284480Y66040D03*
X314960Y66040D03*
X370840Y66040D03*
X411480Y66040D03*
X140970Y100330D03*
X327660Y96520D03*
X327660Y66040D03*
X269240Y66040D03*
X269240Y99060D03*
X299720Y99060D03*
X299720Y66040D03*
X312420Y81280D03*
X284480Y81280D03*
X248920Y83820D03*
X215900Y83820D03*
X185420Y83820D03*
X165100Y99060D03*
X116840Y99060D03*
X101600Y86995D03*
X76200Y86995D03*
X53340Y86995D03*
X281940Y208280D03*
X281940Y190500D03*
X271780Y170180D03*
X254000Y165100D03*
X218440Y165100D03*
X185420Y165100D03*
X165100Y165100D03*
X124460Y132080D03*
X157480Y132080D03*
X124460Y121920D03*
X157480Y121920D03*
X203200Y165100D03*
X236220Y165100D03*
X264160Y124460D03*
X264160Y139700D03*
X264160Y154940D03*
X287020Y154940D03*
X322580Y135382D03*
X348996Y167640D03*
X381000Y175260D03*
X317500Y208280D03*
X304800Y208280D03*
X363220Y208280D03*
X375920Y208280D03*
X396240Y208280D03*
X411480Y208280D03*
X436880Y208280D03*
X436880Y187960D03*
X457200Y187960D03*
X477520Y187960D03*
X497840Y187960D03*
X515620Y187960D03*
X515620Y170180D03*
X497840Y170180D03*
X477520Y170180D03*
X457200Y170180D03*
X439420Y170180D03*
X434340Y152400D03*
X424180Y185420D03*
X411480Y190500D03*
X393700Y193040D03*
X518160Y106680D03*
X497840Y106680D03*
X480060Y106680D03*
X459740Y106680D03*
X459740Y83820D03*
X480060Y83820D03*
X497840Y83820D03*
X518160Y83820D03*
X439420Y86360D03*
X439420Y66040D03*
X424180Y66040D03*
X398780Y66040D03*
X383540Y66040D03*
X358140Y66040D03*
X340360Y66040D03*
X340360Y83820D03*
X340360Y104140D03*
X332740Y124460D03*
X350520Y134620D03*
X396240Y142240D03*
X408940Y144780D03*
X414020Y137160D03*
X429260Y127000D03*
X439420Y119380D03*
X419100Y86360D03*
X419100Y111760D03*
X396240Y111760D03*
X398780Y86360D03*
X378460Y86360D03*
X304800Y182880D03*
X360680Y182880D03*
X332740Y180340D03*
X280924Y134620D03*
X289560Y134620D03*
M02*
