G04 EAGLE Gerber RS-274X export*
G75*
%MOMM*%
%FSLAX34Y34*%
%LPD*%
%IN*%
%IPPOS*%
%AMOC8*
5,1,8,0,0,1.08239X$1,22.5*%
G01*
%ADD10C,0.254000*%


D10*
X0Y0D02*
X58420Y0D01*
X58420Y52070D01*
X622300Y52070D01*
X622300Y0D01*
X680720Y0D01*
X680720Y274320D01*
X622300Y274320D01*
X622300Y222250D01*
X58420Y222250D01*
X58420Y274320D01*
X0Y274320D01*
X0Y0D01*
X664210Y244611D02*
X664132Y243616D01*
X663976Y242630D01*
X663743Y241660D01*
X663434Y240711D01*
X663052Y239789D01*
X662599Y238900D01*
X662078Y238049D01*
X661491Y237241D01*
X660843Y236483D01*
X660137Y235777D01*
X659379Y235129D01*
X658571Y234542D01*
X657720Y234021D01*
X656831Y233568D01*
X655909Y233186D01*
X654960Y232877D01*
X653990Y232644D01*
X653004Y232488D01*
X652009Y232410D01*
X651011Y232410D01*
X650016Y232488D01*
X649030Y232644D01*
X648060Y232877D01*
X647111Y233186D01*
X646189Y233568D01*
X645300Y234021D01*
X644449Y234542D01*
X643641Y235129D01*
X642883Y235777D01*
X642177Y236483D01*
X641529Y237241D01*
X640942Y238049D01*
X640421Y238900D01*
X639968Y239789D01*
X639586Y240711D01*
X639277Y241660D01*
X639044Y242630D01*
X638888Y243616D01*
X638810Y244611D01*
X638810Y245609D01*
X638888Y246604D01*
X639044Y247590D01*
X639277Y248560D01*
X639586Y249509D01*
X639968Y250431D01*
X640421Y251320D01*
X640942Y252171D01*
X641529Y252979D01*
X642177Y253737D01*
X642883Y254443D01*
X643641Y255091D01*
X644449Y255678D01*
X645300Y256199D01*
X646189Y256652D01*
X647111Y257034D01*
X648060Y257343D01*
X649030Y257576D01*
X650016Y257732D01*
X651011Y257810D01*
X652009Y257810D01*
X653004Y257732D01*
X653990Y257576D01*
X654960Y257343D01*
X655909Y257034D01*
X656831Y256652D01*
X657720Y256199D01*
X658571Y255678D01*
X659379Y255091D01*
X660137Y254443D01*
X660843Y253737D01*
X661491Y252979D01*
X662078Y252171D01*
X662599Y251320D01*
X663052Y250431D01*
X663434Y249509D01*
X663743Y248560D01*
X663976Y247590D01*
X664132Y246604D01*
X664210Y245609D01*
X664210Y244611D01*
X664210Y28711D02*
X664132Y27716D01*
X663976Y26730D01*
X663743Y25760D01*
X663434Y24811D01*
X663052Y23889D01*
X662599Y23000D01*
X662078Y22149D01*
X661491Y21341D01*
X660843Y20583D01*
X660137Y19877D01*
X659379Y19229D01*
X658571Y18642D01*
X657720Y18121D01*
X656831Y17668D01*
X655909Y17286D01*
X654960Y16977D01*
X653990Y16744D01*
X653004Y16588D01*
X652009Y16510D01*
X651011Y16510D01*
X650016Y16588D01*
X649030Y16744D01*
X648060Y16977D01*
X647111Y17286D01*
X646189Y17668D01*
X645300Y18121D01*
X644449Y18642D01*
X643641Y19229D01*
X642883Y19877D01*
X642177Y20583D01*
X641529Y21341D01*
X640942Y22149D01*
X640421Y23000D01*
X639968Y23889D01*
X639586Y24811D01*
X639277Y25760D01*
X639044Y26730D01*
X638888Y27716D01*
X638810Y28711D01*
X638810Y29709D01*
X638888Y30704D01*
X639044Y31690D01*
X639277Y32660D01*
X639586Y33609D01*
X639968Y34531D01*
X640421Y35420D01*
X640942Y36271D01*
X641529Y37079D01*
X642177Y37837D01*
X642883Y38543D01*
X643641Y39191D01*
X644449Y39778D01*
X645300Y40299D01*
X646189Y40752D01*
X647111Y41134D01*
X648060Y41443D01*
X649030Y41676D01*
X650016Y41832D01*
X651011Y41910D01*
X652009Y41910D01*
X653004Y41832D01*
X653990Y41676D01*
X654960Y41443D01*
X655909Y41134D01*
X656831Y40752D01*
X657720Y40299D01*
X658571Y39778D01*
X659379Y39191D01*
X660137Y38543D01*
X660843Y37837D01*
X661491Y37079D01*
X662078Y36271D01*
X662599Y35420D01*
X663052Y34531D01*
X663434Y33609D01*
X663743Y32660D01*
X663976Y31690D01*
X664132Y30704D01*
X664210Y29709D01*
X664210Y28711D01*
X41910Y244611D02*
X41832Y243616D01*
X41676Y242630D01*
X41443Y241660D01*
X41134Y240711D01*
X40752Y239789D01*
X40299Y238900D01*
X39778Y238049D01*
X39191Y237241D01*
X38543Y236483D01*
X37837Y235777D01*
X37079Y235129D01*
X36271Y234542D01*
X35420Y234021D01*
X34531Y233568D01*
X33609Y233186D01*
X32660Y232877D01*
X31690Y232644D01*
X30704Y232488D01*
X29709Y232410D01*
X28711Y232410D01*
X27716Y232488D01*
X26730Y232644D01*
X25760Y232877D01*
X24811Y233186D01*
X23889Y233568D01*
X23000Y234021D01*
X22149Y234542D01*
X21341Y235129D01*
X20583Y235777D01*
X19877Y236483D01*
X19229Y237241D01*
X18642Y238049D01*
X18121Y238900D01*
X17668Y239789D01*
X17286Y240711D01*
X16977Y241660D01*
X16744Y242630D01*
X16588Y243616D01*
X16510Y244611D01*
X16510Y245609D01*
X16588Y246604D01*
X16744Y247590D01*
X16977Y248560D01*
X17286Y249509D01*
X17668Y250431D01*
X18121Y251320D01*
X18642Y252171D01*
X19229Y252979D01*
X19877Y253737D01*
X20583Y254443D01*
X21341Y255091D01*
X22149Y255678D01*
X23000Y256199D01*
X23889Y256652D01*
X24811Y257034D01*
X25760Y257343D01*
X26730Y257576D01*
X27716Y257732D01*
X28711Y257810D01*
X29709Y257810D01*
X30704Y257732D01*
X31690Y257576D01*
X32660Y257343D01*
X33609Y257034D01*
X34531Y256652D01*
X35420Y256199D01*
X36271Y255678D01*
X37079Y255091D01*
X37837Y254443D01*
X38543Y253737D01*
X39191Y252979D01*
X39778Y252171D01*
X40299Y251320D01*
X40752Y250431D01*
X41134Y249509D01*
X41443Y248560D01*
X41676Y247590D01*
X41832Y246604D01*
X41910Y245609D01*
X41910Y244611D01*
X41910Y28711D02*
X41832Y27716D01*
X41676Y26730D01*
X41443Y25760D01*
X41134Y24811D01*
X40752Y23889D01*
X40299Y23000D01*
X39778Y22149D01*
X39191Y21341D01*
X38543Y20583D01*
X37837Y19877D01*
X37079Y19229D01*
X36271Y18642D01*
X35420Y18121D01*
X34531Y17668D01*
X33609Y17286D01*
X32660Y16977D01*
X31690Y16744D01*
X30704Y16588D01*
X29709Y16510D01*
X28711Y16510D01*
X27716Y16588D01*
X26730Y16744D01*
X25760Y16977D01*
X24811Y17286D01*
X23889Y17668D01*
X23000Y18121D01*
X22149Y18642D01*
X21341Y19229D01*
X20583Y19877D01*
X19877Y20583D01*
X19229Y21341D01*
X18642Y22149D01*
X18121Y23000D01*
X17668Y23889D01*
X17286Y24811D01*
X16977Y25760D01*
X16744Y26730D01*
X16588Y27716D01*
X16510Y28711D01*
X16510Y29709D01*
X16588Y30704D01*
X16744Y31690D01*
X16977Y32660D01*
X17286Y33609D01*
X17668Y34531D01*
X18121Y35420D01*
X18642Y36271D01*
X19229Y37079D01*
X19877Y37837D01*
X20583Y38543D01*
X21341Y39191D01*
X22149Y39778D01*
X23000Y40299D01*
X23889Y40752D01*
X24811Y41134D01*
X25760Y41443D01*
X26730Y41676D01*
X27716Y41832D01*
X28711Y41910D01*
X29709Y41910D01*
X30704Y41832D01*
X31690Y41676D01*
X32660Y41443D01*
X33609Y41134D01*
X34531Y40752D01*
X35420Y40299D01*
X36271Y39778D01*
X37079Y39191D01*
X37837Y38543D01*
X38543Y37837D01*
X39191Y37079D01*
X39778Y36271D01*
X40299Y35420D01*
X40752Y34531D01*
X41134Y33609D01*
X41443Y32660D01*
X41676Y31690D01*
X41832Y30704D01*
X41910Y29709D01*
X41910Y28711D01*
X652418Y167440D02*
X651898Y167508D01*
X651391Y167644D01*
X650907Y167845D01*
X650453Y168107D01*
X650037Y168426D01*
X649666Y168797D01*
X649347Y169213D01*
X649085Y169667D01*
X648884Y170151D01*
X648748Y170658D01*
X648680Y171178D01*
X648680Y171702D01*
X648748Y172222D01*
X648884Y172729D01*
X649085Y173213D01*
X649347Y173667D01*
X649666Y174083D01*
X650037Y174454D01*
X650453Y174773D01*
X650907Y175035D01*
X651391Y175236D01*
X651898Y175372D01*
X652418Y175440D01*
X652942Y175440D01*
X653462Y175372D01*
X653969Y175236D01*
X654453Y175035D01*
X654907Y174773D01*
X655323Y174454D01*
X655694Y174083D01*
X656013Y173667D01*
X656275Y173213D01*
X656476Y172729D01*
X656612Y172222D01*
X656680Y171702D01*
X656680Y171178D01*
X656612Y170658D01*
X656476Y170151D01*
X656275Y169667D01*
X656013Y169213D01*
X655694Y168797D01*
X655323Y168426D01*
X654907Y168107D01*
X654453Y167845D01*
X653969Y167644D01*
X653462Y167508D01*
X652942Y167440D01*
X652418Y167440D01*
X91240Y160382D02*
X91308Y160902D01*
X91444Y161409D01*
X91645Y161893D01*
X91907Y162347D01*
X92226Y162763D01*
X92597Y163134D01*
X93013Y163453D01*
X93467Y163715D01*
X93951Y163916D01*
X94458Y164052D01*
X94978Y164120D01*
X95502Y164120D01*
X96022Y164052D01*
X96529Y163916D01*
X97013Y163715D01*
X97467Y163453D01*
X97883Y163134D01*
X98254Y162763D01*
X98573Y162347D01*
X98835Y161893D01*
X99036Y161409D01*
X99172Y160902D01*
X99240Y160382D01*
X99240Y159858D01*
X99172Y159338D01*
X99036Y158831D01*
X98835Y158347D01*
X98573Y157893D01*
X98254Y157477D01*
X97883Y157106D01*
X97467Y156787D01*
X97013Y156525D01*
X96529Y156324D01*
X96022Y156188D01*
X95502Y156120D01*
X94978Y156120D01*
X94458Y156188D01*
X93951Y156324D01*
X93467Y156525D01*
X93013Y156787D01*
X92597Y157106D01*
X92226Y157477D01*
X91907Y157893D01*
X91645Y158347D01*
X91444Y158831D01*
X91308Y159338D01*
X91240Y159858D01*
X91240Y160382D01*
M02*
