G04 EAGLE Gerber RS-274X export*
G75*
%MOMM*%
%FSLAX34Y34*%
%LPD*%
%INSolderpaste Top*%
%IPPOS*%
%AMOC8*
5,1,8,0,0,1.08239X$1,22.5*%
G01*
%ADD10R,0.751419X0.710719*%
%ADD11R,7.894000X1.424000*%
%ADD12R,1.840000X2.040000*%
%ADD13R,3.302000X2.286000*%
%ADD14C,0.067200*%


D10*
X589280Y129624D03*
X589280Y114216D03*
X589280Y144696D03*
X589280Y160104D03*
D11*
X216916Y67376D03*
X216916Y125776D03*
X487680Y126045D03*
X487680Y67645D03*
X487680Y148910D03*
X487680Y207310D03*
X216916Y206944D03*
X216916Y148544D03*
D12*
X558800Y123100D03*
X558800Y80100D03*
X558800Y151220D03*
X558800Y194220D03*
D13*
X140716Y80901D03*
X140716Y152271D03*
D14*
X52956Y131594D02*
X52956Y121066D01*
X52956Y131594D02*
X101984Y131594D01*
X101984Y121066D01*
X52956Y121066D01*
X52956Y121704D02*
X101984Y121704D01*
X101984Y122342D02*
X52956Y122342D01*
X52956Y122980D02*
X101984Y122980D01*
X101984Y123618D02*
X52956Y123618D01*
X52956Y124256D02*
X101984Y124256D01*
X101984Y124894D02*
X52956Y124894D01*
X52956Y125532D02*
X101984Y125532D01*
X101984Y126170D02*
X52956Y126170D01*
X52956Y126808D02*
X101984Y126808D01*
X101984Y127446D02*
X52956Y127446D01*
X52956Y128084D02*
X101984Y128084D01*
X101984Y128722D02*
X52956Y128722D01*
X52956Y129360D02*
X101984Y129360D01*
X101984Y129998D02*
X52956Y129998D01*
X52956Y130636D02*
X101984Y130636D01*
X101984Y131274D02*
X52956Y131274D01*
X52956Y79594D02*
X52956Y69066D01*
X52956Y79594D02*
X101984Y79594D01*
X101984Y69066D01*
X52956Y69066D01*
X52956Y69704D02*
X101984Y69704D01*
X101984Y70342D02*
X52956Y70342D01*
X52956Y70980D02*
X101984Y70980D01*
X101984Y71618D02*
X52956Y71618D01*
X52956Y72256D02*
X101984Y72256D01*
X101984Y72894D02*
X52956Y72894D01*
X52956Y73532D02*
X101984Y73532D01*
X101984Y74170D02*
X52956Y74170D01*
X52956Y74808D02*
X101984Y74808D01*
X101984Y75446D02*
X52956Y75446D01*
X52956Y76084D02*
X101984Y76084D01*
X101984Y76722D02*
X52956Y76722D01*
X52956Y77360D02*
X101984Y77360D01*
X101984Y77998D02*
X52956Y77998D01*
X52956Y78636D02*
X101984Y78636D01*
X101984Y79274D02*
X52956Y79274D01*
M02*
