AMP Version AMPV1.0 : 
Date Logging Start Time: 2018-11-14 04:16:20 PM
Date and Time, Azimuth, Tilt, Roll, Temperature, Humidity, Status Register
2018-11-14 16:16:20.8, 0,    0,    0,  238,  233,    1
2018-11-14 16:16:21.1, 0,    0,    0,  238,  233,    1
2018-11-14 16:16:21.4, 0,    0,    0,  238,  232,    1
2018-11-14 16:16:21.7, 0,    0,    0,  238,  232,    1
2018-11-14 16:16:22.0, 0,    0,    0,  238,  232,    1
2018-11-14 16:16:22.3, 0,    0,    0,  238,  232,    1
2018-11-14 16:16:22.6, 0,    0,    0,  238,  232,    1
2018-11-14 16:16:22.9, 0,    0,    0,  238,  232,    1
2018-11-14 16:16:23.2, 0,    0,    0,  238,  232,    1
2018-11-14 16:16:23.5, 0,    0,    0,  238,  232,    1
2018-11-14 16:16:23.8, 0,    0,    0,  238,  232,    1
2018-11-14 16:16:24.1, 0,    0,    0,  238,  232,    1
2018-11-14 16:16:24.4, 0,    0,    0,  238,  232,    1
2018-11-14 16:16:24.7, 0,    0,    0,  238,  232,    1
2018-11-14 16:16:25.0, 0,    0,    0,  238,  232,    1
2018-11-14 16:16:25.3, 0,    0,    0,  239,  232,    1
2018-11-14 16:16:25.6, 0,    0,    0,  239,  232,    1
2018-11-14 16:16:25.9, 0,    0,    0,  239,  232,    1
2018-11-14 16:16:26.2, 0,    0,    0,  239,  232,    1
2018-11-14 16:16:26.5, 0,    0,    0,  239,  232,    1
2018-11-14 16:16:26.8, 0,    0,    0,  239,  232,    1
2018-11-14 16:16:27.1, 0,    0,    0,  239,  232,    1
2018-11-14 16:16:27.4, 0,    0,    0,  239,  230,    1
