M48
;GenerationSoftware,Autodesk,EAGLE,8.7.0*%
;CreationDate,2018-04-30T17:52:31Z*%
FMAT,2
ICI,OFF
METRIC,TZ,000.000
T5C0.254
T4C0.700
T3C1.100
T2C1.200
T1C3.556
%
G90
M71
T1
X29210Y58420
X29210Y5080
X6350Y5080
X6350Y58420
T2
X6736Y23173
X7244Y48065
T3
X16445Y16575
X21772Y6780
X21518Y60120
X13970Y15550
X13970Y22550
X11495Y16575
X11495Y21525
X16445Y21525
X10470Y19050
X14670Y19050
X13970Y40950
X13970Y47950
X11495Y41975
X11495Y46925
X16445Y41975
X16445Y46925
X10470Y44450
X14670Y44450
T4
X14018Y58420
X20272Y5080
X18272Y5080
X16272Y5080
X14272Y5080
X20018Y58420
X18018Y58420
X16018Y58420
T5
X27940Y25400
X33020Y33020
X1524Y1524
X1524Y7874
X10668Y1524
X34290Y1524
X34290Y7874
X24384Y1524
X34290Y61976
X10414Y55372
X34290Y55372
X33020Y27940
X33020Y25400
X34290Y35306
X21336Y10668
X13208Y10668
X16002Y52578
X28194Y52578
X24384Y61976
X1524Y61976
X10668Y7874
X24384Y7874
X1524Y17272
X1524Y52578
X1524Y55372
X10414Y61976
X24638Y55372
X8128Y16764
X25400Y43561
X22860Y43561
X20320Y43561
X18542Y23241
X16510Y39878
X17653Y37465
X22860Y39624
X17780Y43561
X26670Y41910
X20066Y40005
X22098Y37465
X20066Y34925
X15875Y25146
X15875Y27940
X15875Y30480
X15875Y32893
X15875Y35560
X18796Y27940
X18542Y25146
X18796Y30480
X18796Y32893
X18542Y21336
X6350Y45720
X7620Y45720
X27940Y19304
X6350Y43434
X6350Y40640
X6350Y38100
X6350Y35560
X6350Y33020
X7620Y51054
X6350Y30480
X6350Y20320
X6350Y27940
X7620Y20320
X6350Y25400
X6350Y21590
X8382Y23622
X7620Y21590
X20574Y32004
X9652Y33020
X9652Y30480
X9652Y27940
X9652Y25400
X9652Y35560
X9652Y38100
X20574Y29464
X20574Y26924
X20574Y24384
X29210Y39751
X29210Y37211
X24130Y36830
X24130Y35306
X20574Y21590
X21590Y33020
X21590Y30480
X21590Y27940
X21590Y25400
X22860Y23495
X25400Y24765
X1524Y44958
X1524Y10922
X1524Y22860
X23114Y52578
X34290Y52578
X34290Y39878
X16510Y49530
X34290Y10668
X34290Y29210
X34290Y21590
X34290Y16256
X17018Y10668
X19050Y19685
X4267Y34798
X21717Y17526
X5080Y33858
X21717Y16447
X27940Y30480
X34290Y45720
X19050Y49530
X21590Y49530
X24130Y49530
X25400Y48260
X25400Y45974
X33020Y30480
X33020Y12700
X33020Y15240
X7620Y43434
X33020Y20320
X33020Y17780
X33020Y22860
X30480Y12700
X30480Y15240
X30480Y20320
X30480Y17780
X29210Y24130
X30480Y22860
X25908Y21082
X24130Y19304
X24130Y14732
X26035Y17145
X26035Y12700
X27940Y14605
X29210Y31750
X27940Y33020
X29210Y29210
X27940Y27940
X29210Y26670
X28194Y45974
M30