G04 EAGLE Gerber X2 export*
G75*
%MOMM*%
%FSLAX34Y34*%
%LPD*%
%AMOC8*
5,1,8,0,0,1.08239X$1,22.5*%
G01*
%ADD10C,1.650000*%
%ADD11C,1.800000*%
%ADD12C,1.208000*%
%ADD13C,0.660400*%
%ADD14C,0.406400*%

G36*
X351908Y5096D02*
X351908Y5096D01*
X352027Y5103D01*
X352065Y5116D01*
X352106Y5121D01*
X352216Y5164D01*
X352329Y5201D01*
X352364Y5223D01*
X352401Y5238D01*
X352497Y5307D01*
X352598Y5371D01*
X352626Y5401D01*
X352659Y5424D01*
X352735Y5516D01*
X352816Y5603D01*
X352836Y5638D01*
X352861Y5669D01*
X352912Y5777D01*
X352970Y5881D01*
X352980Y5921D01*
X352997Y5957D01*
X353019Y6074D01*
X353049Y6189D01*
X353053Y6249D01*
X353057Y6269D01*
X353055Y6290D01*
X353059Y6350D01*
X353059Y628650D01*
X353044Y628768D01*
X353037Y628887D01*
X353024Y628925D01*
X353019Y628966D01*
X352976Y629076D01*
X352939Y629189D01*
X352917Y629224D01*
X352902Y629261D01*
X352833Y629357D01*
X352769Y629458D01*
X352739Y629486D01*
X352716Y629519D01*
X352624Y629595D01*
X352537Y629676D01*
X352502Y629696D01*
X352471Y629721D01*
X352363Y629772D01*
X352259Y629830D01*
X352219Y629840D01*
X352183Y629857D01*
X352066Y629879D01*
X351951Y629909D01*
X351891Y629913D01*
X351871Y629917D01*
X351850Y629915D01*
X351790Y629919D01*
X6350Y629919D01*
X6232Y629904D01*
X6113Y629897D01*
X6075Y629884D01*
X6034Y629879D01*
X5924Y629836D01*
X5811Y629799D01*
X5776Y629777D01*
X5739Y629762D01*
X5643Y629693D01*
X5542Y629629D01*
X5514Y629599D01*
X5481Y629576D01*
X5405Y629484D01*
X5324Y629397D01*
X5304Y629362D01*
X5279Y629331D01*
X5228Y629223D01*
X5170Y629119D01*
X5160Y629079D01*
X5143Y629043D01*
X5121Y628926D01*
X5091Y628811D01*
X5087Y628751D01*
X5083Y628731D01*
X5085Y628710D01*
X5081Y628650D01*
X5081Y6350D01*
X5096Y6232D01*
X5103Y6113D01*
X5116Y6075D01*
X5121Y6034D01*
X5164Y5924D01*
X5201Y5811D01*
X5223Y5776D01*
X5238Y5739D01*
X5307Y5643D01*
X5371Y5542D01*
X5401Y5514D01*
X5424Y5481D01*
X5516Y5405D01*
X5603Y5324D01*
X5638Y5304D01*
X5669Y5279D01*
X5777Y5228D01*
X5881Y5170D01*
X5921Y5160D01*
X5957Y5143D01*
X6074Y5121D01*
X6189Y5091D01*
X6249Y5087D01*
X6269Y5083D01*
X6290Y5085D01*
X6350Y5081D01*
X351790Y5081D01*
X351908Y5096D01*
G37*
%LPC*%
G36*
X141114Y42727D02*
X141114Y42727D01*
X138147Y43956D01*
X135876Y46227D01*
X134647Y49194D01*
X134647Y52406D01*
X135876Y55373D01*
X138147Y57644D01*
X141114Y58873D01*
X144018Y58873D01*
X144136Y58888D01*
X144255Y58895D01*
X144293Y58908D01*
X144334Y58913D01*
X144444Y58956D01*
X144557Y58993D01*
X144592Y59015D01*
X144629Y59030D01*
X144725Y59099D01*
X144826Y59163D01*
X144854Y59193D01*
X144887Y59216D01*
X144963Y59308D01*
X145044Y59395D01*
X145064Y59430D01*
X145089Y59461D01*
X145140Y59569D01*
X145198Y59673D01*
X145208Y59713D01*
X145225Y59749D01*
X145247Y59866D01*
X145277Y59981D01*
X145281Y60041D01*
X145285Y60061D01*
X145283Y60082D01*
X145287Y60142D01*
X145287Y72728D01*
X145275Y72826D01*
X145272Y72925D01*
X145255Y72983D01*
X145247Y73044D01*
X145211Y73136D01*
X145183Y73231D01*
X145153Y73283D01*
X145130Y73339D01*
X145072Y73419D01*
X145022Y73505D01*
X144956Y73580D01*
X144944Y73597D01*
X144934Y73604D01*
X144916Y73626D01*
X130776Y87766D01*
X130697Y87826D01*
X130625Y87894D01*
X130572Y87923D01*
X130524Y87960D01*
X130433Y88000D01*
X130347Y88048D01*
X130288Y88063D01*
X130232Y88087D01*
X130134Y88102D01*
X130039Y88127D01*
X129939Y88133D01*
X129918Y88137D01*
X129906Y88135D01*
X129878Y88137D01*
X92304Y88137D01*
X30987Y149454D01*
X30987Y321648D01*
X30975Y321746D01*
X30972Y321845D01*
X30955Y321903D01*
X30947Y321964D01*
X30911Y322056D01*
X30883Y322151D01*
X30853Y322203D01*
X30830Y322259D01*
X30772Y322339D01*
X30722Y322425D01*
X30656Y322500D01*
X30644Y322517D01*
X30634Y322524D01*
X30616Y322546D01*
X18287Y334874D01*
X18287Y363626D01*
X30616Y375954D01*
X30676Y376033D01*
X30744Y376105D01*
X30773Y376158D01*
X30810Y376206D01*
X30850Y376297D01*
X30898Y376383D01*
X30913Y376442D01*
X30937Y376498D01*
X30952Y376596D01*
X30977Y376691D01*
X30983Y376791D01*
X30987Y376812D01*
X30985Y376824D01*
X30987Y376852D01*
X30987Y510946D01*
X58014Y537973D01*
X118448Y537973D01*
X118546Y537985D01*
X118645Y537988D01*
X118703Y538005D01*
X118764Y538013D01*
X118856Y538049D01*
X118951Y538077D01*
X119003Y538107D01*
X119059Y538130D01*
X119139Y538188D01*
X119225Y538238D01*
X119300Y538304D01*
X119317Y538316D01*
X119324Y538326D01*
X119346Y538344D01*
X142376Y561374D01*
X142436Y561453D01*
X142504Y561525D01*
X142533Y561578D01*
X142570Y561626D01*
X142610Y561717D01*
X142658Y561803D01*
X142673Y561862D01*
X142677Y561871D01*
X142685Y561889D01*
X142685Y561891D01*
X142697Y561918D01*
X142712Y562016D01*
X142737Y562111D01*
X142742Y562186D01*
X142745Y562201D01*
X142744Y562214D01*
X142747Y562232D01*
X142745Y562244D01*
X142747Y562272D01*
X142747Y574858D01*
X142732Y574976D01*
X142725Y575095D01*
X142712Y575133D01*
X142707Y575174D01*
X142664Y575284D01*
X142627Y575397D01*
X142605Y575432D01*
X142590Y575469D01*
X142521Y575565D01*
X142457Y575666D01*
X142427Y575694D01*
X142404Y575727D01*
X142312Y575803D01*
X142225Y575884D01*
X142190Y575904D01*
X142159Y575929D01*
X142051Y575980D01*
X141947Y576038D01*
X141907Y576048D01*
X141871Y576065D01*
X141754Y576087D01*
X141639Y576117D01*
X141579Y576121D01*
X141559Y576125D01*
X141538Y576123D01*
X141478Y576127D01*
X138574Y576127D01*
X135607Y577356D01*
X133336Y579627D01*
X132107Y582594D01*
X132107Y585806D01*
X133336Y588773D01*
X135607Y591044D01*
X138574Y592273D01*
X141786Y592273D01*
X144753Y591044D01*
X147024Y588773D01*
X148253Y585806D01*
X148253Y582401D01*
X148265Y582303D01*
X148268Y582204D01*
X148285Y582146D01*
X148293Y582086D01*
X148329Y581994D01*
X148357Y581899D01*
X148387Y581846D01*
X148410Y581790D01*
X148468Y581710D01*
X148518Y581625D01*
X148584Y581549D01*
X148596Y581533D01*
X148606Y581525D01*
X148624Y581504D01*
X149282Y580846D01*
X149377Y580773D01*
X149466Y580694D01*
X149502Y580676D01*
X149534Y580651D01*
X149643Y580604D01*
X149749Y580550D01*
X149788Y580541D01*
X149826Y580525D01*
X149943Y580506D01*
X150059Y580480D01*
X150100Y580481D01*
X150140Y580475D01*
X150258Y580486D01*
X150377Y580490D01*
X150416Y580501D01*
X150456Y580505D01*
X150569Y580545D01*
X150683Y580578D01*
X150717Y580598D01*
X150756Y580612D01*
X150854Y580679D01*
X150957Y580739D01*
X151002Y580779D01*
X151019Y580791D01*
X151032Y580806D01*
X151077Y580846D01*
X151736Y581504D01*
X151796Y581582D01*
X151864Y581654D01*
X151893Y581707D01*
X151930Y581755D01*
X151970Y581846D01*
X152018Y581933D01*
X152033Y581991D01*
X152057Y582047D01*
X152072Y582145D01*
X152097Y582241D01*
X152103Y582341D01*
X152107Y582361D01*
X152105Y582373D01*
X152107Y582401D01*
X152107Y585806D01*
X153336Y588773D01*
X155607Y591044D01*
X158574Y592273D01*
X161786Y592273D01*
X164753Y591044D01*
X167024Y588773D01*
X168253Y585806D01*
X168253Y582594D01*
X167024Y579627D01*
X164753Y577356D01*
X161786Y576127D01*
X158381Y576127D01*
X158283Y576115D01*
X158184Y576112D01*
X158126Y576095D01*
X158066Y576087D01*
X157974Y576051D01*
X157879Y576023D01*
X157827Y575993D01*
X157770Y575970D01*
X157690Y575912D01*
X157605Y575862D01*
X157529Y575796D01*
X157513Y575784D01*
X157505Y575774D01*
X157484Y575756D01*
X157344Y575616D01*
X157284Y575538D01*
X157216Y575466D01*
X157187Y575413D01*
X157150Y575365D01*
X157110Y575274D01*
X157062Y575187D01*
X157047Y575129D01*
X157023Y575073D01*
X157008Y574975D01*
X156983Y574879D01*
X156977Y574779D01*
X156973Y574759D01*
X156975Y574747D01*
X156973Y574719D01*
X156973Y555854D01*
X124866Y523747D01*
X90522Y523747D01*
X90384Y523730D01*
X90245Y523717D01*
X90226Y523710D01*
X90206Y523707D01*
X90077Y523656D01*
X89946Y523609D01*
X89929Y523598D01*
X89910Y523590D01*
X89798Y523509D01*
X89683Y523431D01*
X89669Y523415D01*
X89653Y523404D01*
X89565Y523297D01*
X89472Y523192D01*
X89463Y523174D01*
X89450Y523159D01*
X89391Y523033D01*
X89328Y522909D01*
X89323Y522889D01*
X89315Y522871D01*
X89289Y522735D01*
X89258Y522599D01*
X89259Y522578D01*
X89255Y522559D01*
X89264Y522420D01*
X89268Y522281D01*
X89273Y522261D01*
X89275Y522241D01*
X89318Y522109D01*
X89356Y521975D01*
X89367Y521958D01*
X89373Y521939D01*
X89447Y521821D01*
X89518Y521701D01*
X89536Y521680D01*
X89543Y521670D01*
X89558Y521656D01*
X89624Y521580D01*
X89663Y521542D01*
X89663Y514778D01*
X89497Y514613D01*
X89412Y514503D01*
X89323Y514396D01*
X89315Y514377D01*
X89302Y514361D01*
X89247Y514233D01*
X89188Y514108D01*
X89184Y514088D01*
X89176Y514069D01*
X89154Y513931D01*
X89128Y513795D01*
X89129Y513775D01*
X89126Y513755D01*
X89139Y513616D01*
X89148Y513478D01*
X89154Y513459D01*
X89156Y513439D01*
X89203Y513308D01*
X89246Y513176D01*
X89257Y513158D01*
X89263Y513139D01*
X89341Y513025D01*
X89416Y512907D01*
X89431Y512893D01*
X89442Y512876D01*
X89546Y512784D01*
X89648Y512689D01*
X89665Y512679D01*
X89680Y512666D01*
X89804Y512603D01*
X89926Y512535D01*
X89946Y512530D01*
X89964Y512521D01*
X89992Y512515D01*
X90806Y511701D01*
X90806Y416977D01*
X90818Y416879D01*
X90821Y416780D01*
X90838Y416722D01*
X90846Y416662D01*
X90882Y416569D01*
X90910Y416474D01*
X90940Y416422D01*
X90963Y416366D01*
X91021Y416286D01*
X91071Y416200D01*
X91137Y416125D01*
X91149Y416109D01*
X91159Y416101D01*
X91177Y416080D01*
X120170Y387087D01*
X120248Y387027D01*
X120320Y386959D01*
X120373Y386930D01*
X120421Y386893D01*
X120512Y386853D01*
X120598Y386805D01*
X120657Y386790D01*
X120713Y386766D01*
X120811Y386751D01*
X120906Y386726D01*
X121006Y386720D01*
X121027Y386716D01*
X121039Y386718D01*
X121067Y386716D01*
X311041Y386716D01*
X311786Y385971D01*
X311786Y341739D01*
X311041Y340994D01*
X244475Y340994D01*
X244357Y340979D01*
X244238Y340972D01*
X244200Y340959D01*
X244159Y340954D01*
X244049Y340911D01*
X243936Y340874D01*
X243901Y340852D01*
X243864Y340837D01*
X243768Y340768D01*
X243667Y340704D01*
X243639Y340674D01*
X243606Y340651D01*
X243530Y340559D01*
X243449Y340472D01*
X243429Y340437D01*
X243404Y340406D01*
X243353Y340298D01*
X243295Y340194D01*
X243285Y340154D01*
X243268Y340118D01*
X243246Y340001D01*
X243216Y339886D01*
X243212Y339826D01*
X243208Y339806D01*
X243210Y339785D01*
X243206Y339725D01*
X243206Y209659D01*
X242461Y208914D01*
X196959Y208914D01*
X196214Y209659D01*
X196214Y336550D01*
X196199Y336668D01*
X196192Y336787D01*
X196179Y336825D01*
X196174Y336866D01*
X196131Y336976D01*
X196094Y337089D01*
X196072Y337124D01*
X196057Y337161D01*
X195988Y337257D01*
X195924Y337358D01*
X195894Y337386D01*
X195871Y337419D01*
X195779Y337495D01*
X195692Y337576D01*
X195657Y337596D01*
X195626Y337621D01*
X195518Y337672D01*
X195414Y337730D01*
X195374Y337740D01*
X195338Y337757D01*
X195221Y337779D01*
X195106Y337809D01*
X195046Y337813D01*
X195026Y337817D01*
X195005Y337815D01*
X194945Y337819D01*
X110490Y337819D01*
X110372Y337804D01*
X110253Y337797D01*
X110215Y337784D01*
X110174Y337779D01*
X110064Y337736D01*
X109951Y337699D01*
X109916Y337677D01*
X109879Y337662D01*
X109783Y337593D01*
X109682Y337529D01*
X109654Y337499D01*
X109621Y337476D01*
X109545Y337384D01*
X109464Y337297D01*
X109444Y337262D01*
X109419Y337231D01*
X109368Y337123D01*
X109310Y337019D01*
X109300Y336979D01*
X109283Y336943D01*
X109261Y336826D01*
X109231Y336711D01*
X109227Y336651D01*
X109223Y336631D01*
X109225Y336610D01*
X109221Y336550D01*
X109221Y235648D01*
X109223Y235630D01*
X109222Y235585D01*
X109247Y235085D01*
X108893Y234731D01*
X108882Y234717D01*
X108850Y234686D01*
X91134Y215138D01*
X91096Y215082D01*
X91049Y215032D01*
X91005Y214952D01*
X90952Y214877D01*
X90928Y214813D01*
X90895Y214754D01*
X90873Y214665D01*
X90840Y214579D01*
X90833Y214512D01*
X90816Y214446D01*
X90806Y214285D01*
X90806Y186799D01*
X90061Y186054D01*
X46482Y186054D01*
X46364Y186039D01*
X46245Y186032D01*
X46207Y186019D01*
X46166Y186014D01*
X46056Y185971D01*
X45943Y185934D01*
X45908Y185912D01*
X45871Y185897D01*
X45775Y185828D01*
X45674Y185764D01*
X45646Y185734D01*
X45613Y185711D01*
X45537Y185619D01*
X45456Y185532D01*
X45436Y185497D01*
X45411Y185466D01*
X45360Y185358D01*
X45302Y185254D01*
X45292Y185214D01*
X45275Y185178D01*
X45253Y185061D01*
X45223Y184946D01*
X45219Y184886D01*
X45215Y184866D01*
X45217Y184845D01*
X45213Y184785D01*
X45213Y155872D01*
X45225Y155774D01*
X45228Y155675D01*
X45245Y155617D01*
X45253Y155556D01*
X45289Y155464D01*
X45317Y155369D01*
X45347Y155317D01*
X45370Y155261D01*
X45428Y155181D01*
X45478Y155095D01*
X45544Y155020D01*
X45556Y155003D01*
X45566Y154996D01*
X45584Y154974D01*
X97824Y102734D01*
X97903Y102674D01*
X97975Y102606D01*
X98028Y102577D01*
X98076Y102540D01*
X98167Y102500D01*
X98253Y102452D01*
X98312Y102437D01*
X98368Y102413D01*
X98466Y102398D01*
X98561Y102373D01*
X98661Y102367D01*
X98682Y102363D01*
X98694Y102365D01*
X98722Y102363D01*
X136296Y102363D01*
X159513Y79146D01*
X159513Y60281D01*
X159525Y60183D01*
X159528Y60084D01*
X159545Y60026D01*
X159553Y59966D01*
X159589Y59874D01*
X159616Y59779D01*
X159647Y59727D01*
X159670Y59670D01*
X159728Y59590D01*
X159778Y59505D01*
X159844Y59429D01*
X159856Y59413D01*
X159866Y59405D01*
X159884Y59384D01*
X160024Y59245D01*
X160102Y59184D01*
X160174Y59116D01*
X160227Y59087D01*
X160275Y59050D01*
X160366Y59010D01*
X160453Y58962D01*
X160511Y58947D01*
X160567Y58923D01*
X160665Y58908D01*
X160761Y58883D01*
X160861Y58877D01*
X160881Y58873D01*
X160893Y58875D01*
X160921Y58873D01*
X164326Y58873D01*
X167293Y57644D01*
X169564Y55373D01*
X170793Y52406D01*
X170793Y49194D01*
X169564Y46227D01*
X167293Y43956D01*
X164326Y42727D01*
X161114Y42727D01*
X158147Y43956D01*
X155876Y46227D01*
X154647Y49194D01*
X154647Y52599D01*
X154635Y52697D01*
X154632Y52796D01*
X154615Y52854D01*
X154607Y52914D01*
X154571Y53006D01*
X154543Y53101D01*
X154513Y53154D01*
X154490Y53210D01*
X154432Y53290D01*
X154382Y53375D01*
X154316Y53451D01*
X154304Y53467D01*
X154294Y53475D01*
X154276Y53496D01*
X153618Y54154D01*
X153523Y54227D01*
X153434Y54306D01*
X153398Y54324D01*
X153366Y54349D01*
X153257Y54396D01*
X153151Y54450D01*
X153112Y54459D01*
X153074Y54475D01*
X152957Y54494D01*
X152841Y54520D01*
X152800Y54519D01*
X152760Y54525D01*
X152642Y54514D01*
X152523Y54510D01*
X152484Y54499D01*
X152444Y54495D01*
X152331Y54455D01*
X152217Y54422D01*
X152183Y54402D01*
X152144Y54388D01*
X152046Y54321D01*
X151943Y54261D01*
X151898Y54221D01*
X151881Y54209D01*
X151868Y54194D01*
X151823Y54154D01*
X151164Y53496D01*
X151104Y53418D01*
X151036Y53346D01*
X151007Y53293D01*
X150970Y53245D01*
X150930Y53154D01*
X150882Y53067D01*
X150867Y53009D01*
X150843Y52953D01*
X150828Y52855D01*
X150803Y52759D01*
X150797Y52659D01*
X150793Y52639D01*
X150795Y52627D01*
X150793Y52599D01*
X150793Y49194D01*
X149564Y46227D01*
X147293Y43956D01*
X144326Y42727D01*
X141114Y42727D01*
G37*
%LPD*%
G36*
X85843Y189881D02*
X85843Y189881D01*
X85962Y189888D01*
X86000Y189901D01*
X86041Y189906D01*
X86151Y189949D01*
X86264Y189986D01*
X86299Y190008D01*
X86336Y190023D01*
X86432Y190092D01*
X86533Y190156D01*
X86561Y190186D01*
X86594Y190209D01*
X86670Y190301D01*
X86751Y190388D01*
X86771Y190423D01*
X86796Y190454D01*
X86847Y190562D01*
X86905Y190666D01*
X86915Y190706D01*
X86932Y190742D01*
X86954Y190859D01*
X86984Y190974D01*
X86988Y191034D01*
X86992Y191054D01*
X86990Y191075D01*
X86994Y191135D01*
X86994Y215837D01*
X86992Y215855D01*
X86993Y215900D01*
X86968Y216400D01*
X87322Y216754D01*
X87333Y216768D01*
X87365Y216799D01*
X105081Y236347D01*
X105119Y236403D01*
X105166Y236453D01*
X105210Y236533D01*
X105263Y236608D01*
X105287Y236672D01*
X105320Y236731D01*
X105342Y236820D01*
X105375Y236906D01*
X105382Y236973D01*
X105399Y237039D01*
X105409Y237200D01*
X105409Y341075D01*
X105496Y341100D01*
X105548Y341130D01*
X105604Y341153D01*
X105684Y341211D01*
X105770Y341261D01*
X105845Y341327D01*
X105861Y341339D01*
X105869Y341349D01*
X105890Y341368D01*
X106154Y341631D01*
X198733Y341631D01*
X198802Y341639D01*
X198872Y341638D01*
X198960Y341659D01*
X199049Y341671D01*
X199114Y341696D01*
X199182Y341713D01*
X199193Y341719D01*
X199545Y341367D01*
X199623Y341307D01*
X199649Y341282D01*
X199656Y341270D01*
X199722Y341195D01*
X199734Y341179D01*
X199744Y341171D01*
X199763Y341150D01*
X200026Y340886D01*
X200026Y213995D01*
X200041Y213877D01*
X200048Y213758D01*
X200061Y213720D01*
X200066Y213679D01*
X200109Y213569D01*
X200146Y213456D01*
X200168Y213421D01*
X200183Y213384D01*
X200252Y213288D01*
X200316Y213187D01*
X200346Y213159D01*
X200369Y213126D01*
X200461Y213050D01*
X200548Y212969D01*
X200583Y212949D01*
X200614Y212924D01*
X200722Y212873D01*
X200826Y212815D01*
X200866Y212805D01*
X200902Y212788D01*
X201019Y212766D01*
X201134Y212736D01*
X201194Y212732D01*
X201214Y212728D01*
X201235Y212730D01*
X201295Y212726D01*
X238125Y212726D01*
X238243Y212741D01*
X238362Y212748D01*
X238400Y212761D01*
X238441Y212766D01*
X238551Y212809D01*
X238664Y212846D01*
X238699Y212868D01*
X238736Y212883D01*
X238832Y212952D01*
X238933Y213016D01*
X238961Y213046D01*
X238994Y213069D01*
X239070Y213161D01*
X239151Y213248D01*
X239171Y213283D01*
X239196Y213314D01*
X239247Y213422D01*
X239305Y213526D01*
X239315Y213566D01*
X239332Y213602D01*
X239354Y213719D01*
X239384Y213834D01*
X239388Y213894D01*
X239392Y213914D01*
X239390Y213935D01*
X239394Y213995D01*
X239394Y344061D01*
X239657Y344325D01*
X239718Y344403D01*
X239743Y344429D01*
X239755Y344436D01*
X239830Y344502D01*
X239846Y344514D01*
X239854Y344524D01*
X239875Y344543D01*
X240139Y344806D01*
X306705Y344806D01*
X306823Y344821D01*
X306942Y344828D01*
X306980Y344841D01*
X307021Y344846D01*
X307131Y344889D01*
X307244Y344926D01*
X307279Y344948D01*
X307316Y344963D01*
X307412Y345032D01*
X307513Y345096D01*
X307541Y345126D01*
X307574Y345149D01*
X307650Y345241D01*
X307731Y345328D01*
X307751Y345363D01*
X307776Y345394D01*
X307827Y345502D01*
X307885Y345606D01*
X307895Y345646D01*
X307912Y345682D01*
X307934Y345799D01*
X307964Y345914D01*
X307968Y345974D01*
X307972Y345994D01*
X307970Y346015D01*
X307974Y346075D01*
X307974Y381635D01*
X307959Y381753D01*
X307952Y381872D01*
X307939Y381910D01*
X307934Y381951D01*
X307891Y382061D01*
X307854Y382174D01*
X307832Y382209D01*
X307817Y382246D01*
X307748Y382342D01*
X307684Y382443D01*
X307654Y382471D01*
X307631Y382504D01*
X307539Y382580D01*
X307452Y382661D01*
X307417Y382681D01*
X307386Y382706D01*
X307278Y382757D01*
X307174Y382815D01*
X307134Y382825D01*
X307098Y382842D01*
X306981Y382864D01*
X306866Y382894D01*
X306806Y382898D01*
X306786Y382902D01*
X306765Y382900D01*
X306705Y382904D01*
X118854Y382904D01*
X86994Y414764D01*
X86994Y510540D01*
X86979Y510658D01*
X86972Y510777D01*
X86959Y510815D01*
X86954Y510856D01*
X86911Y510966D01*
X86874Y511079D01*
X86852Y511114D01*
X86837Y511151D01*
X86768Y511247D01*
X86704Y511348D01*
X86674Y511376D01*
X86651Y511409D01*
X86559Y511485D01*
X86472Y511566D01*
X86437Y511586D01*
X86406Y511611D01*
X86298Y511662D01*
X86194Y511720D01*
X86154Y511730D01*
X86118Y511747D01*
X86001Y511769D01*
X85886Y511799D01*
X85826Y511803D01*
X85806Y511807D01*
X85785Y511805D01*
X85725Y511809D01*
X58420Y511809D01*
X58302Y511794D01*
X58183Y511787D01*
X58145Y511774D01*
X58104Y511769D01*
X57994Y511726D01*
X57881Y511689D01*
X57846Y511667D01*
X57809Y511652D01*
X57713Y511583D01*
X57612Y511519D01*
X57584Y511489D01*
X57551Y511466D01*
X57476Y511374D01*
X57394Y511287D01*
X57374Y511252D01*
X57349Y511221D01*
X57298Y511113D01*
X57240Y511009D01*
X57230Y510969D01*
X57213Y510933D01*
X57191Y510816D01*
X57161Y510701D01*
X57157Y510641D01*
X57153Y510621D01*
X57155Y510600D01*
X57151Y510540D01*
X57151Y335806D01*
X52443Y331098D01*
X52382Y331019D01*
X52314Y330947D01*
X52285Y330894D01*
X52248Y330846D01*
X52208Y330755D01*
X52160Y330669D01*
X52145Y330610D01*
X52121Y330554D01*
X52106Y330456D01*
X52081Y330361D01*
X52075Y330261D01*
X52071Y330240D01*
X52073Y330228D01*
X52071Y330200D01*
X52071Y191135D01*
X52086Y191017D01*
X52093Y190898D01*
X52106Y190860D01*
X52111Y190819D01*
X52154Y190709D01*
X52191Y190596D01*
X52213Y190561D01*
X52228Y190524D01*
X52298Y190428D01*
X52361Y190327D01*
X52391Y190299D01*
X52414Y190266D01*
X52506Y190190D01*
X52593Y190109D01*
X52628Y190089D01*
X52659Y190064D01*
X52767Y190013D01*
X52871Y189955D01*
X52911Y189945D01*
X52947Y189928D01*
X53064Y189906D01*
X53179Y189876D01*
X53240Y189872D01*
X53260Y189868D01*
X53280Y189870D01*
X53340Y189866D01*
X85725Y189866D01*
X85843Y189881D01*
G37*
%LPC*%
G36*
X287553Y561339D02*
X287553Y561339D01*
X279150Y564820D01*
X272720Y571250D01*
X269239Y579653D01*
X269239Y588747D01*
X272720Y597150D01*
X279150Y603580D01*
X287553Y607061D01*
X296647Y607061D01*
X305050Y603580D01*
X311480Y597150D01*
X314961Y588747D01*
X314961Y579653D01*
X311480Y571250D01*
X305050Y564820D01*
X296647Y561339D01*
X287553Y561339D01*
G37*
%LPD*%
%LPC*%
G36*
X58953Y561339D02*
X58953Y561339D01*
X50550Y564820D01*
X44120Y571250D01*
X40639Y579653D01*
X40639Y588747D01*
X44120Y597150D01*
X50550Y603580D01*
X58953Y607061D01*
X68047Y607061D01*
X76450Y603580D01*
X82880Y597150D01*
X86361Y588747D01*
X86361Y579653D01*
X82880Y571250D01*
X76450Y564820D01*
X68047Y561339D01*
X58953Y561339D01*
G37*
%LPD*%
%LPC*%
G36*
X287553Y27939D02*
X287553Y27939D01*
X279150Y31420D01*
X272720Y37850D01*
X269239Y46253D01*
X269239Y55347D01*
X272720Y63750D01*
X279150Y70180D01*
X287553Y73661D01*
X296647Y73661D01*
X305050Y70180D01*
X311480Y63750D01*
X314961Y55347D01*
X314961Y46253D01*
X311480Y37850D01*
X305050Y31420D01*
X296647Y27939D01*
X287553Y27939D01*
G37*
%LPD*%
%LPC*%
G36*
X58953Y27939D02*
X58953Y27939D01*
X50550Y31420D01*
X44120Y37850D01*
X40639Y46253D01*
X40639Y55347D01*
X44120Y63750D01*
X50550Y70180D01*
X58953Y73661D01*
X68047Y73661D01*
X76450Y70180D01*
X82880Y63750D01*
X86361Y55347D01*
X86361Y46253D01*
X82880Y37850D01*
X76450Y31420D01*
X68047Y27939D01*
X58953Y27939D01*
G37*
%LPD*%
%LPC*%
G36*
X213075Y590619D02*
X213075Y590619D01*
X209187Y592230D01*
X206210Y595207D01*
X204599Y599095D01*
X204599Y603305D01*
X206210Y607193D01*
X209187Y610170D01*
X213075Y611781D01*
X217285Y611781D01*
X221173Y610170D01*
X224150Y607193D01*
X225761Y603305D01*
X225761Y599095D01*
X224150Y595207D01*
X221173Y592230D01*
X217285Y590619D01*
X213075Y590619D01*
G37*
%LPD*%
%LPC*%
G36*
X215615Y57219D02*
X215615Y57219D01*
X211727Y58830D01*
X208750Y61807D01*
X207139Y65695D01*
X207139Y69905D01*
X208750Y73793D01*
X211727Y76770D01*
X215615Y78381D01*
X219825Y78381D01*
X223713Y76770D01*
X226690Y73793D01*
X228301Y69905D01*
X228301Y65695D01*
X226690Y61807D01*
X223713Y58830D01*
X219825Y57219D01*
X215615Y57219D01*
G37*
%LPD*%
%LPC*%
G36*
X144655Y180217D02*
X144655Y180217D01*
X140875Y181783D01*
X137983Y184675D01*
X136417Y188455D01*
X136417Y192545D01*
X137983Y196325D01*
X140875Y199217D01*
X144655Y200783D01*
X148745Y200783D01*
X152525Y199217D01*
X155417Y196325D01*
X156983Y192545D01*
X156983Y188455D01*
X155417Y184675D01*
X152525Y181783D01*
X148745Y180217D01*
X144655Y180217D01*
G37*
%LPD*%
%LPC*%
G36*
X162405Y204967D02*
X162405Y204967D01*
X158625Y206533D01*
X155733Y209425D01*
X154167Y213205D01*
X154167Y217295D01*
X155733Y221075D01*
X158625Y223967D01*
X162405Y225533D01*
X166495Y225533D01*
X170275Y223967D01*
X173167Y221075D01*
X174733Y217295D01*
X174733Y213205D01*
X173167Y209425D01*
X170275Y206533D01*
X166495Y204967D01*
X162405Y204967D01*
G37*
%LPD*%
%LPC*%
G36*
X162405Y409467D02*
X162405Y409467D01*
X158625Y411033D01*
X155733Y413925D01*
X154167Y417705D01*
X154167Y421795D01*
X155733Y425575D01*
X158625Y428467D01*
X162405Y430033D01*
X166495Y430033D01*
X170275Y428467D01*
X173167Y425575D01*
X174733Y421795D01*
X174733Y417705D01*
X173167Y413925D01*
X170275Y411033D01*
X166495Y409467D01*
X162405Y409467D01*
G37*
%LPD*%
%LPC*%
G36*
X112905Y204967D02*
X112905Y204967D01*
X109125Y206533D01*
X106233Y209425D01*
X104667Y213205D01*
X104667Y217295D01*
X106233Y221075D01*
X109125Y223967D01*
X112905Y225533D01*
X116995Y225533D01*
X120775Y223967D01*
X123667Y221075D01*
X125233Y217295D01*
X125233Y213205D01*
X123667Y209425D01*
X120775Y206533D01*
X116995Y204967D01*
X112905Y204967D01*
G37*
%LPD*%
%LPC*%
G36*
X112905Y409467D02*
X112905Y409467D01*
X109125Y411033D01*
X106233Y413925D01*
X104667Y417705D01*
X104667Y421795D01*
X106233Y425575D01*
X109125Y428467D01*
X112905Y430033D01*
X116995Y430033D01*
X120775Y428467D01*
X123667Y425575D01*
X125233Y421795D01*
X125233Y417705D01*
X123667Y413925D01*
X120775Y411033D01*
X116995Y409467D01*
X112905Y409467D01*
G37*
%LPD*%
%LPC*%
G36*
X137655Y469217D02*
X137655Y469217D01*
X133875Y470783D01*
X130983Y473675D01*
X129417Y477455D01*
X129417Y481545D01*
X130983Y485325D01*
X133875Y488217D01*
X137655Y489783D01*
X141745Y489783D01*
X145525Y488217D01*
X148417Y485325D01*
X149983Y481545D01*
X149983Y477455D01*
X148417Y473675D01*
X145525Y470783D01*
X141745Y469217D01*
X137655Y469217D01*
G37*
%LPD*%
%LPC*%
G36*
X112905Y458967D02*
X112905Y458967D01*
X109125Y460533D01*
X106233Y463425D01*
X104667Y467205D01*
X104667Y471295D01*
X106233Y475075D01*
X109125Y477967D01*
X112905Y479533D01*
X116995Y479533D01*
X120775Y477967D01*
X123667Y475075D01*
X125233Y471295D01*
X125233Y467205D01*
X123667Y463425D01*
X120775Y460533D01*
X116995Y458967D01*
X112905Y458967D01*
G37*
%LPD*%
%LPC*%
G36*
X137655Y399217D02*
X137655Y399217D01*
X133875Y400783D01*
X130983Y403675D01*
X129417Y407455D01*
X129417Y411545D01*
X130983Y415325D01*
X133875Y418217D01*
X137655Y419783D01*
X141745Y419783D01*
X145525Y418217D01*
X148417Y415325D01*
X149983Y411545D01*
X149983Y407455D01*
X148417Y403675D01*
X145525Y400783D01*
X141745Y399217D01*
X137655Y399217D01*
G37*
%LPD*%
%LPC*%
G36*
X137655Y215217D02*
X137655Y215217D01*
X133875Y216783D01*
X130983Y219675D01*
X129417Y223455D01*
X129417Y227545D01*
X130983Y231325D01*
X133875Y234217D01*
X137655Y235783D01*
X141745Y235783D01*
X145525Y234217D01*
X148417Y231325D01*
X149983Y227545D01*
X149983Y223455D01*
X148417Y219675D01*
X145525Y216783D01*
X141745Y215217D01*
X137655Y215217D01*
G37*
%LPD*%
%LPC*%
G36*
X102655Y434217D02*
X102655Y434217D01*
X98875Y435783D01*
X95983Y438675D01*
X94417Y442455D01*
X94417Y446545D01*
X95983Y450325D01*
X98875Y453217D01*
X102655Y454783D01*
X106745Y454783D01*
X110525Y453217D01*
X113417Y450325D01*
X114983Y446545D01*
X114983Y442455D01*
X113417Y438675D01*
X110525Y435783D01*
X106745Y434217D01*
X102655Y434217D01*
G37*
%LPD*%
%LPC*%
G36*
X144655Y434217D02*
X144655Y434217D01*
X140875Y435783D01*
X137983Y438675D01*
X136417Y442455D01*
X136417Y446545D01*
X137983Y450325D01*
X140875Y453217D01*
X144655Y454783D01*
X148745Y454783D01*
X152525Y453217D01*
X155417Y450325D01*
X156983Y446545D01*
X156983Y442455D01*
X155417Y438675D01*
X152525Y435783D01*
X148745Y434217D01*
X144655Y434217D01*
G37*
%LPD*%
%LPC*%
G36*
X102655Y180217D02*
X102655Y180217D01*
X98875Y181783D01*
X95983Y184675D01*
X94417Y188455D01*
X94417Y192545D01*
X95983Y196325D01*
X98875Y199217D01*
X102655Y200783D01*
X106745Y200783D01*
X110525Y199217D01*
X113417Y196325D01*
X114983Y192545D01*
X114983Y188455D01*
X113417Y184675D01*
X110525Y181783D01*
X106745Y180217D01*
X102655Y180217D01*
G37*
%LPD*%
%LPC*%
G36*
X112905Y155467D02*
X112905Y155467D01*
X109125Y157033D01*
X106233Y159925D01*
X104667Y163705D01*
X104667Y167795D01*
X106233Y171575D01*
X109125Y174467D01*
X112905Y176033D01*
X116995Y176033D01*
X120775Y174467D01*
X123667Y171575D01*
X125233Y167795D01*
X125233Y163705D01*
X123667Y159925D01*
X120775Y157033D01*
X116995Y155467D01*
X112905Y155467D01*
G37*
%LPD*%
%LPC*%
G36*
X137655Y145217D02*
X137655Y145217D01*
X133875Y146783D01*
X130983Y149675D01*
X129417Y153455D01*
X129417Y157545D01*
X130983Y161325D01*
X133875Y164217D01*
X137655Y165783D01*
X141745Y165783D01*
X145525Y164217D01*
X148417Y161325D01*
X149983Y157545D01*
X149983Y153455D01*
X148417Y149675D01*
X145525Y146783D01*
X141745Y145217D01*
X137655Y145217D01*
G37*
%LPD*%
%LPC*%
G36*
X198574Y576127D02*
X198574Y576127D01*
X195607Y577356D01*
X193336Y579627D01*
X192107Y582594D01*
X192107Y585806D01*
X193336Y588773D01*
X195607Y591044D01*
X198574Y592273D01*
X201786Y592273D01*
X204753Y591044D01*
X207024Y588773D01*
X208253Y585806D01*
X208253Y582594D01*
X207024Y579627D01*
X204753Y577356D01*
X201786Y576127D01*
X198574Y576127D01*
G37*
%LPD*%
%LPC*%
G36*
X201114Y42727D02*
X201114Y42727D01*
X198147Y43956D01*
X195876Y46227D01*
X194647Y49194D01*
X194647Y52406D01*
X195876Y55373D01*
X198147Y57644D01*
X201114Y58873D01*
X204326Y58873D01*
X207293Y57644D01*
X209564Y55373D01*
X210793Y52406D01*
X210793Y49194D01*
X209564Y46227D01*
X207293Y43956D01*
X204326Y42727D01*
X201114Y42727D01*
G37*
%LPD*%
%LPC*%
G36*
X216109Y159130D02*
X216109Y159130D01*
X214148Y159942D01*
X212647Y161443D01*
X211835Y163404D01*
X211835Y165526D01*
X212647Y167487D01*
X214126Y168965D01*
X214199Y169059D01*
X214277Y169148D01*
X214296Y169184D01*
X214321Y169216D01*
X214368Y169326D01*
X214422Y169432D01*
X214431Y169471D01*
X214447Y169508D01*
X214466Y169626D01*
X214492Y169742D01*
X214490Y169782D01*
X214497Y169822D01*
X214486Y169941D01*
X214482Y170060D01*
X214471Y170099D01*
X214467Y170139D01*
X214427Y170251D01*
X214394Y170365D01*
X214373Y170400D01*
X214359Y170438D01*
X214292Y170537D01*
X214232Y170639D01*
X214192Y170684D01*
X214181Y170701D01*
X214165Y170715D01*
X214126Y170760D01*
X212647Y172238D01*
X211835Y174199D01*
X211835Y176321D01*
X212647Y178282D01*
X214148Y179783D01*
X216109Y180595D01*
X218231Y180595D01*
X220192Y179783D01*
X221693Y178282D01*
X222505Y176321D01*
X222505Y174199D01*
X221693Y172238D01*
X220214Y170760D01*
X220141Y170666D01*
X220063Y170577D01*
X220044Y170541D01*
X220019Y170509D01*
X219972Y170399D01*
X219918Y170293D01*
X219909Y170254D01*
X219893Y170217D01*
X219874Y170099D01*
X219848Y169983D01*
X219850Y169943D01*
X219843Y169903D01*
X219854Y169784D01*
X219858Y169665D01*
X219869Y169626D01*
X219873Y169586D01*
X219913Y169474D01*
X219946Y169360D01*
X219967Y169325D01*
X219981Y169287D01*
X220048Y169188D01*
X220108Y169086D01*
X220148Y169041D01*
X220159Y169024D01*
X220175Y169010D01*
X220214Y168965D01*
X221693Y167487D01*
X222505Y165526D01*
X222505Y163404D01*
X221693Y161443D01*
X220192Y159942D01*
X218231Y159130D01*
X216109Y159130D01*
G37*
%LPD*%
%LPC*%
G36*
X199546Y343864D02*
X199546Y343864D01*
X199480Y343926D01*
X199419Y343960D01*
X199364Y344002D01*
X199219Y344073D01*
X197638Y344727D01*
X196137Y346228D01*
X195325Y348189D01*
X195325Y350311D01*
X196137Y352272D01*
X197638Y353773D01*
X199599Y354585D01*
X201721Y354585D01*
X203682Y353773D01*
X205183Y352272D01*
X205995Y350311D01*
X205995Y348189D01*
X205183Y346228D01*
X203682Y344727D01*
X201721Y343915D01*
X200061Y343915D01*
X199923Y343898D01*
X199785Y343885D01*
X199766Y343878D01*
X199746Y343875D01*
X199616Y343824D01*
X199605Y343820D01*
X199546Y343864D01*
G37*
%LPD*%
%LPC*%
G36*
X265639Y413765D02*
X265639Y413765D01*
X263678Y414577D01*
X262177Y416078D01*
X261365Y418039D01*
X261365Y420161D01*
X262177Y422122D01*
X263678Y423623D01*
X265639Y424435D01*
X267761Y424435D01*
X269722Y423623D01*
X271223Y422122D01*
X272035Y420161D01*
X272035Y418039D01*
X271223Y416078D01*
X269722Y414577D01*
X267761Y413765D01*
X265639Y413765D01*
G37*
%LPD*%
%LPC*%
G36*
X341839Y393445D02*
X341839Y393445D01*
X339878Y394257D01*
X338377Y395758D01*
X337565Y397719D01*
X337565Y399841D01*
X338377Y401802D01*
X339878Y403303D01*
X341839Y404115D01*
X343961Y404115D01*
X345922Y403303D01*
X347423Y401802D01*
X348235Y399841D01*
X348235Y397719D01*
X347423Y395758D01*
X345922Y394257D01*
X343961Y393445D01*
X341839Y393445D01*
G37*
%LPD*%
%LPC*%
G36*
X164039Y393445D02*
X164039Y393445D01*
X162078Y394257D01*
X160577Y395758D01*
X159765Y397719D01*
X159765Y399841D01*
X160577Y401802D01*
X162078Y403303D01*
X164039Y404115D01*
X166161Y404115D01*
X168122Y403303D01*
X169623Y401802D01*
X170435Y399841D01*
X170435Y397719D01*
X169623Y395758D01*
X168122Y394257D01*
X166161Y393445D01*
X164039Y393445D01*
G37*
%LPD*%
%LPC*%
G36*
X291039Y392175D02*
X291039Y392175D01*
X289078Y392987D01*
X287577Y394488D01*
X286765Y396449D01*
X286765Y398571D01*
X287577Y400532D01*
X289078Y402033D01*
X291039Y402845D01*
X293161Y402845D01*
X295122Y402033D01*
X296623Y400532D01*
X297435Y398571D01*
X297435Y396449D01*
X296623Y394488D01*
X295122Y392987D01*
X293161Y392175D01*
X291039Y392175D01*
G37*
%LPD*%
%LPC*%
G36*
X227539Y390905D02*
X227539Y390905D01*
X225578Y391717D01*
X224077Y393218D01*
X223265Y395179D01*
X223265Y397301D01*
X224077Y399262D01*
X225578Y400763D01*
X227539Y401575D01*
X229661Y401575D01*
X231622Y400763D01*
X233123Y399262D01*
X233935Y397301D01*
X233935Y395179D01*
X233123Y393218D01*
X231622Y391717D01*
X229661Y390905D01*
X227539Y390905D01*
G37*
%LPD*%
%LPC*%
G36*
X219919Y369315D02*
X219919Y369315D01*
X217958Y370127D01*
X216457Y371628D01*
X215645Y373589D01*
X215645Y375711D01*
X216457Y377672D01*
X217958Y379173D01*
X219919Y379985D01*
X222041Y379985D01*
X224002Y379173D01*
X225503Y377672D01*
X226315Y375711D01*
X226315Y373589D01*
X225503Y371628D01*
X224002Y370127D01*
X222041Y369315D01*
X219919Y369315D01*
G37*
%LPD*%
%LPC*%
G36*
X175469Y369315D02*
X175469Y369315D01*
X173508Y370127D01*
X172007Y371628D01*
X171195Y373589D01*
X171195Y375711D01*
X172007Y377672D01*
X173508Y379173D01*
X175469Y379985D01*
X177591Y379985D01*
X179552Y379173D01*
X181053Y377672D01*
X181865Y375711D01*
X181865Y373589D01*
X181053Y371628D01*
X179552Y370127D01*
X177591Y369315D01*
X175469Y369315D01*
G37*
%LPD*%
%LPC*%
G36*
X157689Y350265D02*
X157689Y350265D01*
X155728Y351077D01*
X154227Y352578D01*
X153415Y354539D01*
X153415Y356661D01*
X154227Y358622D01*
X155728Y360123D01*
X157689Y360935D01*
X159811Y360935D01*
X161772Y360123D01*
X163273Y358622D01*
X164085Y356661D01*
X164085Y354539D01*
X163273Y352578D01*
X161772Y351077D01*
X159811Y350265D01*
X157689Y350265D01*
G37*
%LPD*%
%LPC*%
G36*
X199599Y394715D02*
X199599Y394715D01*
X197638Y395527D01*
X196137Y397028D01*
X195325Y398989D01*
X195325Y401111D01*
X196137Y403072D01*
X197638Y404573D01*
X199599Y405385D01*
X201721Y405385D01*
X203682Y404573D01*
X205183Y403072D01*
X205995Y401111D01*
X205995Y398989D01*
X205183Y397028D01*
X203682Y395527D01*
X201721Y394715D01*
X199599Y394715D01*
G37*
%LPD*%
%LPC*%
G36*
X186899Y323595D02*
X186899Y323595D01*
X184938Y324407D01*
X183437Y325908D01*
X182625Y327869D01*
X182625Y329991D01*
X183437Y331952D01*
X184938Y333453D01*
X186899Y334265D01*
X189021Y334265D01*
X190982Y333453D01*
X192483Y331952D01*
X193295Y329991D01*
X193295Y327869D01*
X192483Y325908D01*
X190982Y324407D01*
X189021Y323595D01*
X186899Y323595D01*
G37*
%LPD*%
%LPC*%
G36*
X157689Y323595D02*
X157689Y323595D01*
X155728Y324407D01*
X154227Y325908D01*
X153415Y327869D01*
X153415Y329991D01*
X154227Y331952D01*
X155728Y333453D01*
X157689Y334265D01*
X159811Y334265D01*
X161772Y333453D01*
X163273Y331952D01*
X164085Y329991D01*
X164085Y327869D01*
X163273Y325908D01*
X161772Y324407D01*
X159811Y323595D01*
X157689Y323595D01*
G37*
%LPD*%
%LPC*%
G36*
X186899Y299465D02*
X186899Y299465D01*
X184938Y300277D01*
X183437Y301778D01*
X182625Y303739D01*
X182625Y305861D01*
X183437Y307822D01*
X184938Y309323D01*
X186899Y310135D01*
X189021Y310135D01*
X190982Y309323D01*
X192483Y307822D01*
X193295Y305861D01*
X193295Y303739D01*
X192483Y301778D01*
X190982Y300277D01*
X189021Y299465D01*
X186899Y299465D01*
G37*
%LPD*%
%LPC*%
G36*
X157689Y299465D02*
X157689Y299465D01*
X155728Y300277D01*
X154227Y301778D01*
X153415Y303739D01*
X153415Y305861D01*
X154227Y307822D01*
X155728Y309323D01*
X157689Y310135D01*
X159811Y310135D01*
X161772Y309323D01*
X163273Y307822D01*
X164085Y305861D01*
X164085Y303739D01*
X163273Y301778D01*
X161772Y300277D01*
X159811Y299465D01*
X157689Y299465D01*
G37*
%LPD*%
%LPC*%
G36*
X341839Y286765D02*
X341839Y286765D01*
X339878Y287577D01*
X338377Y289078D01*
X337565Y291039D01*
X337565Y293161D01*
X338377Y295122D01*
X339878Y296623D01*
X341839Y297435D01*
X343961Y297435D01*
X345922Y296623D01*
X347423Y295122D01*
X348235Y293161D01*
X348235Y291039D01*
X347423Y289078D01*
X345922Y287577D01*
X343961Y286765D01*
X341839Y286765D01*
G37*
%LPD*%
%LPC*%
G36*
X186899Y274065D02*
X186899Y274065D01*
X184938Y274877D01*
X183437Y276378D01*
X182625Y278339D01*
X182625Y280461D01*
X183437Y282422D01*
X184938Y283923D01*
X186899Y284735D01*
X189021Y284735D01*
X190982Y283923D01*
X192483Y282422D01*
X193295Y280461D01*
X193295Y278339D01*
X192483Y276378D01*
X190982Y274877D01*
X189021Y274065D01*
X186899Y274065D01*
G37*
%LPD*%
%LPC*%
G36*
X157689Y274065D02*
X157689Y274065D01*
X155728Y274877D01*
X154227Y276378D01*
X153415Y278339D01*
X153415Y280461D01*
X154227Y282422D01*
X155728Y283923D01*
X157689Y284735D01*
X159811Y284735D01*
X161772Y283923D01*
X163273Y282422D01*
X164085Y280461D01*
X164085Y278339D01*
X163273Y276378D01*
X161772Y274877D01*
X159811Y274065D01*
X157689Y274065D01*
G37*
%LPD*%
%LPC*%
G36*
X184359Y246125D02*
X184359Y246125D01*
X182398Y246937D01*
X180897Y248438D01*
X180085Y250399D01*
X180085Y252521D01*
X180897Y254482D01*
X182398Y255983D01*
X184359Y256795D01*
X186481Y256795D01*
X188442Y255983D01*
X189943Y254482D01*
X190755Y252521D01*
X190755Y250399D01*
X189943Y248438D01*
X188442Y246937D01*
X186481Y246125D01*
X184359Y246125D01*
G37*
%LPD*%
%LPC*%
G36*
X157689Y246125D02*
X157689Y246125D01*
X155728Y246937D01*
X154227Y248438D01*
X153415Y250399D01*
X153415Y252521D01*
X154227Y254482D01*
X155728Y255983D01*
X157689Y256795D01*
X159811Y256795D01*
X161772Y255983D01*
X163273Y254482D01*
X164085Y252521D01*
X164085Y250399D01*
X163273Y248438D01*
X161772Y246937D01*
X159811Y246125D01*
X157689Y246125D01*
G37*
%LPD*%
%LPC*%
G36*
X252939Y242315D02*
X252939Y242315D01*
X250978Y243127D01*
X249477Y244628D01*
X248665Y246589D01*
X248665Y248711D01*
X249477Y250672D01*
X250978Y252173D01*
X252939Y252985D01*
X255061Y252985D01*
X257022Y252173D01*
X258523Y250672D01*
X259335Y248711D01*
X259335Y246589D01*
X258523Y244628D01*
X257022Y243127D01*
X255061Y242315D01*
X252939Y242315D01*
G37*
%LPD*%
%LPC*%
G36*
X184359Y227075D02*
X184359Y227075D01*
X182398Y227887D01*
X180897Y229388D01*
X180085Y231349D01*
X180085Y233471D01*
X180897Y235432D01*
X182398Y236933D01*
X184359Y237745D01*
X186481Y237745D01*
X188442Y236933D01*
X189943Y235432D01*
X190755Y233471D01*
X190755Y231349D01*
X189943Y229388D01*
X188442Y227887D01*
X186481Y227075D01*
X184359Y227075D01*
G37*
%LPD*%
%LPC*%
G36*
X14179Y223265D02*
X14179Y223265D01*
X12218Y224077D01*
X10717Y225578D01*
X9905Y227539D01*
X9905Y229661D01*
X10717Y231622D01*
X12218Y233123D01*
X14179Y233935D01*
X16301Y233935D01*
X18262Y233123D01*
X19763Y231622D01*
X20575Y229661D01*
X20575Y227539D01*
X19763Y225578D01*
X18262Y224077D01*
X16301Y223265D01*
X14179Y223265D01*
G37*
%LPD*%
%LPC*%
G36*
X341839Y210565D02*
X341839Y210565D01*
X339878Y211377D01*
X338377Y212878D01*
X337565Y214839D01*
X337565Y216961D01*
X338377Y218922D01*
X339878Y220423D01*
X341839Y221235D01*
X343961Y221235D01*
X345922Y220423D01*
X347423Y218922D01*
X348235Y216961D01*
X348235Y214839D01*
X347423Y212878D01*
X345922Y211377D01*
X343961Y210565D01*
X341839Y210565D01*
G37*
%LPD*%
%LPC*%
G36*
X184359Y208025D02*
X184359Y208025D01*
X182398Y208837D01*
X180897Y210338D01*
X180085Y212299D01*
X180085Y214421D01*
X180897Y216382D01*
X182398Y217883D01*
X184359Y218695D01*
X186481Y218695D01*
X188442Y217883D01*
X189943Y216382D01*
X190755Y214421D01*
X190755Y212299D01*
X189943Y210338D01*
X188442Y208837D01*
X186481Y208025D01*
X184359Y208025D01*
G37*
%LPD*%
%LPC*%
G36*
X189439Y191515D02*
X189439Y191515D01*
X187478Y192327D01*
X185977Y193828D01*
X185165Y195789D01*
X185165Y197911D01*
X185977Y199872D01*
X187478Y201373D01*
X189439Y202185D01*
X191561Y202185D01*
X193522Y201373D01*
X195023Y199872D01*
X195835Y197911D01*
X195835Y195789D01*
X195023Y193828D01*
X193522Y192327D01*
X191561Y191515D01*
X189439Y191515D01*
G37*
%LPD*%
%LPC*%
G36*
X14179Y444245D02*
X14179Y444245D01*
X12218Y445057D01*
X10717Y446558D01*
X9905Y448519D01*
X9905Y450641D01*
X10717Y452602D01*
X12218Y454103D01*
X14179Y454915D01*
X16301Y454915D01*
X18262Y454103D01*
X19763Y452602D01*
X20575Y450641D01*
X20575Y448519D01*
X19763Y446558D01*
X18262Y445057D01*
X16301Y444245D01*
X14179Y444245D01*
G37*
%LPD*%
%LPC*%
G36*
X230079Y520445D02*
X230079Y520445D01*
X228118Y521257D01*
X226617Y522758D01*
X225805Y524719D01*
X225805Y526841D01*
X226617Y528802D01*
X228118Y530303D01*
X230079Y531115D01*
X232201Y531115D01*
X234162Y530303D01*
X235663Y528802D01*
X236475Y526841D01*
X236475Y524719D01*
X235663Y522758D01*
X234162Y521257D01*
X232201Y520445D01*
X230079Y520445D01*
G37*
%LPD*%
%LPC*%
G36*
X341839Y520445D02*
X341839Y520445D01*
X339878Y521257D01*
X338377Y522758D01*
X337565Y524719D01*
X337565Y526841D01*
X338377Y528802D01*
X339878Y530303D01*
X341839Y531115D01*
X343961Y531115D01*
X345922Y530303D01*
X347423Y528802D01*
X348235Y526841D01*
X348235Y524719D01*
X347423Y522758D01*
X345922Y521257D01*
X343961Y520445D01*
X341839Y520445D01*
G37*
%LPD*%
%LPC*%
G36*
X341839Y157225D02*
X341839Y157225D01*
X339878Y158037D01*
X338377Y159538D01*
X337565Y161499D01*
X337565Y163621D01*
X338377Y165582D01*
X339878Y167083D01*
X341839Y167895D01*
X343961Y167895D01*
X345922Y167083D01*
X347423Y165582D01*
X348235Y163621D01*
X348235Y161499D01*
X347423Y159538D01*
X345922Y158037D01*
X343961Y157225D01*
X341839Y157225D01*
G37*
%LPD*%
%LPC*%
G36*
X280879Y454405D02*
X280879Y454405D01*
X278918Y455217D01*
X277417Y456718D01*
X276605Y458679D01*
X276605Y460801D01*
X277417Y462762D01*
X278918Y464263D01*
X280879Y465075D01*
X283001Y465075D01*
X284962Y464263D01*
X286463Y462762D01*
X287275Y460801D01*
X287275Y458679D01*
X286463Y456718D01*
X284962Y455217D01*
X283001Y454405D01*
X280879Y454405D01*
G37*
%LPD*%
%LPC*%
G36*
X14179Y103885D02*
X14179Y103885D01*
X12218Y104697D01*
X10717Y106198D01*
X9905Y108159D01*
X9905Y110281D01*
X10717Y112242D01*
X12218Y113743D01*
X14179Y114555D01*
X16301Y114555D01*
X18262Y113743D01*
X19763Y112242D01*
X20575Y110281D01*
X20575Y108159D01*
X19763Y106198D01*
X18262Y104697D01*
X16301Y103885D01*
X14179Y103885D01*
G37*
%LPD*%
%LPC*%
G36*
X341839Y101345D02*
X341839Y101345D01*
X339878Y102157D01*
X338377Y103658D01*
X337565Y105619D01*
X337565Y107741D01*
X338377Y109702D01*
X339878Y111203D01*
X341839Y112015D01*
X343961Y112015D01*
X345922Y111203D01*
X347423Y109702D01*
X348235Y107741D01*
X348235Y105619D01*
X347423Y103658D01*
X345922Y102157D01*
X343961Y101345D01*
X341839Y101345D01*
G37*
%LPD*%
%LPC*%
G36*
X169119Y101345D02*
X169119Y101345D01*
X167158Y102157D01*
X165657Y103658D01*
X164845Y105619D01*
X164845Y107741D01*
X165657Y109702D01*
X167158Y111203D01*
X169119Y112015D01*
X171241Y112015D01*
X173202Y111203D01*
X174703Y109702D01*
X175515Y107741D01*
X175515Y105619D01*
X174703Y103658D01*
X173202Y102157D01*
X171241Y101345D01*
X169119Y101345D01*
G37*
%LPD*%
%LPC*%
G36*
X202139Y430275D02*
X202139Y430275D01*
X200178Y431087D01*
X198677Y432588D01*
X197865Y434549D01*
X197865Y436671D01*
X198677Y438632D01*
X200178Y440133D01*
X202139Y440945D01*
X204261Y440945D01*
X206222Y440133D01*
X207723Y438632D01*
X208535Y436671D01*
X208535Y434549D01*
X207723Y432588D01*
X206222Y431087D01*
X204261Y430275D01*
X202139Y430275D01*
G37*
%LPD*%
%LPC*%
G36*
X176739Y430275D02*
X176739Y430275D01*
X174778Y431087D01*
X173277Y432588D01*
X172465Y434549D01*
X172465Y436671D01*
X173277Y438632D01*
X174778Y440133D01*
X176739Y440945D01*
X178861Y440945D01*
X180822Y440133D01*
X182323Y438632D01*
X183135Y436671D01*
X183135Y434549D01*
X182323Y432588D01*
X180822Y431087D01*
X178861Y430275D01*
X176739Y430275D01*
G37*
%LPD*%
%LPC*%
G36*
X252939Y430275D02*
X252939Y430275D01*
X250978Y431087D01*
X249477Y432588D01*
X248665Y434549D01*
X248665Y436671D01*
X249477Y438632D01*
X250978Y440133D01*
X252939Y440945D01*
X255061Y440945D01*
X257022Y440133D01*
X258523Y438632D01*
X259335Y436671D01*
X259335Y434549D01*
X258523Y432588D01*
X257022Y431087D01*
X255061Y430275D01*
X252939Y430275D01*
G37*
%LPD*%
%LPC*%
G36*
X227539Y430275D02*
X227539Y430275D01*
X225578Y431087D01*
X224077Y432588D01*
X223265Y434549D01*
X223265Y436671D01*
X224077Y438632D01*
X225578Y440133D01*
X227539Y440945D01*
X229661Y440945D01*
X231622Y440133D01*
X233123Y438632D01*
X233935Y436671D01*
X233935Y434549D01*
X233123Y432588D01*
X231622Y431087D01*
X229661Y430275D01*
X227539Y430275D01*
G37*
%LPD*%
%LPC*%
G36*
X184469Y52549D02*
X184469Y52549D01*
X184469Y59201D01*
X185223Y59051D01*
X186784Y58404D01*
X188190Y57465D01*
X189385Y56270D01*
X190324Y54864D01*
X190971Y53303D01*
X191121Y52549D01*
X184469Y52549D01*
G37*
%LPD*%
%LPC*%
G36*
X181929Y585949D02*
X181929Y585949D01*
X181929Y592601D01*
X182683Y592451D01*
X184244Y591804D01*
X185650Y590865D01*
X186845Y589670D01*
X187784Y588264D01*
X188431Y586703D01*
X188581Y585949D01*
X181929Y585949D01*
G37*
%LPD*%
%LPC*%
G36*
X181929Y582451D02*
X181929Y582451D01*
X188581Y582451D01*
X188431Y581697D01*
X187784Y580136D01*
X186845Y578730D01*
X185650Y577535D01*
X184244Y576596D01*
X182683Y575949D01*
X181929Y575799D01*
X181929Y582451D01*
G37*
%LPD*%
%LPC*%
G36*
X171779Y585949D02*
X171779Y585949D01*
X171929Y586703D01*
X172576Y588264D01*
X173515Y589670D01*
X174710Y590865D01*
X176116Y591804D01*
X177677Y592451D01*
X178431Y592601D01*
X178431Y585949D01*
X171779Y585949D01*
G37*
%LPD*%
%LPC*%
G36*
X174319Y52549D02*
X174319Y52549D01*
X174469Y53303D01*
X175116Y54864D01*
X176055Y56270D01*
X177250Y57465D01*
X178656Y58404D01*
X180217Y59051D01*
X180971Y59201D01*
X180971Y52549D01*
X174319Y52549D01*
G37*
%LPD*%
%LPC*%
G36*
X184469Y49051D02*
X184469Y49051D01*
X191121Y49051D01*
X190971Y48297D01*
X190324Y46736D01*
X189385Y45330D01*
X188190Y44135D01*
X186784Y43196D01*
X185223Y42549D01*
X184469Y42399D01*
X184469Y49051D01*
G37*
%LPD*%
%LPC*%
G36*
X177677Y575949D02*
X177677Y575949D01*
X176116Y576596D01*
X174710Y577535D01*
X173515Y578730D01*
X172576Y580136D01*
X171929Y581697D01*
X171779Y582451D01*
X178431Y582451D01*
X178431Y575799D01*
X177677Y575949D01*
G37*
%LPD*%
%LPC*%
G36*
X180217Y42549D02*
X180217Y42549D01*
X178656Y43196D01*
X177250Y44135D01*
X176055Y45330D01*
X175116Y46736D01*
X174469Y48297D01*
X174319Y49051D01*
X180971Y49051D01*
X180971Y42399D01*
X180217Y42549D01*
G37*
%LPD*%
D10*
X139700Y155500D03*
X139700Y225500D03*
X114950Y165750D03*
X114950Y215250D03*
X164450Y165750D03*
X164450Y215250D03*
D11*
X67358Y231730D03*
D10*
X104700Y190500D03*
X146700Y190500D03*
X139700Y409500D03*
X139700Y479500D03*
X114950Y419750D03*
X114950Y469250D03*
X164450Y419750D03*
X164450Y469250D03*
D11*
X72438Y480650D03*
D10*
X104700Y444500D03*
X146700Y444500D03*
D12*
X202720Y50800D03*
X182720Y50800D03*
X162720Y50800D03*
X142720Y50800D03*
X200180Y584200D03*
X180180Y584200D03*
X160180Y584200D03*
X140180Y584200D03*
D13*
X165100Y495300D03*
X279400Y304800D03*
X342900Y457200D03*
X190500Y495300D03*
X215900Y495300D03*
X241300Y495300D03*
X254000Y482600D03*
X254000Y459740D03*
X330200Y304800D03*
X330200Y127000D03*
X330200Y152400D03*
X330200Y203200D03*
X330200Y177800D03*
X330200Y228600D03*
X304800Y127000D03*
X304800Y152400D03*
X304800Y203200D03*
X304800Y177800D03*
X292100Y241300D03*
X304800Y228600D03*
X259080Y210820D03*
X279400Y193040D03*
X241300Y193040D03*
X241300Y147320D03*
X260350Y171450D03*
X260350Y127000D03*
X279400Y146050D03*
X292100Y317500D03*
X279400Y330200D03*
X292100Y292100D03*
X279400Y279400D03*
X292100Y266700D03*
X279400Y254000D03*
X330200Y330200D03*
X15240Y15240D03*
X15240Y78740D03*
X106680Y15240D03*
X342900Y15240D03*
X342900Y78740D03*
X243840Y15240D03*
X342900Y619760D03*
X104140Y553720D03*
X342900Y553720D03*
X330200Y279400D03*
X330200Y254000D03*
X342900Y353060D03*
X213360Y106680D03*
X132080Y106680D03*
X160020Y525780D03*
X281940Y525780D03*
X243840Y619760D03*
X15240Y619760D03*
X106680Y78740D03*
X243840Y78740D03*
X15240Y172720D03*
X15240Y525780D03*
X15240Y553720D03*
X104140Y619760D03*
X246380Y553720D03*
X81280Y167640D03*
X254000Y435610D03*
X228600Y435610D03*
X203200Y435610D03*
X185420Y232410D03*
X165100Y398780D03*
X176530Y374650D03*
X228600Y396240D03*
X177800Y435610D03*
X266700Y419100D03*
X200660Y400050D03*
X220980Y374650D03*
X200660Y349250D03*
X158750Y251460D03*
X158750Y279400D03*
X158750Y304800D03*
X158750Y328930D03*
X158750Y355600D03*
X187960Y279400D03*
X185420Y251460D03*
X187960Y304800D03*
X187960Y328930D03*
X185420Y213360D03*
X63500Y457200D03*
X76200Y457200D03*
X76200Y434340D03*
X63500Y434340D03*
X63500Y406400D03*
X63500Y381000D03*
X63500Y355600D03*
X63500Y330200D03*
X76200Y510540D03*
X63500Y304800D03*
X63500Y203200D03*
X63500Y279400D03*
X76200Y203200D03*
X63500Y254000D03*
X63500Y215900D03*
X83820Y236220D03*
X76200Y215900D03*
X205740Y320040D03*
X96520Y330200D03*
X96520Y304800D03*
X96520Y279400D03*
X96520Y254000D03*
X96520Y355600D03*
X96520Y381000D03*
X205740Y294640D03*
X205740Y269240D03*
X205740Y243840D03*
X292100Y397510D03*
X292100Y372110D03*
X241300Y368300D03*
X241300Y353060D03*
X205740Y215900D03*
X215900Y330200D03*
X215900Y304800D03*
X215900Y279400D03*
X215900Y254000D03*
X228600Y234950D03*
X254000Y247650D03*
X15240Y449580D03*
X15240Y109220D03*
X15240Y228600D03*
X231140Y525780D03*
X342900Y525780D03*
X342900Y398780D03*
X281940Y459740D03*
X342900Y106680D03*
X342900Y292100D03*
X342900Y215900D03*
X342900Y162560D03*
X170180Y106680D03*
X190500Y196850D03*
X42672Y347980D03*
X217170Y175260D03*
D14*
X120657Y533908D02*
X59697Y533908D01*
X35052Y509263D01*
X35052Y374643D01*
X22352Y361943D01*
X22352Y336557D01*
X35052Y323857D01*
X35052Y151137D01*
X93987Y92202D01*
X132087Y92202D01*
X149352Y74937D01*
X149352Y57432D01*
X142720Y50800D01*
X146812Y577568D02*
X140180Y584200D01*
X146812Y577568D02*
X146812Y560063D01*
X120657Y533908D01*
D13*
X50800Y338582D03*
X217170Y164465D03*
D14*
X123183Y527812D02*
X62223Y527812D01*
X41148Y506737D01*
X41148Y372117D01*
X28448Y359417D01*
X28448Y339083D01*
X41148Y326383D01*
X41148Y153663D01*
X96513Y98298D01*
X134613Y98298D01*
X155448Y77463D01*
X152908Y557537D02*
X152908Y576928D01*
X160180Y584200D01*
X152908Y557537D02*
X123183Y527812D01*
X155448Y77463D02*
X155448Y58072D01*
X162720Y50800D01*
M02*
