<?xml version="1.0" encoding="utf-8"?>
<!DOCTYPE eagle SYSTEM "eagle.dtd">
<eagle version="9.5.2">
<drawing>
<settings>
<setting alwaysvectorfont="no"/>
<setting verticaltext="up"/>
</settings>
<grid distance="20" unitdist="mil" unit="mil" style="lines" multiple="1" display="yes" altdistance="5" altunitdist="mil" altunit="mil"/>
<layers>
<layer number="1" name="Top" color="4" fill="1" visible="yes" active="yes"/>
<layer number="2" name="Route2" color="1" fill="3" visible="yes" active="yes"/>
<layer number="3" name="Route3" color="4" fill="3" visible="yes" active="yes"/>
<layer number="4" name="Route4" color="1" fill="4" visible="yes" active="yes"/>
<layer number="5" name="Route5" color="4" fill="4" visible="yes" active="yes"/>
<layer number="6" name="Route6" color="1" fill="8" visible="no" active="no"/>
<layer number="7" name="Route7" color="4" fill="8" visible="no" active="no"/>
<layer number="8" name="Route8" color="1" fill="2" visible="no" active="no"/>
<layer number="9" name="Route9" color="4" fill="2" visible="no" active="no"/>
<layer number="10" name="Route10" color="1" fill="7" visible="no" active="no"/>
<layer number="11" name="Route11" color="4" fill="7" visible="no" active="no"/>
<layer number="12" name="Route12" color="1" fill="5" visible="no" active="no"/>
<layer number="13" name="Route13" color="4" fill="5" visible="no" active="no"/>
<layer number="14" name="Route14" color="1" fill="6" visible="no" active="no"/>
<layer number="15" name="Route15" color="4" fill="6" visible="no" active="no"/>
<layer number="16" name="Bottom" color="1" fill="1" visible="yes" active="yes"/>
<layer number="17" name="Pads" color="2" fill="1" visible="yes" active="yes"/>
<layer number="18" name="Vias" color="2" fill="1" visible="yes" active="yes"/>
<layer number="19" name="Unrouted" color="6" fill="1" visible="yes" active="yes"/>
<layer number="20" name="Dimension" color="24" fill="1" visible="yes" active="yes"/>
<layer number="21" name="tPlace" color="7" fill="1" visible="yes" active="yes"/>
<layer number="22" name="bPlace" color="7" fill="1" visible="yes" active="yes"/>
<layer number="23" name="tOrigins" color="15" fill="1" visible="yes" active="yes"/>
<layer number="24" name="bOrigins" color="15" fill="1" visible="yes" active="yes"/>
<layer number="25" name="tNames" color="7" fill="1" visible="yes" active="yes"/>
<layer number="26" name="bNames" color="7" fill="1" visible="yes" active="yes"/>
<layer number="27" name="tValues" color="7" fill="1" visible="no" active="yes"/>
<layer number="28" name="bValues" color="7" fill="1" visible="no" active="yes"/>
<layer number="29" name="tStop" color="7" fill="3" visible="yes" active="yes"/>
<layer number="30" name="bStop" color="7" fill="6" visible="yes" active="yes"/>
<layer number="31" name="tCream" color="7" fill="4" visible="yes" active="yes"/>
<layer number="32" name="bCream" color="7" fill="5" visible="yes" active="yes"/>
<layer number="33" name="tFinish" color="6" fill="3" visible="yes" active="yes"/>
<layer number="34" name="bFinish" color="6" fill="6" visible="yes" active="yes"/>
<layer number="35" name="tGlue" color="7" fill="4" visible="yes" active="yes"/>
<layer number="36" name="bGlue" color="7" fill="5" visible="yes" active="yes"/>
<layer number="37" name="tTest" color="7" fill="1" visible="yes" active="yes"/>
<layer number="38" name="bTest" color="7" fill="1" visible="yes" active="yes"/>
<layer number="39" name="tKeepout" color="4" fill="11" visible="yes" active="yes"/>
<layer number="40" name="bKeepout" color="1" fill="11" visible="yes" active="yes"/>
<layer number="41" name="tRestrict" color="4" fill="10" visible="yes" active="yes"/>
<layer number="42" name="bRestrict" color="1" fill="10" visible="yes" active="yes"/>
<layer number="43" name="vRestrict" color="2" fill="10" visible="yes" active="yes"/>
<layer number="44" name="Drills" color="7" fill="1" visible="yes" active="yes"/>
<layer number="45" name="Holes" color="7" fill="1" visible="yes" active="yes"/>
<layer number="46" name="Milling" color="3" fill="1" visible="yes" active="yes"/>
<layer number="47" name="Measures" color="7" fill="1" visible="yes" active="yes"/>
<layer number="48" name="Document" color="7" fill="1" visible="yes" active="yes"/>
<layer number="49" name="Reference" color="7" fill="1" visible="yes" active="yes"/>
<layer number="50" name="dxf" color="7" fill="1" visible="no" active="no"/>
<layer number="51" name="tDocu" color="7" fill="1" visible="yes" active="yes"/>
<layer number="52" name="bDocu" color="7" fill="1" visible="yes" active="yes"/>
<layer number="53" name="tGND_GNDA" color="7" fill="9" visible="no" active="no"/>
<layer number="54" name="bGND_GNDA" color="1" fill="9" visible="no" active="no"/>
<layer number="56" name="wert" color="7" fill="1" visible="no" active="no"/>
<layer number="57" name="tCAD" color="7" fill="1" visible="no" active="no"/>
<layer number="58" name="b3Ddata" color="7" fill="1" visible="yes" active="yes"/>
<layer number="88" name="SimResults" color="9" fill="1" visible="no" active="no"/>
<layer number="89" name="SimProbes" color="9" fill="1" visible="no" active="no"/>
<layer number="90" name="Modules" color="5" fill="1" visible="no" active="no"/>
<layer number="91" name="Nets" color="2" fill="1" visible="no" active="no"/>
<layer number="92" name="Busses" color="1" fill="1" visible="no" active="no"/>
<layer number="93" name="Pins" color="2" fill="1" visible="no" active="no"/>
<layer number="94" name="Symbols" color="4" fill="1" visible="no" active="no"/>
<layer number="95" name="Names" color="7" fill="1" visible="no" active="no"/>
<layer number="96" name="Values" color="7" fill="1" visible="no" active="no"/>
<layer number="97" name="Info" color="7" fill="1" visible="no" active="no"/>
<layer number="98" name="Guide" color="6" fill="1" visible="no" active="no"/>
<layer number="99" name="SpiceOrder" color="5" fill="1" visible="no" active="no"/>
<layer number="100" name="Muster" color="7" fill="1" visible="no" active="no"/>
<layer number="101" name="Patch_Top" color="12" fill="4" visible="no" active="no"/>
<layer number="102" name="Vscore" color="7" fill="1" visible="no" active="no"/>
<layer number="103" name="tMap" color="7" fill="1" visible="no" active="no"/>
<layer number="104" name="Name" color="7" fill="1" visible="no" active="no"/>
<layer number="105" name="tPlate" color="7" fill="1" visible="no" active="no"/>
<layer number="106" name="bPlate" color="7" fill="1" visible="no" active="no"/>
<layer number="107" name="Crop" color="7" fill="1" visible="no" active="no"/>
<layer number="108" name="fp8" color="7" fill="1" visible="yes" active="yes"/>
<layer number="109" name="fp9" color="7" fill="1" visible="yes" active="yes"/>
<layer number="110" name="110" color="7" fill="1" visible="yes" active="yes"/>
<layer number="111" name="111" color="7" fill="1" visible="yes" active="yes"/>
<layer number="112" name="tSilk" color="7" fill="1" visible="yes" active="yes"/>
<layer number="113" name="IDFDebug" color="7" fill="1" visible="yes" active="yes"/>
<layer number="114" name="FRNTMAAT1" color="7" fill="1" visible="no" active="no"/>
<layer number="115" name="FRNTMAAT2" color="7" fill="1" visible="no" active="no"/>
<layer number="116" name="Patch_BOT" color="9" fill="4" visible="no" active="no"/>
<layer number="117" name="BACKMAAT1" color="7" fill="1" visible="no" active="no"/>
<layer number="118" name="Rect_Pads" color="7" fill="1" visible="yes" active="yes"/>
<layer number="119" name="KAP_TEKEN" color="7" fill="1" visible="no" active="no"/>
<layer number="120" name="KAP_MAAT1" color="7" fill="1" visible="no" active="no"/>
<layer number="121" name="_tsilk" color="7" fill="1" visible="no" active="no"/>
<layer number="122" name="_bsilk" color="7" fill="1" visible="no" active="no"/>
<layer number="123" name="tTestmark" color="7" fill="1" visible="yes" active="yes"/>
<layer number="124" name="bTestmark" color="7" fill="1" visible="yes" active="yes"/>
<layer number="125" name="_tNames" color="7" fill="1" visible="yes" active="yes"/>
<layer number="126" name="_bNames" color="7" fill="1" visible="yes" active="yes"/>
<layer number="127" name="_tValues" color="7" fill="1" visible="yes" active="yes"/>
<layer number="128" name="_bValues" color="7" fill="1" visible="yes" active="yes"/>
<layer number="129" name="top_silk" color="7" fill="1" visible="yes" active="yes"/>
<layer number="130" name="SMDSTROOK" color="7" fill="1" visible="no" active="no"/>
<layer number="131" name="tAdjust" color="7" fill="1" visible="yes" active="yes"/>
<layer number="132" name="bAdjust" color="7" fill="1" visible="yes" active="yes"/>
<layer number="133" name="bottom_silk" color="7" fill="1" visible="yes" active="yes"/>
<layer number="144" name="DrillLegend" color="7" fill="1" visible="no" active="no"/>
<layer number="145" name="DrillLegend_01-16" color="2" fill="9" visible="yes" active="yes"/>
<layer number="146" name="DrillLegend_01-20" color="3" fill="9" visible="yes" active="yes"/>
<layer number="150" name="Notes" color="7" fill="1" visible="yes" active="yes"/>
<layer number="151" name="HeatSink" color="14" fill="1" visible="no" active="no"/>
<layer number="152" name="_bDocu" color="7" fill="1" visible="yes" active="yes"/>
<layer number="153" name="FabDoc1" color="6" fill="1" visible="no" active="no"/>
<layer number="154" name="FabDoc2" color="2" fill="1" visible="no" active="no"/>
<layer number="155" name="FabDoc3" color="7" fill="15" visible="no" active="no"/>
<layer number="199" name="Contour" color="7" fill="1" visible="yes" active="yes"/>
<layer number="200" name="200bmp" color="1" fill="10" visible="no" active="no"/>
<layer number="201" name="201bmp" color="2" fill="1" visible="no" active="no"/>
<layer number="202" name="202bmp" color="3" fill="1" visible="no" active="no"/>
<layer number="203" name="203bmp" color="4" fill="10" visible="no" active="no"/>
<layer number="204" name="204bmp" color="5" fill="10" visible="no" active="no"/>
<layer number="205" name="205bmp" color="6" fill="10" visible="no" active="no"/>
<layer number="206" name="206bmp" color="7" fill="10" visible="no" active="no"/>
<layer number="207" name="207bmp" color="15" fill="10" visible="no" active="no"/>
<layer number="208" name="208bmp" color="9" fill="10" visible="no" active="no"/>
<layer number="209" name="209bmp" color="7" fill="1" visible="no" active="no"/>
<layer number="210" name="210bmp" color="7" fill="1" visible="no" active="no"/>
<layer number="211" name="211bmp" color="7" fill="1" visible="no" active="no"/>
<layer number="212" name="212bmp" color="7" fill="1" visible="no" active="no"/>
<layer number="213" name="213bmp" color="7" fill="1" visible="no" active="no"/>
<layer number="214" name="214bmp" color="7" fill="1" visible="no" active="no"/>
<layer number="215" name="215bmp" color="7" fill="1" visible="no" active="no"/>
<layer number="216" name="216bmp" color="7" fill="1" visible="no" active="no"/>
<layer number="217" name="217bmp" color="18" fill="1" visible="no" active="no"/>
<layer number="218" name="218bmp" color="19" fill="1" visible="no" active="no"/>
<layer number="219" name="219bmp" color="20" fill="1" visible="no" active="no"/>
<layer number="220" name="220bmp" color="21" fill="1" visible="no" active="no"/>
<layer number="221" name="221bmp" color="22" fill="1" visible="no" active="no"/>
<layer number="222" name="222bmp" color="23" fill="1" visible="no" active="no"/>
<layer number="223" name="223bmp" color="24" fill="1" visible="no" active="no"/>
<layer number="224" name="224bmp" color="25" fill="1" visible="no" active="no"/>
<layer number="225" name="225bmp" color="7" fill="1" visible="yes" active="yes"/>
<layer number="226" name="226bmp" color="7" fill="1" visible="yes" active="yes"/>
<layer number="227" name="227bmp" color="7" fill="1" visible="yes" active="yes"/>
<layer number="228" name="228bmp" color="7" fill="1" visible="yes" active="yes"/>
<layer number="229" name="229bmp" color="7" fill="1" visible="yes" active="yes"/>
<layer number="230" name="230bmp" color="7" fill="1" visible="yes" active="yes"/>
<layer number="231" name="Eagle3D_PG1" color="7" fill="1" visible="no" active="no"/>
<layer number="232" name="Eagle3D_PG2" color="7" fill="1" visible="no" active="no"/>
<layer number="233" name="Eagle3D_PG3" color="7" fill="1" visible="no" active="no"/>
<layer number="248" name="Housing" color="7" fill="1" visible="yes" active="yes"/>
<layer number="249" name="Edge" color="7" fill="1" visible="yes" active="yes"/>
<layer number="250" name="Descript" color="3" fill="1" visible="no" active="no"/>
<layer number="251" name="SMDround" color="12" fill="11" visible="no" active="no"/>
<layer number="254" name="OrgLBR" color="13" fill="1" visible="no" active="no"/>
<layer number="255" name="Accent" color="7" fill="1" visible="no" active="no"/>
</layers>
<board>
<fusionsync huburn="a.cGVyc29uYWw6dWUyZGY4NjIz" projecturn="a.cGVyc29uYWw6dWUyZGY4NjIzIzIwMTgwNjIyMTM3MzI2OTMx" f3durn="urn:adsk.wipprod:dm.lineage:ey0exIX-QKO7ultIxkmV9A" pcbguid="1847de7a-796c-4b5d-a73c-6b40b8a0cb72" lastpulledtime="" lastsyncedchangeguid="46c10b97-1024-fa7e-7b05-aef234aa932c"/>
<plain>
</plain>
<libraries>
<library name="JMA_LBR_v2" urn="urn:adsk.eagle:library:8413580">
<packages>
<package name="SOP50P310X90-8" urn="urn:adsk.eagle:footprint:3986205/1" library_version="44">
<description>8-SOP, 0.5 mm pitch, 3.1 mm span, 2 X 2.3 X 0.9 mm body
&lt;p&gt;8-pin SOP package with 0.5 mm pitch, 3.1 mm span with body size 2 X 2.3 X 0.9 mm&lt;/p&gt;</description>
<circle x="-1.704" y="1.3877" radius="0.25" width="0" layer="21"/>
<wire x1="-1.2" y1="1.1977" x2="1.2" y2="1.1977" width="0.12" layer="21"/>
<wire x1="-1.2" y1="-1.1977" x2="1.2" y2="-1.1977" width="0.12" layer="21"/>
<wire x1="1.2" y1="-1.05" x2="-1.2" y2="-1.05" width="0.12" layer="51"/>
<wire x1="-1.2" y1="-1.05" x2="-1.2" y2="1.05" width="0.12" layer="51"/>
<wire x1="-1.2" y1="1.05" x2="1.2" y2="1.05" width="0.12" layer="51"/>
<wire x1="1.2" y1="1.05" x2="1.2" y2="-1.05" width="0.12" layer="51"/>
<smd name="1" x="-1.5032" y="0.75" dx="0.9228" dy="0.2675" layer="1"/>
<smd name="2" x="-1.5032" y="0.25" dx="0.9228" dy="0.2675" layer="1"/>
<smd name="3" x="-1.5032" y="-0.25" dx="0.9228" dy="0.2675" layer="1"/>
<smd name="4" x="-1.5032" y="-0.75" dx="0.9228" dy="0.2675" layer="1"/>
<smd name="5" x="1.5032" y="-0.75" dx="0.9228" dy="0.2675" layer="1"/>
<smd name="6" x="1.5032" y="-0.25" dx="0.9228" dy="0.2675" layer="1"/>
<smd name="7" x="1.5032" y="0.25" dx="0.9228" dy="0.2675" layer="1"/>
<smd name="8" x="1.5032" y="0.75" dx="0.9228" dy="0.2675" layer="1"/>
<text x="0" y="2.2727" size="1.27" layer="25" align="bottom-center">&gt;NAME</text>
<text x="0" y="-1.8327" size="1.27" layer="27" align="top-center">&gt;VALUE</text>
</package>
<package name="RESC1005X40" urn="urn:adsk.eagle:footprint:3811164/1" library_version="44">
<description>CHIP, 1 X 0.5 X 0.4 mm body
&lt;p&gt;CHIP package with body size 1 X 0.5 X 0.4 mm&lt;/p&gt;</description>
<wire x1="0.525" y1="0.614" x2="-0.525" y2="0.614" width="0.12" layer="21"/>
<wire x1="0.525" y1="-0.614" x2="-0.525" y2="-0.614" width="0.12" layer="21"/>
<wire x1="0.525" y1="-0.275" x2="-0.525" y2="-0.275" width="0.12" layer="51"/>
<wire x1="-0.525" y1="-0.275" x2="-0.525" y2="0.275" width="0.12" layer="51"/>
<wire x1="-0.525" y1="0.275" x2="0.525" y2="0.275" width="0.12" layer="51"/>
<wire x1="0.525" y1="0.275" x2="0.525" y2="-0.275" width="0.12" layer="51"/>
<smd name="1" x="-0.475" y="0" dx="0.55" dy="0.6" layer="1"/>
<smd name="2" x="0.475" y="0" dx="0.55" dy="0.6" layer="1"/>
<text x="0" y="1.249" size="1.27" layer="25" align="bottom-center">&gt;NAME</text>
<text x="0" y="-1.249" size="1.27" layer="27" align="top-center">&gt;VALUE</text>
</package>
<package name="CAPC1608X55" urn="urn:adsk.eagle:footprint:3793129/2" library_version="44">
<description>CHIP, 1.6 X 0.8 X 0.55 mm body
&lt;p&gt;CHIP package with body size 1.6 X 0.8 X 0.55 mm&lt;/p&gt;</description>
<wire x1="0.85" y1="0.6516" x2="-0.85" y2="0.6516" width="0.12" layer="21"/>
<wire x1="0.85" y1="-0.6516" x2="-0.85" y2="-0.6516" width="0.12" layer="21"/>
<wire x1="0.85" y1="-0.45" x2="-0.85" y2="-0.45" width="0.12" layer="51"/>
<wire x1="-0.85" y1="-0.45" x2="-0.85" y2="0.45" width="0.12" layer="51"/>
<wire x1="-0.85" y1="0.45" x2="0.85" y2="0.45" width="0.12" layer="51"/>
<wire x1="0.85" y1="0.45" x2="0.85" y2="-0.45" width="0.12" layer="51"/>
<smd name="1" x="-0.7704" y="0" dx="0.8884" dy="0.9291" layer="1"/>
<smd name="2" x="0.7704" y="0" dx="0.8884" dy="0.9291" layer="1"/>
<text x="0" y="1.4136" size="1.27" layer="25" align="bottom-center">&gt;NAME</text>
<text x="0" y="-1.4136" size="1.27" layer="27" align="top-center">&gt;VALUE</text>
</package>
<package name="CAPC1005X60" urn="urn:adsk.eagle:footprint:3793110/1" library_version="44">
<description>CHIP, 1.025 X 0.525 X 0.6 mm body
&lt;p&gt;CHIP package with body size 1.025 X 0.525 X 0.6 mm&lt;/p&gt;</description>
<wire x1="0.55" y1="0.6325" x2="-0.55" y2="0.6325" width="0.12" layer="21"/>
<wire x1="0.55" y1="-0.6325" x2="-0.55" y2="-0.6325" width="0.12" layer="21"/>
<wire x1="0.55" y1="-0.3" x2="-0.55" y2="-0.3" width="0.12" layer="51"/>
<wire x1="-0.55" y1="-0.3" x2="-0.55" y2="0.3" width="0.12" layer="51"/>
<wire x1="-0.55" y1="0.3" x2="0.55" y2="0.3" width="0.12" layer="51"/>
<wire x1="0.55" y1="0.3" x2="0.55" y2="-0.3" width="0.12" layer="51"/>
<smd name="1" x="-0.4875" y="0" dx="0.5621" dy="0.6371" layer="1"/>
<smd name="2" x="0.4875" y="0" dx="0.5621" dy="0.6371" layer="1"/>
<text x="0" y="1.2675" size="1.27" layer="25" align="bottom-center">&gt;NAME</text>
<text x="0" y="-1.2675" size="1.27" layer="27" align="top-center">&gt;VALUE</text>
</package>
<package name="CIR_PAD_1MM" urn="urn:adsk.eagle:footprint:8413703/1" library_version="44">
<text x="-1.905" y="-1.27" size="1.27" layer="25" rot="R90">&gt;NAME</text>
<smd name="P$1" x="0" y="0" dx="1" dy="1" layer="1" roundness="100"/>
</package>
</packages>
<packages3d>
<package3d name="SOP50P310X90-8" urn="urn:adsk.eagle:package:3986204/1" type="model" library_version="44">
<description>8-SOP, 0.5 mm pitch, 3.1 mm span, 2 X 2.3 X 0.9 mm body
&lt;p&gt;8-pin SOP package with 0.5 mm pitch, 3.1 mm span with body size 2 X 2.3 X 0.9 mm&lt;/p&gt;</description>
<packageinstances>
<packageinstance name="SOP50P310X90-8"/>
</packageinstances>
</package3d>
<package3d name="RESC1005X40" urn="urn:adsk.eagle:package:3811154/1" type="model" library_version="44">
<description>CHIP, 1 X 0.5 X 0.4 mm body
&lt;p&gt;CHIP package with body size 1 X 0.5 X 0.4 mm&lt;/p&gt;</description>
<packageinstances>
<packageinstance name="RESC1005X40"/>
</packageinstances>
</package3d>
<package3d name="CAPC1608X55" urn="urn:adsk.eagle:package:3793126/2" type="model" library_version="44">
<description>CHIP, 1.6 X 0.8 X 0.55 mm body
&lt;p&gt;CHIP package with body size 1.6 X 0.8 X 0.55 mm&lt;/p&gt;</description>
<packageinstances>
<packageinstance name="CAPC1608X55"/>
</packageinstances>
</package3d>
<package3d name="CAPC1005X60" urn="urn:adsk.eagle:package:3793108/1" type="model" library_version="44">
<description>CHIP, 1.025 X 0.525 X 0.6 mm body
&lt;p&gt;CHIP package with body size 1.025 X 0.525 X 0.6 mm&lt;/p&gt;</description>
<packageinstances>
<packageinstance name="CAPC1005X60"/>
</packageinstances>
</package3d>
<package3d name="CIR_PAD_1MM" urn="urn:adsk.eagle:package:8414067/2" type="empty" library_version="44">
<packageinstances>
<packageinstance name="CIR_PAD_1MM"/>
</packageinstances>
</package3d>
</packages3d>
</library>
</libraries>
<attributes>
</attributes>
<variantdefs>
</variantdefs>
<classes>
<class number="0" name="default" width="0" drill="0">
</class>
</classes>
<designrules name="default *">
<description language="de">&lt;b&gt;EAGLE Design Rules&lt;/b&gt;
&lt;p&gt;
Die Standard-Design-Rules sind so gewählt, dass sie für 
die meisten Anwendungen passen. Sollte ihre Platine 
besondere Anforderungen haben, treffen Sie die erforderlichen
Einstellungen hier und speichern die Design Rules unter 
einem neuen Namen ab.</description>
<description language="en">&lt;b&gt;EAGLE Design Rules&lt;/b&gt;
&lt;p&gt;
The default Design Rules have been set to cover
a wide range of applications. Your particular design
may have different requirements, so please make the
necessary adjustments and save your customized
design rules under a new name.</description>
<param name="layerSetup" value="(1+2*3+4*5+16)"/>
<param name="mtCopper" value="0.035mm 0.035mm 0.035mm 0.035mm 0.035mm 0.035mm 0.035mm 0.035mm 0.035mm 0.035mm 0.035mm 0.035mm 0.035mm 0.035mm 0.035mm 0.035mm"/>
<param name="mtIsolate" value="15mil 15mil 15mil 15mil 15mil 0.15mm 0.2mm 0.15mm 0.2mm 0.15mm 0.2mm 0.15mm 0.2mm 0.15mm 0.2mm"/>
<param name="mdWireWire" value="8mil"/>
<param name="mdWirePad" value="6mil"/>
<param name="mdWireVia" value="6mil"/>
<param name="mdPadPad" value="6mil"/>
<param name="mdPadVia" value="6mil"/>
<param name="mdViaVia" value="6mil"/>
<param name="mdSmdPad" value="6mil"/>
<param name="mdSmdVia" value="6mil"/>
<param name="mdSmdSmd" value="6mil"/>
<param name="mdViaViaSameLayer" value="6mil"/>
<param name="mnLayersViaInSmd" value="2"/>
<param name="mdCopperDimension" value="20mil"/>
<param name="mdDrill" value="6mil"/>
<param name="mdSmdStop" value="0mil"/>
<param name="msWidth" value="6mil"/>
<param name="msDrill" value="10mil"/>
<param name="msMicroVia" value="9.99mm"/>
<param name="msBlindViaRatio" value="0.5"/>
<param name="rvPadTop" value="0.25"/>
<param name="rvPadInner" value="0.25"/>
<param name="rvPadBottom" value="0.25"/>
<param name="rvViaOuter" value="0.25"/>
<param name="rvViaInner" value="0.25"/>
<param name="rvMicroViaOuter" value="0.25"/>
<param name="rvMicroViaInner" value="0.25"/>
<param name="rlMinPadTop" value="10mil"/>
<param name="rlMaxPadTop" value="20mil"/>
<param name="rlMinPadInner" value="10mil"/>
<param name="rlMaxPadInner" value="20mil"/>
<param name="rlMinPadBottom" value="10mil"/>
<param name="rlMaxPadBottom" value="20mil"/>
<param name="rlMinViaOuter" value="8mil"/>
<param name="rlMaxViaOuter" value="20mil"/>
<param name="rlMinViaInner" value="8mil"/>
<param name="rlMaxViaInner" value="20mil"/>
<param name="rlMinMicroViaOuter" value="4mil"/>
<param name="rlMaxMicroViaOuter" value="20mil"/>
<param name="rlMinMicroViaInner" value="4mil"/>
<param name="rlMaxMicroViaInner" value="20mil"/>
<param name="psTop" value="-1"/>
<param name="psBottom" value="-1"/>
<param name="psFirst" value="-1"/>
<param name="psElongationLong" value="100"/>
<param name="psElongationOffset" value="100"/>
<param name="mvStopFrame" value="1"/>
<param name="mvCreamFrame" value="0"/>
<param name="mlMinStopFrame" value="4mil"/>
<param name="mlMaxStopFrame" value="4mil"/>
<param name="mlMinCreamFrame" value="0mil"/>
<param name="mlMaxCreamFrame" value="0mil"/>
<param name="mlViaStopLimit" value="10mil"/>
<param name="srRoundness" value="0.1"/>
<param name="srMinRoundness" value="0mil"/>
<param name="srMaxRoundness" value="0mil"/>
<param name="slThermalIsolate" value="8mil"/>
<param name="slThermalsForVias" value="0"/>
<param name="dpMaxLengthDifference" value="10mm"/>
<param name="dpGapFactor" value="2.5"/>
<param name="checkAngle" value="1"/>
<param name="checkFont" value="1"/>
<param name="checkRestrict" value="1"/>
<param name="checkStop" value="1"/>
<param name="checkValues" value="0"/>
<param name="checkNames" value="1"/>
<param name="checkWireStubs" value="1"/>
<param name="checkPolygonWidth" value="0"/>
<param name="useDiameter" value="13"/>
<param name="maxErrors" value="50"/>
</designrules>
<autorouter>
<pass name="Default">
<param name="RoutingGrid" value="50mil"/>
<param name="AutoGrid" value="1"/>
<param name="Efforts" value="0"/>
<param name="TopRouterVariant" value="1"/>
<param name="tpViaShape" value="round"/>
<param name="PrefDir.1" value="a"/>
<param name="PrefDir.2" value="0"/>
<param name="PrefDir.3" value="0"/>
<param name="PrefDir.4" value="0"/>
<param name="PrefDir.5" value="0"/>
<param name="PrefDir.6" value="0"/>
<param name="PrefDir.7" value="0"/>
<param name="PrefDir.8" value="0"/>
<param name="PrefDir.9" value="0"/>
<param name="PrefDir.10" value="0"/>
<param name="PrefDir.11" value="0"/>
<param name="PrefDir.12" value="0"/>
<param name="PrefDir.13" value="0"/>
<param name="PrefDir.14" value="0"/>
<param name="PrefDir.15" value="0"/>
<param name="PrefDir.16" value="a"/>
<param name="cfVia" value="8"/>
<param name="cfNonPref" value="5"/>
<param name="cfChangeDir" value="2"/>
<param name="cfOrthStep" value="2"/>
<param name="cfDiagStep" value="3"/>
<param name="cfExtdStep" value="0"/>
<param name="cfBonusStep" value="1"/>
<param name="cfMalusStep" value="1"/>
<param name="cfPadImpact" value="4"/>
<param name="cfSmdImpact" value="4"/>
<param name="cfBusImpact" value="0"/>
<param name="cfHugging" value="3"/>
<param name="cfAvoid" value="4"/>
<param name="cfPolygon" value="10"/>
<param name="cfBase.1" value="0"/>
<param name="cfBase.2" value="1"/>
<param name="cfBase.3" value="1"/>
<param name="cfBase.4" value="1"/>
<param name="cfBase.5" value="1"/>
<param name="cfBase.6" value="1"/>
<param name="cfBase.7" value="1"/>
<param name="cfBase.8" value="1"/>
<param name="cfBase.9" value="1"/>
<param name="cfBase.10" value="1"/>
<param name="cfBase.11" value="1"/>
<param name="cfBase.12" value="1"/>
<param name="cfBase.13" value="1"/>
<param name="cfBase.14" value="1"/>
<param name="cfBase.15" value="1"/>
<param name="cfBase.16" value="0"/>
<param name="mnVias" value="20"/>
<param name="mnSegments" value="9999"/>
<param name="mnExtdSteps" value="9999"/>
<param name="mnRipupLevel" value="10"/>
<param name="mnRipupSteps" value="100"/>
<param name="mnRipupTotal" value="100"/>
</pass>
<pass name="Follow-me" refer="Default" active="yes">
</pass>
<pass name="Busses" refer="Default" active="yes">
<param name="cfNonPref" value="4"/>
<param name="cfBusImpact" value="4"/>
<param name="cfHugging" value="0"/>
<param name="mnVias" value="0"/>
</pass>
<pass name="Route" refer="Default" active="yes">
</pass>
<pass name="Optimize1" refer="Default" active="yes">
<param name="cfVia" value="99"/>
<param name="cfExtdStep" value="10"/>
<param name="cfHugging" value="1"/>
<param name="mnExtdSteps" value="1"/>
<param name="mnRipupLevel" value="0"/>
</pass>
<pass name="Optimize2" refer="Optimize1" active="yes">
<param name="cfNonPref" value="0"/>
<param name="cfChangeDir" value="6"/>
<param name="cfExtdStep" value="0"/>
<param name="cfBonusStep" value="2"/>
<param name="cfMalusStep" value="2"/>
<param name="cfPadImpact" value="2"/>
<param name="cfSmdImpact" value="2"/>
<param name="cfHugging" value="0"/>
</pass>
<pass name="Optimize3" refer="Optimize2" active="yes">
<param name="cfChangeDir" value="8"/>
<param name="cfPadImpact" value="0"/>
<param name="cfSmdImpact" value="0"/>
</pass>
<pass name="Optimize4" refer="Optimize3" active="yes">
<param name="cfChangeDir" value="25"/>
</pass>
</autorouter>
<elements>
<element name="C28" library="JMA_LBR_v2" library_urn="urn:adsk.eagle:library:8413580" package="CAPC1005X60" package3d_urn="urn:adsk.eagle:package:3793108/1" value="0.1uF" x="1.143" y="4.318" smashed="yes">
<attribute name="NAME" x="1.397" y="6.858" size="0.8128" layer="25" font="vector" ratio="15" rot="R180"/>
<attribute name="VALUE" x="-0.381" y="5.715" size="0.8128" layer="27" font="vector" ratio="15" rot="R270"/>
</element>
<element name="C29" library="JMA_LBR_v2" library_urn="urn:adsk.eagle:library:8413580" package="CAPC1005X60" package3d_urn="urn:adsk.eagle:package:3793108/1" value="0.1uF" x="8.3566" y="5.2578" smashed="yes" rot="R90">
<attribute name="NAME" x="9.652" y="6.604" size="0.8128" layer="25" font="vector" ratio="15" rot="R90"/>
<attribute name="VALUE" x="6.9596" y="3.7338" size="0.8128" layer="27" font="vector" ratio="15"/>
</element>
<element name="C24" library="JMA_LBR_v2" library_urn="urn:adsk.eagle:library:8413580" package="CAPC1608X55" package3d_urn="urn:adsk.eagle:package:3793126/2" value="1uF" x="1.016" y="2.794" smashed="yes">
<attribute name="NAME" x="1.397" y="5.969" size="0.8128" layer="25" font="vector" ratio="15" rot="R180"/>
<attribute name="VALUE" x="-0.5715" y="4.064" size="0.8128" layer="27" font="vector" ratio="15" rot="R270"/>
</element>
<element name="C25" library="JMA_LBR_v2" library_urn="urn:adsk.eagle:library:8413580" package="CAPC1608X55" package3d_urn="urn:adsk.eagle:package:3793126/2" value="1uF" x="9.652" y="5.0038" smashed="yes" rot="R90">
<attribute name="NAME" x="10.668" y="6.604" size="0.8128" layer="25" font="vector" ratio="15" rot="R90"/>
<attribute name="VALUE" x="8.382" y="3.4163" size="0.8128" layer="27" font="vector" ratio="15"/>
</element>
<element name="R62" library="JMA_LBR_v2" library_urn="urn:adsk.eagle:library:8413580" package="RESC1005X40" package3d_urn="urn:adsk.eagle:package:3811154/1" value="DNP" x="2.032" y="8.128" smashed="yes" rot="R90">
<attribute name="NAME" x="3.556" y="7.62" size="0.8128" layer="25" font="vector" ratio="15" rot="R90"/>
<attribute name="VALUE" x="0.635" y="6.604" size="0.8128" layer="27" font="vector" ratio="15"/>
</element>
<element name="R52" library="JMA_LBR_v2" library_urn="urn:adsk.eagle:library:8413580" package="RESC1005X40" package3d_urn="urn:adsk.eagle:package:3811154/1" value="DNP" x="5.842" y="1.524" smashed="yes" rot="R270">
<attribute name="NAME" x="2.794" y="2.032" size="0.8128" layer="25" font="vector" ratio="15" rot="R270"/>
<attribute name="VALUE" x="7.239" y="3.048" size="0.8128" layer="27" font="vector" ratio="15" rot="R180"/>
</element>
<element name="R51" library="JMA_LBR_v2" library_urn="urn:adsk.eagle:library:8413580" package="RESC1005X40" package3d_urn="urn:adsk.eagle:package:3811154/1" value="DNP" x="4.318" y="1.524" smashed="yes" rot="R270">
<attribute name="NAME" x="1.778" y="2.032" size="0.8128" layer="25" font="vector" ratio="15" rot="R270"/>
<attribute name="VALUE" x="5.715" y="3.048" size="0.8128" layer="27" font="vector" ratio="15" rot="R180"/>
</element>
<element name="R59" library="JMA_LBR_v2" library_urn="urn:adsk.eagle:library:8413580" package="RESC1005X40" package3d_urn="urn:adsk.eagle:package:3811154/1" value="DNP" x="5.842" y="8.128" smashed="yes" rot="R90">
<attribute name="NAME" x="8.636" y="7.62" size="0.8128" layer="25" font="vector" ratio="15" rot="R90"/>
<attribute name="VALUE" x="4.445" y="6.604" size="0.8128" layer="27" font="vector" ratio="15"/>
</element>
<element name="R58" library="JMA_LBR_v2" library_urn="urn:adsk.eagle:library:8413580" package="RESC1005X40" package3d_urn="urn:adsk.eagle:package:3811154/1" value="DNP" x="4.318" y="8.128" smashed="yes" rot="R90">
<attribute name="NAME" x="7.62" y="7.62" size="0.8128" layer="25" font="vector" ratio="15" rot="R90"/>
<attribute name="VALUE" x="2.921" y="6.604" size="0.8128" layer="27" font="vector" ratio="15"/>
</element>
<element name="TP3" library="JMA_LBR_v2" library_urn="urn:adsk.eagle:library:8413580" package="CIR_PAD_1MM" package3d_urn="urn:adsk.eagle:package:8414067/2" value="" x="5.842" y="3.048" smashed="yes" rot="R270">
<attribute name="NAME" x="8.128" y="2.54" size="0.8128" layer="25" font="vector" ratio="15" rot="R270"/>
</element>
<element name="TP2" library="JMA_LBR_v2" library_urn="urn:adsk.eagle:library:8413580" package="CIR_PAD_1MM" package3d_urn="urn:adsk.eagle:package:8414067/2" value="" x="4.318" y="3.048" smashed="yes" rot="R270">
<attribute name="NAME" x="7.112" y="2.54" size="0.8128" layer="25" font="vector" ratio="15" rot="R270"/>
</element>
<element name="TP4" library="JMA_LBR_v2" library_urn="urn:adsk.eagle:library:8413580" package="CIR_PAD_1MM" package3d_urn="urn:adsk.eagle:package:8414067/2" value="" x="9.652" y="3.048" smashed="yes" rot="R270">
<attribute name="NAME" x="9.652" y="2.54" size="0.8128" layer="25" font="vector" ratio="15" rot="R270"/>
</element>
<element name="TP7" library="JMA_LBR_v2" library_urn="urn:adsk.eagle:library:8413580" package="CIR_PAD_1MM" package3d_urn="urn:adsk.eagle:package:8414067/2" value="" x="2.032" y="6.096" smashed="yes">
<attribute name="NAME" x="1.016" y="7.112" size="0.8128" layer="25" font="vector" ratio="15" rot="R90"/>
</element>
<element name="U6" library="JMA_LBR_v2" library_urn="urn:adsk.eagle:library:8413580" package="SOP50P310X90-8" package3d_urn="urn:adsk.eagle:package:3986204/1" value="TCA9406DCUR" x="5.08" y="5.461" smashed="yes" rot="R180">
<attribute name="NAME" x="7.112" y="3.048" size="0.8128" layer="21" font="vector" ratio="15"/>
<attribute name="VALUE" x="6.58" y="1.711" size="1.016" layer="27" font="vector" ratio="15" rot="R180"/>
</element>
</elements>
<signals>
<signal name="GND" airwireshidden="yes">
<contactref element="C28" pad="1"/>
<contactref element="C24" pad="1"/>
<contactref element="C29" pad="1"/>
<contactref element="C25" pad="1"/>
<contactref element="TP4" pad="P$1"/>
<contactref element="U6" pad="2"/>
<wire x1="9.652" y1="4.2334" x2="8.3566" y2="4.7703" width="0" layer="19" extent="1-1"/>
<wire x1="9.652" y1="3.048" x2="9.652" y2="4.2334" width="0" layer="19" extent="1-1"/>
<wire x1="6.5832" y1="5.211" x2="8.3566" y2="4.7703" width="0" layer="19" extent="1-1"/>
<wire x1="0.6555" y1="4.318" x2="6.5832" y2="5.211" width="0" layer="19" extent="1-1"/>
<wire x1="0.2456" y1="2.794" x2="0.6555" y2="4.318" width="0" layer="19" extent="1-1"/>
</signal>
<signal name="VCCA">
<contactref element="C29" pad="2"/>
<contactref element="C25" pad="2"/>
<contactref element="R58" pad="2"/>
<contactref element="R62" pad="2"/>
<contactref element="R59" pad="2"/>
<contactref element="U6" pad="3"/>
<polygon width="0.254" layer="1">
<vertex x="1.397" y="9.398"/>
<vertex x="1.397" y="8.5598"/>
<vertex x="7.62" y="8.5598"/>
<vertex x="7.62" y="5.715"/>
<vertex x="10.668" y="5.715"/>
<vertex x="10.668" y="9.398"/>
</polygon>
<wire x1="6.5832" y1="5.711" x2="8.3223" y2="5.711" width="0.254" layer="1"/>
<wire x1="8.3223" y1="5.711" x2="8.3566" y2="5.7453" width="0.254" layer="1"/>
</signal>
<signal name="N$8">
<contactref element="R62" pad="1"/>
<contactref element="TP7" pad="P$1"/>
<contactref element="U6" pad="6"/>
<wire x1="3.5768" y1="5.711" x2="2.544" y2="5.711" width="0.254" layer="1"/>
<wire x1="2.544" y1="5.711" x2="2.159" y2="6.096" width="0.254" layer="1"/>
<wire x1="2.159" y1="6.096" x2="2.032" y2="6.096" width="0.254" layer="1"/>
<wire x1="2.032" y1="6.096" x2="2.032" y2="7.653" width="0.254" layer="1"/>
</signal>
<signal name="SCL_A">
<contactref element="R58" pad="1"/>
<contactref element="U6" pad="5"/>
<wire x1="3.5768" y1="6.211" x2="3.5768" y2="6.9118" width="0.254" layer="1"/>
<wire x1="3.5768" y1="6.9118" x2="4.318" y2="7.653" width="0.254" layer="1"/>
</signal>
<signal name="SDA_A">
<contactref element="R59" pad="1"/>
<contactref element="U6" pad="4"/>
<wire x1="6.5832" y1="6.211" x2="6.5832" y2="6.9118" width="0.254" layer="1"/>
<wire x1="6.5832" y1="6.9118" x2="5.842" y2="7.653" width="0.254" layer="1"/>
</signal>
<signal name="SDA_B">
<contactref element="R52" pad="1"/>
<contactref element="TP3" pad="P$1"/>
<contactref element="U6" pad="1"/>
<wire x1="6.5832" y1="4.711" x2="6.5832" y2="3.7892" width="0.254" layer="1"/>
<wire x1="6.5832" y1="3.7892" x2="5.842" y2="3.048" width="0.254" layer="1"/>
<wire x1="5.842" y1="3.048" x2="5.842" y2="1.999" width="0.254" layer="1"/>
</signal>
<signal name="SCL_B">
<contactref element="R51" pad="1"/>
<contactref element="TP2" pad="P$1"/>
<contactref element="U6" pad="8"/>
<wire x1="3.5768" y1="4.711" x2="3.5768" y2="3.7892" width="0.254" layer="1"/>
<wire x1="3.5768" y1="3.7892" x2="4.318" y2="3.048" width="0.254" layer="1"/>
<wire x1="4.318" y1="3.048" x2="4.318" y2="1.999" width="0.254" layer="1"/>
</signal>
<signal name="VCCB">
<contactref element="C28" pad="2"/>
<contactref element="C24" pad="2"/>
<contactref element="R52" pad="2"/>
<contactref element="R51" pad="2"/>
<contactref element="U6" pad="7"/>
<polygon width="0.254" layer="1">
<vertex x="1.524" y="5.207"/>
<vertex x="2.667" y="5.207"/>
<vertex x="2.667" y="1.143"/>
<vertex x="6.604" y="1.143"/>
<vertex x="6.604" y="0.381"/>
<vertex x="1.524" y="0.381"/>
</polygon>
<wire x1="2.5235" y1="5.211" x2="3.5768" y2="5.211" width="0.254" layer="1"/>
<wire x1="1.6305" y1="4.318" x2="2.286" y2="4.318" width="0.254" layer="1"/>
<wire x1="2.286" y1="4.318" x2="2.54" y2="4.572" width="0.254" layer="1"/>
<wire x1="2.54" y1="4.572" x2="2.54" y2="5.1945" width="0.254" layer="1"/>
<wire x1="2.54" y1="5.1945" x2="2.5235" y2="5.211" width="0.254" layer="1"/>
</signal>
</signals>
<mfgpreviewcolors>
<mfgpreviewcolor name="soldermaskcolor" color="0xC8008000"/>
<mfgpreviewcolor name="silkscreencolor" color="0xFFFEFEFE"/>
<mfgpreviewcolor name="backgroundcolor" color="0xFF282828"/>
<mfgpreviewcolor name="coppercolor" color="0xFFFFBF00"/>
<mfgpreviewcolor name="substratecolor" color="0xFF786E46"/>
</mfgpreviewcolors>
</board>
</drawing>
<compatibility>
<note version="8.2" severity="warning">
Since Version 8.2, EAGLE supports online libraries. The ids
of those online libraries will not be understood (or retained)
with this version.
</note>
<note version="8.3" severity="warning">
Since Version 8.3, EAGLE supports Fusion synchronisation.
This feature will not be available in this version and saving
the document will break the link to the Fusion PCB feature.
</note>
<note version="8.3" severity="warning">
Since Version 8.3, EAGLE supports URNs for individual library
assets (packages, symbols, and devices). The URNs of those assets
will not be understood (or retained) with this version.
</note>
<note version="8.3" severity="warning">
Since Version 8.3, EAGLE supports the association of 3D packages
with devices in libraries, schematics, and board files. Those 3D
packages will not be understood (or retained) with this version.
</note>
</compatibility>
</eagle>
