G04 EAGLE Gerber RS-274X export*
G75*
%MOMM*%
%FSLAX34Y34*%
%LPD*%
%INSoldermask Bottom*%
%IPPOS*%
%AMOC8*
5,1,8,0,0,1.08239X$1,22.5*%
G01*
%ADD10C,4.013200*%
%ADD11R,0.762000X136.398000*%
%ADD12R,68.326000X0.762000*%
%ADD13R,69.850000X0.762000*%
%ADD14R,0.840300X0.765300*%
%ADD15R,1.132300X1.091600*%
%ADD16R,0.765300X0.840300*%
%ADD17R,0.803200X0.753200*%
%ADD18R,0.753200X1.703200*%
%ADD19R,0.483200X1.762000*%
%ADD20R,1.762000X0.483200*%
%ADD21R,1.359100X1.709100*%
%ADD22C,1.203200*%
%ADD23R,0.753200X0.803200*%
%ADD24R,0.802300X2.171700*%
%ADD25C,0.330503*%
%ADD26R,2.171700X0.802300*%
%ADD27R,1.091600X1.132300*%
%ADD28R,2.384000X3.323400*%
%ADD29C,1.411200*%
%ADD30C,1.303200*%
%ADD31R,4.815000X2.256000*%
%ADD32C,1.003200*%
%ADD33R,0.470700X1.126000*%
%ADD34C,1.778000*%
%ADD35C,0.990200*%
%ADD36C,1.194200*%


D10*
X615950Y1322070D03*
X82550Y1322070D03*
X615950Y49530D03*
X82550Y49530D03*
D11*
X3810Y681990D03*
D12*
X349250Y3810D03*
D11*
X694690Y681990D03*
D13*
X349250Y1367790D03*
D14*
X210566Y462739D03*
X210566Y472489D03*
D15*
X185166Y425153D03*
X185166Y409745D03*
D14*
X191770Y358443D03*
X191770Y348693D03*
D16*
X487221Y501396D03*
X477471Y501396D03*
X446581Y320294D03*
X436831Y320294D03*
D14*
X495681Y430579D03*
X495681Y420829D03*
D16*
X487221Y487426D03*
X477471Y487426D03*
X446581Y332994D03*
X436831Y332994D03*
D15*
X511556Y427058D03*
X511556Y411650D03*
D16*
X244299Y371094D03*
X254049Y371094D03*
X238809Y286766D03*
X229059Y286766D03*
D14*
X195326Y462739D03*
X195326Y472489D03*
X199136Y419149D03*
X199136Y409399D03*
D16*
X487221Y518414D03*
X477471Y518414D03*
X487221Y533654D03*
X477471Y533654D03*
D14*
X395732Y619809D03*
X395732Y610059D03*
X380746Y620063D03*
X380746Y610313D03*
D16*
X390701Y325374D03*
X380951Y325374D03*
X390701Y312674D03*
X380951Y312674D03*
D17*
X208026Y335966D03*
X208026Y326466D03*
X191770Y335966D03*
X191770Y326466D03*
X222504Y490144D03*
X222504Y480644D03*
D18*
X146564Y311404D03*
X179064Y311404D03*
D19*
X315666Y508837D03*
X320666Y508837D03*
X325666Y508837D03*
X330666Y508837D03*
X335666Y508837D03*
X340666Y508837D03*
X345666Y508837D03*
X350666Y508837D03*
X355666Y508837D03*
X360666Y508837D03*
X365666Y508837D03*
X370666Y508837D03*
X375666Y508837D03*
X380666Y508837D03*
X385666Y508837D03*
X390666Y508837D03*
X395666Y508837D03*
X400666Y508837D03*
X405666Y508837D03*
X410666Y508837D03*
X415666Y508837D03*
X420666Y508837D03*
X425666Y508837D03*
X430666Y508837D03*
X435666Y508837D03*
D20*
X452449Y492054D03*
X452449Y487054D03*
X452449Y482054D03*
X452449Y477054D03*
X452449Y472054D03*
X452449Y467054D03*
X452449Y462054D03*
X452449Y457054D03*
X452449Y452054D03*
X452449Y447054D03*
X452449Y442054D03*
X452449Y437054D03*
X452449Y432054D03*
X452449Y427054D03*
X452449Y422054D03*
X452449Y417054D03*
X452449Y412054D03*
X452449Y407054D03*
X452449Y402054D03*
X452449Y397054D03*
X452449Y392054D03*
X452449Y387054D03*
X452449Y382054D03*
X452449Y377054D03*
X452449Y372054D03*
D19*
X435666Y355271D03*
X430666Y355271D03*
X425666Y355271D03*
X420666Y355271D03*
X415666Y355271D03*
X410666Y355271D03*
X405666Y355271D03*
X400666Y355271D03*
X395666Y355271D03*
X390666Y355271D03*
X385666Y355271D03*
X380666Y355271D03*
X375666Y355271D03*
X370666Y355271D03*
X365666Y355271D03*
X360666Y355271D03*
X355666Y355271D03*
X350666Y355271D03*
X345666Y355271D03*
X340666Y355271D03*
X335666Y355271D03*
X330666Y355271D03*
X325666Y355271D03*
X320666Y355271D03*
X315666Y355271D03*
D20*
X298883Y372054D03*
X298883Y377054D03*
X298883Y382054D03*
X298883Y387054D03*
X298883Y392054D03*
X298883Y397054D03*
X298883Y402054D03*
X298883Y407054D03*
X298883Y412054D03*
X298883Y417054D03*
X298883Y422054D03*
X298883Y427054D03*
X298883Y432054D03*
X298883Y437054D03*
X298883Y442054D03*
X298883Y447054D03*
X298883Y452054D03*
X298883Y457054D03*
X298883Y462054D03*
X298883Y467054D03*
X298883Y472054D03*
X298883Y477054D03*
X298883Y482054D03*
X298883Y487054D03*
X298883Y492054D03*
D21*
X254084Y345154D03*
X254084Y305594D03*
X229024Y305594D03*
X229024Y345154D03*
D16*
X41861Y294386D03*
X51611Y294386D03*
D17*
X395986Y601904D03*
X395986Y592404D03*
D22*
X180086Y471678D03*
D14*
X275336Y331929D03*
X275336Y341679D03*
X288036Y331929D03*
X288036Y341679D03*
D22*
X171323Y409829D03*
X279146Y293624D03*
D14*
X482981Y430579D03*
X482981Y420829D03*
X210566Y419149D03*
X210566Y409399D03*
D17*
X223266Y500456D03*
X223266Y509956D03*
X46736Y447624D03*
X46736Y457124D03*
X208026Y348691D03*
X208026Y358191D03*
X243586Y569544D03*
X243586Y579044D03*
X256286Y569544D03*
X256286Y579044D03*
X357886Y572084D03*
X357886Y581584D03*
X383286Y572084D03*
X383286Y581584D03*
X230886Y579044D03*
X230886Y569544D03*
X268986Y579044D03*
X268986Y569544D03*
X345186Y581584D03*
X345186Y572084D03*
X370586Y581584D03*
X370586Y572084D03*
X333121Y569544D03*
X333121Y579044D03*
X317246Y569544D03*
X317246Y579044D03*
X301371Y569544D03*
X301371Y579044D03*
X230886Y536880D03*
X230886Y527380D03*
D23*
X192964Y543814D03*
X183464Y543814D03*
D17*
X192786Y569544D03*
X192786Y579044D03*
X205486Y569544D03*
X205486Y579044D03*
X218186Y527888D03*
X218186Y537388D03*
D23*
X183464Y528574D03*
X192964Y528574D03*
X183464Y558546D03*
X192964Y558546D03*
D17*
X218186Y579044D03*
X218186Y569544D03*
D24*
X531876Y494888D03*
X544576Y494888D03*
X557276Y494888D03*
X569976Y494888D03*
X569976Y445420D03*
X557276Y445420D03*
X544576Y445420D03*
X531876Y445420D03*
D17*
X531876Y518744D03*
X531876Y528244D03*
X544576Y518744D03*
X544576Y528244D03*
X544576Y424104D03*
X544576Y414604D03*
X557276Y424104D03*
X557276Y414604D03*
X569976Y424104D03*
X569976Y414604D03*
X557276Y518744D03*
X557276Y528244D03*
D16*
X522556Y424434D03*
X532306Y424434D03*
D22*
X398526Y579120D03*
D25*
X304235Y589520D02*
X304235Y593248D01*
X304235Y589520D02*
X298507Y589520D01*
X298507Y593248D01*
X304235Y593248D01*
X304235Y592660D02*
X298507Y592660D01*
X304235Y598520D02*
X304235Y602248D01*
X304235Y598520D02*
X298507Y598520D01*
X298507Y602248D01*
X304235Y602248D01*
X304235Y601660D02*
X298507Y601660D01*
X320110Y593248D02*
X320110Y589520D01*
X314382Y589520D01*
X314382Y593248D01*
X320110Y593248D01*
X320110Y592660D02*
X314382Y592660D01*
X320110Y598520D02*
X320110Y602248D01*
X320110Y598520D02*
X314382Y598520D01*
X314382Y602248D01*
X320110Y602248D01*
X320110Y601660D02*
X314382Y601660D01*
X335985Y593248D02*
X335985Y589520D01*
X330257Y589520D01*
X330257Y593248D01*
X335985Y593248D01*
X335985Y592660D02*
X330257Y592660D01*
X335985Y598520D02*
X335985Y602248D01*
X335985Y598520D02*
X330257Y598520D01*
X330257Y602248D01*
X335985Y602248D01*
X335985Y601660D02*
X330257Y601660D01*
D26*
X192374Y229870D03*
X192374Y217170D03*
X192374Y204470D03*
X192374Y191770D03*
X142906Y191770D03*
X142906Y204470D03*
X142906Y217170D03*
X142906Y229870D03*
D23*
X109550Y218440D03*
X119050Y218440D03*
X109550Y203200D03*
X119050Y203200D03*
X213690Y229870D03*
X223190Y229870D03*
X213690Y191770D03*
X223190Y191770D03*
D14*
X95250Y193499D03*
X95250Y203249D03*
X95250Y228141D03*
X95250Y218391D03*
D27*
X142918Y247396D03*
X158326Y247396D03*
D26*
X398114Y229870D03*
X398114Y217170D03*
X398114Y204470D03*
X398114Y191770D03*
X348646Y191770D03*
X348646Y204470D03*
X348646Y217170D03*
X348646Y229870D03*
D23*
X315290Y218440D03*
X324790Y218440D03*
X315290Y203200D03*
X324790Y203200D03*
X419430Y229870D03*
X428930Y229870D03*
X419430Y191770D03*
X428930Y191770D03*
D14*
X299466Y193753D03*
X299466Y203503D03*
X299466Y228395D03*
X299466Y218645D03*
D27*
X358056Y246380D03*
X373464Y246380D03*
D26*
X606394Y227330D03*
X606394Y214630D03*
X606394Y201930D03*
X606394Y189230D03*
X556926Y189230D03*
X556926Y201930D03*
X556926Y214630D03*
X556926Y227330D03*
D23*
X523570Y215900D03*
X533070Y215900D03*
X523570Y200660D03*
X533070Y200660D03*
X627710Y227330D03*
X637210Y227330D03*
X627710Y189230D03*
X637210Y189230D03*
D14*
X508000Y190705D03*
X508000Y200455D03*
X508000Y225855D03*
X508000Y216105D03*
D27*
X556176Y243840D03*
X571584Y243840D03*
D23*
X59004Y218440D03*
X68504Y218440D03*
X59004Y203200D03*
X68504Y203200D03*
D28*
X227867Y144780D03*
X158213Y144780D03*
D23*
X263982Y218440D03*
X273482Y218440D03*
X264236Y203708D03*
X273736Y203708D03*
D28*
X387887Y144780D03*
X318233Y144780D03*
D23*
X469722Y216154D03*
X479222Y216154D03*
X469976Y200406D03*
X479476Y200406D03*
D28*
X522703Y135890D03*
X592357Y135890D03*
D22*
X154686Y336804D03*
D29*
X650240Y381790D03*
X650240Y361790D03*
X650240Y341790D03*
X650240Y321790D03*
D30*
X667240Y396790D03*
D22*
X482600Y382270D03*
D31*
X243586Y448039D03*
X243586Y408449D03*
D25*
X289630Y589520D02*
X289630Y593248D01*
X289630Y589520D02*
X283902Y589520D01*
X283902Y593248D01*
X289630Y593248D01*
X289630Y592660D02*
X283902Y592660D01*
X289630Y598520D02*
X289630Y602248D01*
X289630Y598520D02*
X283902Y598520D01*
X283902Y602248D01*
X289630Y602248D01*
X289630Y601660D02*
X283902Y601660D01*
D17*
X286766Y569544D03*
X286766Y579044D03*
D29*
X45720Y1113790D03*
X65720Y1098790D03*
X45720Y1083790D03*
X65720Y1068790D03*
X45720Y1053790D03*
X65720Y1041790D03*
X45720Y1023790D03*
X65720Y1008790D03*
D32*
X83720Y1130290D03*
D29*
X289560Y1325880D03*
X274560Y1305880D03*
X259560Y1325880D03*
X244560Y1305880D03*
X229560Y1325880D03*
X217560Y1305880D03*
X199560Y1325880D03*
X184560Y1305880D03*
D32*
X306060Y1287880D03*
D29*
X513080Y1325880D03*
X498080Y1305880D03*
X483080Y1325880D03*
X468080Y1305880D03*
X453080Y1325880D03*
X441080Y1305880D03*
X423080Y1325880D03*
X408080Y1305880D03*
D32*
X529580Y1287880D03*
D29*
X652780Y993140D03*
X632780Y1008140D03*
X652780Y1023140D03*
X632780Y1038140D03*
X652780Y1053140D03*
X632780Y1065140D03*
X652780Y1083140D03*
X632780Y1098140D03*
D32*
X614780Y976640D03*
D14*
X350520Y938325D03*
X350520Y928575D03*
D16*
X345997Y861314D03*
X336247Y861314D03*
D15*
X367030Y943948D03*
X367030Y928540D03*
D27*
X351366Y848360D03*
X335958Y848360D03*
D17*
X332740Y938860D03*
X332740Y948360D03*
X367030Y879018D03*
X367030Y869518D03*
X367030Y908990D03*
X367030Y899490D03*
D23*
X315646Y879094D03*
X306146Y879094D03*
X316154Y909066D03*
X306654Y909066D03*
D22*
X386080Y879094D03*
X386080Y909066D03*
X363220Y848360D03*
X332740Y924560D03*
D33*
X346590Y879048D03*
X341590Y879048D03*
X336590Y879048D03*
X331590Y879048D03*
X331590Y909112D03*
X336590Y909112D03*
X341590Y909112D03*
X346590Y909112D03*
D17*
X302006Y323774D03*
X302006Y314274D03*
X317246Y323774D03*
X317246Y314274D03*
X332486Y323774D03*
X332486Y314274D03*
X347726Y323774D03*
X347726Y314274D03*
D25*
X503922Y562540D02*
X507650Y562540D01*
X503922Y562540D02*
X503922Y568268D01*
X507650Y568268D01*
X507650Y562540D01*
X507650Y565680D02*
X503922Y565680D01*
X512922Y562540D02*
X516650Y562540D01*
X512922Y562540D02*
X512922Y568268D01*
X516650Y568268D01*
X516650Y562540D01*
X516650Y565680D02*
X512922Y565680D01*
X507650Y547300D02*
X503922Y547300D01*
X503922Y553028D01*
X507650Y553028D01*
X507650Y547300D01*
X507650Y550440D02*
X503922Y550440D01*
X512922Y547300D02*
X516650Y547300D01*
X512922Y547300D02*
X512922Y553028D01*
X516650Y553028D01*
X516650Y547300D01*
X516650Y550440D02*
X512922Y550440D01*
D23*
X477596Y565404D03*
X487096Y565404D03*
X477596Y550164D03*
X487096Y550164D03*
D29*
X218440Y83820D03*
X203440Y63820D03*
X188440Y83820D03*
X173440Y63820D03*
D32*
X234940Y45820D03*
D29*
X369570Y83820D03*
X354570Y63820D03*
X339570Y83820D03*
X324570Y63820D03*
D32*
X386070Y45820D03*
D29*
X521970Y83820D03*
X506970Y63820D03*
X491970Y83820D03*
X476970Y63820D03*
D32*
X538470Y45820D03*
D22*
X80772Y218440D03*
X80264Y203200D03*
X285242Y203708D03*
X284988Y218440D03*
X493014Y200406D03*
X491998Y216154D03*
X650240Y284480D03*
X45720Y1270000D03*
X645160Y1270000D03*
D34*
X609600Y1270000D03*
X40640Y254000D03*
X650240Y127000D03*
D35*
X61976Y345694D03*
X61976Y358394D03*
X61976Y371094D03*
X61976Y383794D03*
X61976Y396494D03*
X74676Y396494D03*
X74676Y383794D03*
X74676Y371094D03*
X74676Y358394D03*
X74676Y345694D03*
D36*
X78476Y409194D03*
X58176Y409194D03*
X68326Y332994D03*
M02*
