G04 EAGLE Gerber RS-274X export*
G75*
%MOMM*%
%FSLAX34Y34*%
%LPD*%
%INSoldermask Top*%
%IPPOS*%
%AMOC8*
5,1,8,0,0,1.08239X$1,22.5*%
G01*
%ADD10C,4.013200*%
%ADD11R,69.850000X0.762000*%
%ADD12R,0.762000X136.398000*%
%ADD13R,68.326000X0.762000*%
%ADD14C,1.203200*%
%ADD15R,1.668500X1.367800*%
%ADD16R,0.840300X0.765300*%
%ADD17R,4.615500X2.549800*%
%ADD18R,1.182300X1.074100*%
%ADD19R,1.132300X1.091600*%
%ADD20R,0.802300X2.171700*%
%ADD21R,3.302000X2.616200*%
%ADD22R,0.803200X0.753200*%
%ADD23R,1.074100X1.182300*%
%ADD24C,0.628053*%
%ADD25R,1.367800X1.668500*%
%ADD26R,0.765300X0.840300*%
%ADD27R,2.549800X4.615500*%
%ADD28R,1.091600X1.132300*%
%ADD29R,2.171700X0.802300*%
%ADD30R,2.616200X3.302000*%
%ADD31R,0.753200X0.803200*%
%ADD32R,0.470700X1.126000*%
%ADD33R,4.815000X2.256000*%
%ADD34R,2.256000X4.815000*%
%ADD35R,0.713200X1.191600*%
%ADD36R,1.164700X2.368300*%
%ADD37R,3.464700X2.368300*%
%ADD38R,0.852400X1.389600*%
%ADD39R,2.503200X2.703200*%
%ADD40R,1.674100X0.513200*%
%ADD41R,1.238600X1.582300*%
%ADD42R,1.392300X1.811000*%
%ADD43R,5.736600X6.221000*%
%ADD44R,1.582300X1.238600*%
%ADD45R,1.287300X1.882300*%
%ADD46R,2.703200X2.503200*%
%ADD47C,1.411200*%
%ADD48C,1.303200*%
%ADD49C,0.517200*%
%ADD50R,5.053200X5.053200*%
%ADD51C,1.003200*%
%ADD52C,1.778000*%
%ADD53C,1.194200*%


D10*
X615950Y1322070D03*
X82550Y1322070D03*
X615950Y49530D03*
X82550Y49530D03*
D11*
X349250Y1367790D03*
D12*
X694690Y681990D03*
D13*
X349250Y3810D03*
D12*
X3810Y681990D03*
D14*
X584454Y1081278D03*
X59182Y967740D03*
X329438Y1306068D03*
D15*
X471170Y900516D03*
X471170Y918124D03*
D16*
X562610Y730045D03*
X562610Y720295D03*
D17*
X636270Y787689D03*
X636270Y825211D03*
D18*
X671830Y798454D03*
X671830Y814446D03*
D19*
X581152Y859366D03*
X581152Y843958D03*
D16*
X564896Y854505D03*
X564896Y844755D03*
D20*
X549910Y751236D03*
X562610Y751236D03*
X575310Y751236D03*
X588010Y751236D03*
X588010Y800704D03*
X575310Y800704D03*
X562610Y800704D03*
X549910Y800704D03*
D21*
X568960Y775970D03*
D22*
X575310Y720420D03*
X575310Y729920D03*
D23*
X566796Y879094D03*
X550804Y879094D03*
D18*
X593090Y707014D03*
X593090Y723006D03*
D17*
X505460Y833409D03*
X505460Y870931D03*
D16*
X532130Y778715D03*
X532130Y788465D03*
D15*
X599694Y861482D03*
X599694Y843874D03*
D22*
X532130Y758520D03*
X532130Y768020D03*
X543433Y841680D03*
X543433Y832180D03*
D16*
X543179Y859585D03*
X543179Y849835D03*
D19*
X449834Y915754D03*
X449834Y900346D03*
D16*
X434340Y910893D03*
X434340Y901143D03*
D15*
X539750Y900516D03*
X539750Y918124D03*
X494030Y900516D03*
X494030Y918124D03*
X516890Y900516D03*
X516890Y918124D03*
D24*
X640550Y683138D02*
X640550Y670386D01*
X619798Y670386D01*
X619798Y683138D01*
X640550Y683138D01*
X640550Y676353D02*
X619798Y676353D01*
X619798Y682320D02*
X640550Y682320D01*
X640550Y715386D02*
X640550Y728138D01*
X640550Y715386D02*
X619798Y715386D01*
X619798Y728138D01*
X640550Y728138D01*
X640550Y721353D02*
X619798Y721353D01*
X619798Y727320D02*
X640550Y727320D01*
X512026Y749634D02*
X512026Y762386D01*
X512026Y749634D02*
X491274Y749634D01*
X491274Y762386D01*
X512026Y762386D01*
X512026Y755601D02*
X491274Y755601D01*
X491274Y761568D02*
X512026Y761568D01*
X512026Y794634D02*
X512026Y807386D01*
X512026Y794634D02*
X491274Y794634D01*
X491274Y807386D01*
X512026Y807386D01*
X512026Y800601D02*
X491274Y800601D01*
X491274Y806568D02*
X512026Y806568D01*
D25*
X81956Y880110D03*
X64348Y880110D03*
D26*
X63295Y736600D03*
X53545Y736600D03*
D27*
X120939Y662940D03*
X158461Y662940D03*
D23*
X131704Y627380D03*
X147696Y627380D03*
D28*
X183218Y721360D03*
X167810Y721360D03*
D26*
X178357Y736854D03*
X168607Y736854D03*
D29*
X84486Y749300D03*
X84486Y736600D03*
X84486Y723900D03*
X84486Y711200D03*
X133954Y711200D03*
X133954Y723900D03*
X133954Y736600D03*
X133954Y749300D03*
D30*
X109220Y730250D03*
D31*
X53670Y723900D03*
X63170Y723900D03*
D23*
X65664Y841248D03*
X81656Y841248D03*
X40264Y706120D03*
X56256Y706120D03*
D17*
X140970Y839759D03*
X140970Y877281D03*
D26*
X110695Y767080D03*
X120445Y767080D03*
D25*
X185588Y701294D03*
X167980Y701294D03*
D31*
X91770Y767080D03*
X101270Y767080D03*
X157150Y767080D03*
X147650Y767080D03*
D26*
X177595Y767080D03*
X167845Y767080D03*
D28*
X65956Y859790D03*
X81364Y859790D03*
D26*
X71960Y923290D03*
X81710Y923290D03*
D25*
X181696Y900430D03*
X199304Y900430D03*
X81956Y904240D03*
X64348Y904240D03*
X181696Y876300D03*
X199304Y876300D03*
D24*
X95636Y792264D02*
X82884Y792264D01*
X82884Y813016D01*
X95636Y813016D01*
X95636Y792264D01*
X95636Y798231D02*
X82884Y798231D01*
X82884Y804198D02*
X95636Y804198D01*
X95636Y810165D02*
X82884Y810165D01*
X127884Y792264D02*
X140636Y792264D01*
X127884Y792264D02*
X127884Y813016D01*
X140636Y813016D01*
X140636Y792264D01*
X140636Y798231D02*
X127884Y798231D01*
X127884Y804198D02*
X140636Y804198D01*
X140636Y810165D02*
X127884Y810165D01*
D16*
X355092Y998933D03*
X355092Y1008683D03*
D26*
X350569Y1075944D03*
X340819Y1075944D03*
D19*
X371602Y993310D03*
X371602Y1008718D03*
D28*
X355938Y1088898D03*
X340530Y1088898D03*
D31*
X337490Y992378D03*
X327990Y992378D03*
D22*
X370332Y1058240D03*
X370332Y1067740D03*
X370332Y1028014D03*
X370332Y1037514D03*
X320802Y1058240D03*
X320802Y1067740D03*
X319532Y1028116D03*
X319532Y1018616D03*
D14*
X384302Y1057656D03*
X387350Y1026414D03*
X367792Y1088898D03*
X337312Y1012698D03*
D32*
X351162Y1058210D03*
X346162Y1058210D03*
X341162Y1058210D03*
X336162Y1058210D03*
X336162Y1028146D03*
X341162Y1028146D03*
X346162Y1028146D03*
X351162Y1028146D03*
D28*
X201211Y802894D03*
X216619Y802894D03*
D26*
X206580Y785749D03*
X216330Y785749D03*
X315771Y620395D03*
X306021Y620395D03*
D28*
X321140Y635889D03*
X305732Y635889D03*
D33*
X251460Y670289D03*
X251460Y630699D03*
D34*
X282685Y828294D03*
X243095Y828294D03*
D23*
X270251Y785114D03*
X254259Y785114D03*
X286644Y785114D03*
X302636Y785114D03*
X254767Y872744D03*
X270759Y872744D03*
D18*
X287655Y643133D03*
X287655Y659125D03*
D31*
X318313Y756539D03*
X308813Y756539D03*
D35*
X318285Y741478D03*
X305285Y741478D03*
X311785Y722070D03*
D26*
X351585Y719836D03*
X341835Y719836D03*
D36*
X275730Y758460D03*
X252730Y758460D03*
X229730Y758460D03*
D37*
X252730Y700008D03*
D24*
X334894Y698970D02*
X347646Y698970D01*
X347646Y678218D01*
X334894Y678218D01*
X334894Y698970D01*
X334894Y684185D02*
X347646Y684185D01*
X347646Y690152D02*
X334894Y690152D01*
X334894Y696119D02*
X347646Y696119D01*
X302646Y698970D02*
X289894Y698970D01*
X302646Y698970D02*
X302646Y678218D01*
X289894Y678218D01*
X289894Y698970D01*
X289894Y684185D02*
X302646Y684185D01*
X302646Y690152D02*
X289894Y690152D01*
X289894Y696119D02*
X302646Y696119D01*
D28*
X234526Y166370D03*
X219118Y166370D03*
X210904Y347980D03*
X195496Y347980D03*
X212936Y429514D03*
X197528Y429514D03*
D23*
X197226Y283972D03*
X181234Y283972D03*
D18*
X242316Y405262D03*
X242316Y421254D03*
D38*
X205842Y392374D03*
X186842Y392374D03*
X196342Y367086D03*
X206350Y215336D03*
X187350Y215336D03*
X196850Y190048D03*
X252070Y378404D03*
X233070Y378404D03*
X242570Y353116D03*
D31*
X269570Y360680D03*
X279070Y360680D03*
D23*
X256916Y215900D03*
X240924Y215900D03*
D18*
X226822Y291714D03*
X226822Y275722D03*
D28*
X212936Y446405D03*
X197528Y446405D03*
D23*
X179964Y166370D03*
X195956Y166370D03*
D24*
X220594Y258026D02*
X233346Y258026D01*
X233346Y237274D01*
X220594Y237274D01*
X220594Y258026D01*
X220594Y243241D02*
X233346Y243241D01*
X233346Y249208D02*
X220594Y249208D01*
X220594Y255175D02*
X233346Y255175D01*
X188346Y258026D02*
X175594Y258026D01*
X188346Y258026D02*
X188346Y237274D01*
X175594Y237274D01*
X175594Y258026D01*
X175594Y243241D02*
X188346Y243241D01*
X188346Y249208D02*
X175594Y249208D01*
X175594Y255175D02*
X188346Y255175D01*
X220594Y329146D02*
X233346Y329146D01*
X233346Y308394D01*
X220594Y308394D01*
X220594Y329146D01*
X220594Y314361D02*
X233346Y314361D01*
X233346Y320328D02*
X220594Y320328D01*
X220594Y326295D02*
X233346Y326295D01*
X188346Y329146D02*
X175594Y329146D01*
X188346Y329146D02*
X188346Y308394D01*
X175594Y308394D01*
X175594Y329146D01*
X175594Y314361D02*
X188346Y314361D01*
X188346Y320328D02*
X175594Y320328D01*
X175594Y326295D02*
X188346Y326295D01*
D39*
X165100Y425540D03*
X165100Y468540D03*
D28*
X385656Y167640D03*
X370248Y167640D03*
X360764Y347980D03*
X345356Y347980D03*
X361653Y429514D03*
X346245Y429514D03*
D23*
X347086Y283972D03*
X331094Y283972D03*
D18*
X394716Y405262D03*
X394716Y421254D03*
D38*
X355702Y392374D03*
X336702Y392374D03*
X346202Y367086D03*
X362560Y215336D03*
X343560Y215336D03*
X353060Y190048D03*
X404470Y375864D03*
X385470Y375864D03*
X394970Y350576D03*
D31*
X421970Y362712D03*
X431470Y362712D03*
D23*
X409316Y215900D03*
X393324Y215900D03*
D18*
X375412Y291714D03*
X375412Y275722D03*
D28*
X361653Y446405D03*
X346245Y446405D03*
D23*
X334904Y167640D03*
X350896Y167640D03*
D24*
X369184Y258026D02*
X381936Y258026D01*
X381936Y237274D01*
X369184Y237274D01*
X369184Y258026D01*
X369184Y243241D02*
X381936Y243241D01*
X381936Y249208D02*
X369184Y249208D01*
X369184Y255175D02*
X381936Y255175D01*
X336936Y258026D02*
X324184Y258026D01*
X336936Y258026D02*
X336936Y237274D01*
X324184Y237274D01*
X324184Y258026D01*
X324184Y243241D02*
X336936Y243241D01*
X336936Y249208D02*
X324184Y249208D01*
X324184Y255175D02*
X336936Y255175D01*
X369184Y329146D02*
X381936Y329146D01*
X381936Y308394D01*
X369184Y308394D01*
X369184Y329146D01*
X369184Y314361D02*
X381936Y314361D01*
X381936Y320328D02*
X369184Y320328D01*
X369184Y326295D02*
X381936Y326295D01*
X336936Y329146D02*
X324184Y329146D01*
X336936Y329146D02*
X336936Y308394D01*
X324184Y308394D01*
X324184Y329146D01*
X324184Y314361D02*
X336936Y314361D01*
X336936Y320328D02*
X324184Y320328D01*
X324184Y326295D02*
X336936Y326295D01*
D39*
X314198Y433160D03*
X314198Y476160D03*
D28*
X538056Y167640D03*
X522648Y167640D03*
X514434Y347980D03*
X499026Y347980D03*
X516466Y429514D03*
X501058Y429514D03*
D23*
X502026Y283972D03*
X486034Y283972D03*
D18*
X549656Y409072D03*
X549656Y425064D03*
D38*
X510642Y392374D03*
X491642Y392374D03*
X501142Y367086D03*
X517500Y215336D03*
X498500Y215336D03*
X508000Y190048D03*
X558394Y380944D03*
X539394Y380944D03*
X548894Y355656D03*
D22*
X595630Y381940D03*
X595630Y372440D03*
D23*
X560954Y214884D03*
X544962Y214884D03*
D18*
X530352Y291714D03*
X530352Y275722D03*
D28*
X516466Y446405D03*
X501058Y446405D03*
D23*
X488574Y167640D03*
X504566Y167640D03*
D24*
X524124Y258026D02*
X536876Y258026D01*
X536876Y237274D01*
X524124Y237274D01*
X524124Y258026D01*
X524124Y243241D02*
X536876Y243241D01*
X536876Y249208D02*
X524124Y249208D01*
X524124Y255175D02*
X536876Y255175D01*
X491876Y258026D02*
X479124Y258026D01*
X491876Y258026D02*
X491876Y237274D01*
X479124Y237274D01*
X479124Y258026D01*
X479124Y243241D02*
X491876Y243241D01*
X491876Y249208D02*
X479124Y249208D01*
X479124Y255175D02*
X491876Y255175D01*
X522854Y329146D02*
X535606Y329146D01*
X535606Y308394D01*
X522854Y308394D01*
X522854Y329146D01*
X522854Y314361D02*
X535606Y314361D01*
X535606Y320328D02*
X522854Y320328D01*
X522854Y326295D02*
X535606Y326295D01*
X490606Y329146D02*
X477854Y329146D01*
X490606Y329146D02*
X490606Y308394D01*
X477854Y308394D01*
X477854Y329146D01*
X477854Y314361D02*
X490606Y314361D01*
X490606Y320328D02*
X477854Y320328D01*
X477854Y326295D02*
X490606Y326295D01*
D39*
X466598Y423000D03*
X466598Y466000D03*
D31*
X658190Y579120D03*
X667690Y579120D03*
X602310Y575310D03*
X611810Y575310D03*
D22*
X665480Y590880D03*
X665480Y600380D03*
X665480Y616280D03*
X665480Y625780D03*
D19*
X647700Y626194D03*
X647700Y610786D03*
D31*
X566750Y629920D03*
X576250Y629920D03*
X541350Y617220D03*
X550850Y617220D03*
D15*
X494792Y701716D03*
X494792Y684108D03*
D19*
X523240Y585386D03*
X523240Y600794D03*
D31*
X550850Y600710D03*
X541350Y600710D03*
D40*
X626016Y590710D03*
X626016Y595710D03*
X626016Y600710D03*
X626016Y605710D03*
X626016Y610710D03*
X583024Y610710D03*
X583024Y605710D03*
X583024Y600710D03*
X583024Y595710D03*
X583024Y590710D03*
D41*
X580900Y549910D03*
X562100Y549910D03*
D42*
X499735Y627255D03*
X454035Y627255D03*
D43*
X476885Y554305D03*
D41*
X580900Y572770D03*
X562100Y572770D03*
D44*
X541020Y570994D03*
X541020Y552194D03*
D19*
X518160Y700616D03*
X518160Y685208D03*
D31*
X584530Y629920D03*
X594030Y629920D03*
D24*
X444284Y695320D02*
X444284Y708072D01*
X465036Y708072D01*
X465036Y695320D01*
X444284Y695320D01*
X444284Y701287D02*
X465036Y701287D01*
X465036Y707254D02*
X444284Y707254D01*
X444284Y663072D02*
X444284Y650320D01*
X444284Y663072D02*
X465036Y663072D01*
X465036Y650320D01*
X444284Y650320D01*
X444284Y656287D02*
X465036Y656287D01*
X465036Y662254D02*
X444284Y662254D01*
D14*
X607060Y631190D03*
D45*
X371319Y473710D03*
X342421Y473710D03*
X229079Y478790D03*
X200181Y478790D03*
D14*
X281940Y468630D03*
X410210Y468630D03*
D46*
X221070Y132080D03*
X264070Y132080D03*
X370295Y132080D03*
X413295Y132080D03*
X523330Y132080D03*
X566330Y132080D03*
D14*
X655320Y416560D03*
X617220Y416560D03*
X581660Y416560D03*
X373380Y1325880D03*
X320040Y1047496D03*
X309880Y980186D03*
D47*
X650240Y381790D03*
X650240Y361790D03*
X650240Y341790D03*
X650240Y321790D03*
D48*
X667240Y396790D03*
D14*
X369824Y1304544D03*
X585978Y1097788D03*
X329438Y1325880D03*
X50800Y977900D03*
D49*
X134730Y1015754D02*
X134730Y1022714D01*
X141230Y1022714D02*
X141230Y1015754D01*
X147730Y1015754D02*
X147730Y1022714D01*
X154230Y1022714D02*
X154230Y1015754D01*
X160730Y1015754D02*
X160730Y1022714D01*
X167230Y1022714D02*
X167230Y1015754D01*
X173730Y1015754D02*
X173730Y1022714D01*
X180230Y1022714D02*
X180230Y1015754D01*
X187596Y1030080D02*
X194556Y1030080D01*
X194556Y1036580D02*
X187596Y1036580D01*
X187596Y1043080D02*
X194556Y1043080D01*
X194556Y1049580D02*
X187596Y1049580D01*
X187596Y1056080D02*
X194556Y1056080D01*
X194556Y1062580D02*
X187596Y1062580D01*
X187596Y1069080D02*
X194556Y1069080D01*
X194556Y1075580D02*
X187596Y1075580D01*
X180230Y1082946D02*
X180230Y1089906D01*
X173730Y1089906D02*
X173730Y1082946D01*
X167230Y1082946D02*
X167230Y1089906D01*
X160730Y1089906D02*
X160730Y1082946D01*
X154230Y1082946D02*
X154230Y1089906D01*
X147730Y1089906D02*
X147730Y1082946D01*
X141230Y1082946D02*
X141230Y1089906D01*
X134730Y1089906D02*
X134730Y1082946D01*
X127364Y1075580D02*
X120404Y1075580D01*
X120404Y1069080D02*
X127364Y1069080D01*
X127364Y1062580D02*
X120404Y1062580D01*
X120404Y1056080D02*
X127364Y1056080D01*
X127364Y1049580D02*
X120404Y1049580D01*
X120404Y1043080D02*
X127364Y1043080D01*
X127364Y1036580D02*
X120404Y1036580D01*
X120404Y1030080D02*
X127364Y1030080D01*
D50*
X157480Y1052830D03*
D26*
X185215Y1106170D03*
X175465Y1106170D03*
X167816Y1105916D03*
X158066Y1105916D03*
D19*
X228600Y1071329D03*
X228600Y1055921D03*
D31*
X219126Y1086231D03*
X209626Y1086231D03*
D22*
X167640Y989660D03*
X167640Y999160D03*
D28*
X185336Y981710D03*
X200744Y981710D03*
D22*
X153670Y999160D03*
X153670Y989660D03*
D31*
X209626Y1098550D03*
X219126Y1098550D03*
X194996Y964184D03*
X185496Y964184D03*
D22*
X211074Y1060145D03*
X211074Y1069645D03*
D16*
X210820Y1043735D03*
X210820Y1033985D03*
D31*
X228270Y986790D03*
X218770Y986790D03*
X228270Y999490D03*
X218770Y999490D03*
X228270Y1012190D03*
X218770Y1012190D03*
X228270Y1024890D03*
X218770Y1024890D03*
D49*
X216924Y1236870D02*
X223884Y1236870D01*
X223884Y1230370D02*
X216924Y1230370D01*
X216924Y1223870D02*
X223884Y1223870D01*
X223884Y1217370D02*
X216924Y1217370D01*
X216924Y1210870D02*
X223884Y1210870D01*
X223884Y1204370D02*
X216924Y1204370D01*
X216924Y1197870D02*
X223884Y1197870D01*
X223884Y1191370D02*
X216924Y1191370D01*
X231250Y1184004D02*
X231250Y1177044D01*
X237750Y1177044D02*
X237750Y1184004D01*
X244250Y1184004D02*
X244250Y1177044D01*
X250750Y1177044D02*
X250750Y1184004D01*
X257250Y1184004D02*
X257250Y1177044D01*
X263750Y1177044D02*
X263750Y1184004D01*
X270250Y1184004D02*
X270250Y1177044D01*
X276750Y1177044D02*
X276750Y1184004D01*
X284116Y1191370D02*
X291076Y1191370D01*
X291076Y1197870D02*
X284116Y1197870D01*
X284116Y1204370D02*
X291076Y1204370D01*
X291076Y1210870D02*
X284116Y1210870D01*
X284116Y1217370D02*
X291076Y1217370D01*
X291076Y1223870D02*
X284116Y1223870D01*
X284116Y1230370D02*
X291076Y1230370D01*
X291076Y1236870D02*
X284116Y1236870D01*
X276750Y1244236D02*
X276750Y1251196D01*
X270250Y1251196D02*
X270250Y1244236D01*
X263750Y1244236D02*
X263750Y1251196D01*
X257250Y1251196D02*
X257250Y1244236D01*
X250750Y1244236D02*
X250750Y1251196D01*
X244250Y1251196D02*
X244250Y1244236D01*
X237750Y1244236D02*
X237750Y1251196D01*
X231250Y1251196D02*
X231250Y1244236D01*
D50*
X254000Y1214120D03*
D16*
X307340Y1186385D03*
X307340Y1196135D03*
X307340Y1203784D03*
X307340Y1213534D03*
D28*
X268689Y1142492D03*
X253281Y1142492D03*
D22*
X285115Y1149680D03*
X285115Y1159180D03*
D31*
X190830Y1203960D03*
X200330Y1203960D03*
D19*
X180340Y1186264D03*
X180340Y1170856D03*
D31*
X200330Y1217930D03*
X190830Y1217930D03*
D22*
X298450Y1159180D03*
X298450Y1149680D03*
X163830Y1176350D03*
X163830Y1185850D03*
D31*
X258775Y1158240D03*
X268275Y1158240D03*
D26*
X243889Y1157986D03*
X234139Y1157986D03*
D22*
X185420Y1145870D03*
X185420Y1155370D03*
X198120Y1145870D03*
X198120Y1155370D03*
X210820Y1145870D03*
X210820Y1155370D03*
X223520Y1145870D03*
X223520Y1155370D03*
D49*
X445524Y1233060D02*
X452484Y1233060D01*
X452484Y1226560D02*
X445524Y1226560D01*
X445524Y1220060D02*
X452484Y1220060D01*
X452484Y1213560D02*
X445524Y1213560D01*
X445524Y1207060D02*
X452484Y1207060D01*
X452484Y1200560D02*
X445524Y1200560D01*
X445524Y1194060D02*
X452484Y1194060D01*
X452484Y1187560D02*
X445524Y1187560D01*
X459850Y1180194D02*
X459850Y1173234D01*
X466350Y1173234D02*
X466350Y1180194D01*
X472850Y1180194D02*
X472850Y1173234D01*
X479350Y1173234D02*
X479350Y1180194D01*
X485850Y1180194D02*
X485850Y1173234D01*
X492350Y1173234D02*
X492350Y1180194D01*
X498850Y1180194D02*
X498850Y1173234D01*
X505350Y1173234D02*
X505350Y1180194D01*
X512716Y1187560D02*
X519676Y1187560D01*
X519676Y1194060D02*
X512716Y1194060D01*
X512716Y1200560D02*
X519676Y1200560D01*
X519676Y1207060D02*
X512716Y1207060D01*
X512716Y1213560D02*
X519676Y1213560D01*
X519676Y1220060D02*
X512716Y1220060D01*
X512716Y1226560D02*
X519676Y1226560D01*
X519676Y1233060D02*
X512716Y1233060D01*
X505350Y1240426D02*
X505350Y1247386D01*
X498850Y1247386D02*
X498850Y1240426D01*
X492350Y1240426D02*
X492350Y1247386D01*
X485850Y1247386D02*
X485850Y1240426D01*
X479350Y1240426D02*
X479350Y1247386D01*
X472850Y1247386D02*
X472850Y1240426D01*
X466350Y1240426D02*
X466350Y1247386D01*
X459850Y1247386D02*
X459850Y1240426D01*
D50*
X482600Y1210310D03*
D16*
X535940Y1182575D03*
X535940Y1192325D03*
X535940Y1199974D03*
X535940Y1209724D03*
D28*
X497289Y1139190D03*
X481881Y1139190D03*
D22*
X513715Y1145870D03*
X513715Y1155370D03*
D31*
X419430Y1200150D03*
X428930Y1200150D03*
D19*
X408940Y1182454D03*
X408940Y1167046D03*
D31*
X428930Y1214120D03*
X419430Y1214120D03*
D22*
X527050Y1155370D03*
X527050Y1145870D03*
X392430Y1172540D03*
X392430Y1182040D03*
D31*
X489280Y1156716D03*
X498780Y1156716D03*
D26*
X474521Y1156716D03*
X464771Y1156716D03*
D22*
X416560Y1142060D03*
X416560Y1151560D03*
X429260Y1142060D03*
X429260Y1151560D03*
X441706Y1142060D03*
X441706Y1151560D03*
X454152Y1142314D03*
X454152Y1151814D03*
D49*
X563770Y1050536D02*
X563770Y1043576D01*
X557270Y1043576D02*
X557270Y1050536D01*
X550770Y1050536D02*
X550770Y1043576D01*
X544270Y1043576D02*
X544270Y1050536D01*
X537770Y1050536D02*
X537770Y1043576D01*
X531270Y1043576D02*
X531270Y1050536D01*
X524770Y1050536D02*
X524770Y1043576D01*
X518270Y1043576D02*
X518270Y1050536D01*
X510904Y1036210D02*
X503944Y1036210D01*
X503944Y1029710D02*
X510904Y1029710D01*
X510904Y1023210D02*
X503944Y1023210D01*
X503944Y1016710D02*
X510904Y1016710D01*
X510904Y1010210D02*
X503944Y1010210D01*
X503944Y1003710D02*
X510904Y1003710D01*
X510904Y997210D02*
X503944Y997210D01*
X503944Y990710D02*
X510904Y990710D01*
X518270Y983344D02*
X518270Y976384D01*
X524770Y976384D02*
X524770Y983344D01*
X531270Y983344D02*
X531270Y976384D01*
X537770Y976384D02*
X537770Y983344D01*
X544270Y983344D02*
X544270Y976384D01*
X550770Y976384D02*
X550770Y983344D01*
X557270Y983344D02*
X557270Y976384D01*
X563770Y976384D02*
X563770Y983344D01*
X571136Y990710D02*
X578096Y990710D01*
X578096Y997210D02*
X571136Y997210D01*
X571136Y1003710D02*
X578096Y1003710D01*
X578096Y1010210D02*
X571136Y1010210D01*
X571136Y1016710D02*
X578096Y1016710D01*
X578096Y1023210D02*
X571136Y1023210D01*
X571136Y1029710D02*
X578096Y1029710D01*
X578096Y1036210D02*
X571136Y1036210D01*
D50*
X541020Y1013460D03*
D26*
X510491Y960374D03*
X520241Y960374D03*
X527890Y960120D03*
X537640Y960120D03*
D19*
X467614Y996993D03*
X467614Y1012401D03*
D31*
X476580Y982345D03*
X486080Y982345D03*
D22*
X530860Y1076630D03*
X530860Y1067130D03*
D28*
X513164Y1084580D03*
X497756Y1084580D03*
D22*
X544830Y1067130D03*
X544830Y1076630D03*
D31*
X486080Y969010D03*
X476580Y969010D03*
X503250Y1101090D03*
X512750Y1101090D03*
D22*
X485648Y1006145D03*
X485648Y996645D03*
D16*
X485902Y1021793D03*
X485902Y1031543D03*
D31*
X470230Y1079500D03*
X479730Y1079500D03*
X470230Y1066800D03*
X479730Y1066800D03*
X470230Y1054100D03*
X479730Y1054100D03*
X470230Y1041400D03*
X479730Y1041400D03*
D47*
X45720Y1113790D03*
X65720Y1098790D03*
X45720Y1083790D03*
X65720Y1068790D03*
X45720Y1053790D03*
X65720Y1041790D03*
X45720Y1023790D03*
X65720Y1008790D03*
D51*
X83720Y1130290D03*
D47*
X289560Y1325880D03*
X274560Y1305880D03*
X259560Y1325880D03*
X244560Y1305880D03*
X229560Y1325880D03*
X217560Y1305880D03*
X199560Y1325880D03*
X184560Y1305880D03*
D51*
X306060Y1287880D03*
D47*
X513080Y1325880D03*
X498080Y1305880D03*
X483080Y1325880D03*
X468080Y1305880D03*
X453080Y1325880D03*
X441080Y1305880D03*
X423080Y1325880D03*
X408080Y1305880D03*
D51*
X529580Y1287880D03*
D47*
X652780Y993140D03*
X632780Y1008140D03*
X652780Y1023140D03*
X632780Y1038140D03*
X652780Y1053140D03*
X632780Y1065140D03*
X652780Y1083140D03*
X632780Y1098140D03*
D51*
X614780Y976640D03*
D14*
X132080Y482600D03*
D47*
X218440Y83820D03*
X203440Y63820D03*
X188440Y83820D03*
X173440Y63820D03*
D51*
X234940Y45820D03*
D47*
X369570Y83820D03*
X354570Y63820D03*
X339570Y83820D03*
X324570Y63820D03*
D51*
X386070Y45820D03*
D47*
X521970Y83820D03*
X506970Y63820D03*
X491970Y83820D03*
X476970Y63820D03*
D51*
X538470Y45820D03*
D44*
X132080Y442720D03*
X132080Y461520D03*
X278130Y424940D03*
X278130Y443740D03*
X431800Y445260D03*
X431800Y464060D03*
D14*
X650240Y284480D03*
D44*
X581660Y485900D03*
X581660Y504700D03*
D31*
X279070Y375920D03*
X269570Y375920D03*
X431470Y377190D03*
X421970Y377190D03*
D22*
X580390Y372440D03*
X580390Y381940D03*
D44*
X617220Y485900D03*
X617220Y504700D03*
X655320Y485900D03*
X655320Y504700D03*
X660400Y689735D03*
X660400Y708535D03*
X429260Y856490D03*
X429260Y837690D03*
D14*
X45720Y1270000D03*
X645160Y1270000D03*
D24*
X449364Y882951D02*
X449364Y870199D01*
X449364Y882951D02*
X470116Y882951D01*
X470116Y870199D01*
X449364Y870199D01*
X449364Y876166D02*
X470116Y876166D01*
X470116Y882133D02*
X449364Y882133D01*
X449364Y837951D02*
X449364Y825199D01*
X449364Y837951D02*
X470116Y837951D01*
X470116Y825199D01*
X449364Y825199D01*
X449364Y831166D02*
X470116Y831166D01*
X470116Y837133D02*
X449364Y837133D01*
D52*
X665480Y233680D03*
X50800Y1224280D03*
X81280Y604520D03*
D53*
X78476Y409194D03*
X58176Y409194D03*
X68326Y332994D03*
M02*
