G04 EAGLE Gerber RS-274X export*
G75*
%MOMM*%
%FSLAX34Y34*%
%LPD*%
%INSolderpaste Top*%
%IPPOS*%
%AMOC8*
5,1,8,0,0,1.08239X$1,22.5*%
G01*
%ADD10C,1.000000*%
%ADD11R,1.465300X1.164600*%
%ADD12R,0.637100X0.562100*%
%ADD13R,4.412300X2.346600*%
%ADD14R,0.979100X0.870900*%
%ADD15R,0.929100X0.888400*%
%ADD16R,0.599100X1.968500*%
%ADD17R,0.600000X0.550000*%
%ADD18R,0.870900X0.979100*%
%ADD19C,0.425000*%
%ADD20R,1.164600X1.465300*%
%ADD21R,0.562100X0.637100*%
%ADD22R,2.346600X4.412300*%
%ADD23R,0.888400X0.929100*%
%ADD24R,1.968500X0.599100*%
%ADD25R,0.550000X0.600000*%
%ADD26R,0.267500X0.922800*%
%ADD27R,4.611800X2.052800*%
%ADD28R,2.052800X4.611800*%
%ADD29R,0.510000X0.988400*%
%ADD30R,0.961500X2.165100*%
%ADD31R,3.261500X2.165100*%
%ADD32R,0.649200X1.186400*%
%ADD33R,2.300000X2.500000*%
%ADD34R,1.470900X0.310000*%
%ADD35R,1.035400X1.379100*%
%ADD36R,1.189100X1.607800*%
%ADD37R,5.533400X6.017800*%
%ADD38R,1.379100X1.035400*%
%ADD39R,1.084100X1.679100*%
%ADD40R,2.500000X2.300000*%
%ADD41C,0.314000*%
%ADD42R,2.000000X2.000000*%

G36*
X582186Y766050D02*
X582186Y766050D01*
X582188Y766049D01*
X582231Y766069D01*
X582275Y766087D01*
X582275Y766089D01*
X582277Y766090D01*
X582310Y766175D01*
X582310Y785765D01*
X582309Y785767D01*
X582310Y785769D01*
X582290Y785812D01*
X582272Y785856D01*
X582270Y785856D01*
X582269Y785858D01*
X582184Y785891D01*
X571230Y785891D01*
X571228Y785890D01*
X571226Y785891D01*
X571183Y785871D01*
X571139Y785853D01*
X571139Y785851D01*
X571137Y785850D01*
X571104Y785765D01*
X571104Y766175D01*
X571105Y766173D01*
X571104Y766171D01*
X571124Y766128D01*
X571142Y766084D01*
X571144Y766084D01*
X571145Y766082D01*
X571230Y766049D01*
X582184Y766049D01*
X582186Y766050D01*
G37*
G36*
X566692Y766050D02*
X566692Y766050D01*
X566694Y766049D01*
X566737Y766069D01*
X566781Y766087D01*
X566781Y766089D01*
X566783Y766090D01*
X566816Y766175D01*
X566816Y785765D01*
X566815Y785767D01*
X566816Y785769D01*
X566796Y785812D01*
X566778Y785856D01*
X566776Y785856D01*
X566775Y785858D01*
X566690Y785891D01*
X555736Y785891D01*
X555734Y785890D01*
X555732Y785891D01*
X555689Y785871D01*
X555645Y785853D01*
X555645Y785851D01*
X555643Y785850D01*
X555610Y785765D01*
X555610Y766175D01*
X555611Y766173D01*
X555610Y766171D01*
X555630Y766128D01*
X555648Y766084D01*
X555650Y766084D01*
X555651Y766082D01*
X555736Y766049D01*
X566690Y766049D01*
X566692Y766050D01*
G37*
G36*
X119017Y732395D02*
X119017Y732395D01*
X119019Y732394D01*
X119062Y732414D01*
X119106Y732432D01*
X119106Y732434D01*
X119108Y732435D01*
X119141Y732520D01*
X119141Y743474D01*
X119140Y743476D01*
X119141Y743478D01*
X119121Y743521D01*
X119103Y743565D01*
X119101Y743565D01*
X119100Y743567D01*
X119015Y743600D01*
X99425Y743600D01*
X99423Y743599D01*
X99421Y743600D01*
X99378Y743580D01*
X99334Y743562D01*
X99334Y743560D01*
X99332Y743559D01*
X99299Y743474D01*
X99299Y732520D01*
X99300Y732518D01*
X99299Y732516D01*
X99319Y732473D01*
X99337Y732429D01*
X99339Y732429D01*
X99340Y732427D01*
X99425Y732394D01*
X119015Y732394D01*
X119017Y732395D01*
G37*
G36*
X119017Y716901D02*
X119017Y716901D01*
X119019Y716900D01*
X119062Y716920D01*
X119106Y716938D01*
X119106Y716940D01*
X119108Y716941D01*
X119141Y717026D01*
X119141Y727980D01*
X119140Y727982D01*
X119141Y727984D01*
X119121Y728027D01*
X119103Y728071D01*
X119101Y728071D01*
X119100Y728073D01*
X119015Y728106D01*
X99425Y728106D01*
X99423Y728105D01*
X99421Y728106D01*
X99378Y728086D01*
X99334Y728068D01*
X99334Y728066D01*
X99332Y728065D01*
X99299Y727980D01*
X99299Y717026D01*
X99300Y717024D01*
X99299Y717022D01*
X99319Y716979D01*
X99337Y716935D01*
X99339Y716935D01*
X99340Y716933D01*
X99425Y716900D01*
X119015Y716900D01*
X119017Y716901D01*
G37*
D10*
X584454Y1081278D03*
X59182Y967740D03*
X329438Y1306068D03*
D11*
X471170Y900516D03*
X471170Y918124D03*
D12*
X562610Y730045D03*
X562610Y720295D03*
D13*
X636270Y787689D03*
X636270Y825211D03*
D14*
X671830Y798454D03*
X671830Y814446D03*
D15*
X581152Y859366D03*
X581152Y843958D03*
D12*
X564896Y854505D03*
X564896Y844755D03*
D16*
X549910Y751236D03*
X562610Y751236D03*
X575310Y751236D03*
X588010Y751236D03*
X588010Y800704D03*
X575310Y800704D03*
X562610Y800704D03*
X549910Y800704D03*
D17*
X575310Y720420D03*
X575310Y729920D03*
D18*
X566796Y879094D03*
X550804Y879094D03*
D14*
X593090Y707014D03*
X593090Y723006D03*
D13*
X505460Y833409D03*
X505460Y870931D03*
D12*
X532130Y778715D03*
X532130Y788465D03*
D11*
X599694Y861482D03*
X599694Y843874D03*
D17*
X532130Y758520D03*
X532130Y768020D03*
X543433Y841680D03*
X543433Y832180D03*
D12*
X543179Y859585D03*
X543179Y849835D03*
D15*
X449834Y915754D03*
X449834Y900346D03*
D12*
X434340Y910893D03*
X434340Y901143D03*
D11*
X539750Y900516D03*
X539750Y918124D03*
X494030Y900516D03*
X494030Y918124D03*
X516890Y900516D03*
X516890Y918124D03*
D19*
X640549Y683137D02*
X640549Y670387D01*
X619799Y670387D01*
X619799Y683137D01*
X640549Y683137D01*
X640549Y674424D02*
X619799Y674424D01*
X619799Y678461D02*
X640549Y678461D01*
X640549Y682498D02*
X619799Y682498D01*
X640549Y715387D02*
X640549Y728137D01*
X640549Y715387D02*
X619799Y715387D01*
X619799Y728137D01*
X640549Y728137D01*
X640549Y719424D02*
X619799Y719424D01*
X619799Y723461D02*
X640549Y723461D01*
X640549Y727498D02*
X619799Y727498D01*
X512025Y749635D02*
X512025Y762385D01*
X512025Y749635D02*
X491275Y749635D01*
X491275Y762385D01*
X512025Y762385D01*
X512025Y753672D02*
X491275Y753672D01*
X491275Y757709D02*
X512025Y757709D01*
X512025Y761746D02*
X491275Y761746D01*
X512025Y794635D02*
X512025Y807385D01*
X512025Y794635D02*
X491275Y794635D01*
X491275Y807385D01*
X512025Y807385D01*
X512025Y798672D02*
X491275Y798672D01*
X491275Y802709D02*
X512025Y802709D01*
X512025Y806746D02*
X491275Y806746D01*
D20*
X81956Y880110D03*
X64348Y880110D03*
D21*
X63295Y736600D03*
X53545Y736600D03*
D22*
X120939Y662940D03*
X158461Y662940D03*
D18*
X131704Y627380D03*
X147696Y627380D03*
D23*
X183218Y721360D03*
X167810Y721360D03*
D21*
X178357Y736854D03*
X168607Y736854D03*
D24*
X84486Y749300D03*
X84486Y736600D03*
X84486Y723900D03*
X84486Y711200D03*
X133954Y711200D03*
X133954Y723900D03*
X133954Y736600D03*
X133954Y749300D03*
D25*
X53670Y723900D03*
X63170Y723900D03*
D18*
X65664Y841248D03*
X81656Y841248D03*
X40264Y706120D03*
X56256Y706120D03*
D13*
X140970Y839759D03*
X140970Y877281D03*
D21*
X110695Y767080D03*
X120445Y767080D03*
D20*
X185588Y701294D03*
X167980Y701294D03*
D25*
X91770Y767080D03*
X101270Y767080D03*
X157150Y767080D03*
X147650Y767080D03*
D21*
X177595Y767080D03*
X167845Y767080D03*
D23*
X65956Y859790D03*
X81364Y859790D03*
D21*
X71960Y923290D03*
X81710Y923290D03*
D20*
X181696Y900430D03*
X199304Y900430D03*
X81956Y904240D03*
X64348Y904240D03*
X181696Y876300D03*
X199304Y876300D03*
D19*
X95635Y792265D02*
X82885Y792265D01*
X82885Y813015D01*
X95635Y813015D01*
X95635Y792265D01*
X95635Y796302D02*
X82885Y796302D01*
X82885Y800339D02*
X95635Y800339D01*
X95635Y804376D02*
X82885Y804376D01*
X82885Y808413D02*
X95635Y808413D01*
X95635Y812450D02*
X82885Y812450D01*
X127885Y792265D02*
X140635Y792265D01*
X127885Y792265D02*
X127885Y813015D01*
X140635Y813015D01*
X140635Y792265D01*
X140635Y796302D02*
X127885Y796302D01*
X127885Y800339D02*
X140635Y800339D01*
X140635Y804376D02*
X127885Y804376D01*
X127885Y808413D02*
X140635Y808413D01*
X140635Y812450D02*
X127885Y812450D01*
D12*
X355092Y998933D03*
X355092Y1008683D03*
D21*
X350569Y1075944D03*
X340819Y1075944D03*
D15*
X371602Y993310D03*
X371602Y1008718D03*
D23*
X355938Y1088898D03*
X340530Y1088898D03*
D25*
X337490Y992378D03*
X327990Y992378D03*
D17*
X370332Y1058240D03*
X370332Y1067740D03*
X370332Y1028014D03*
X370332Y1037514D03*
X320802Y1058240D03*
X320802Y1067740D03*
X319532Y1028116D03*
X319532Y1018616D03*
D10*
X384302Y1057656D03*
X387350Y1026414D03*
X367792Y1088898D03*
X337312Y1012698D03*
D26*
X351162Y1058210D03*
X346162Y1058210D03*
X341162Y1058210D03*
X336162Y1058210D03*
X336162Y1028146D03*
X341162Y1028146D03*
X346162Y1028146D03*
X351162Y1028146D03*
D23*
X201211Y802894D03*
X216619Y802894D03*
D21*
X206580Y785749D03*
X216330Y785749D03*
X315771Y620395D03*
X306021Y620395D03*
D23*
X321140Y635889D03*
X305732Y635889D03*
D27*
X251460Y670289D03*
X251460Y630699D03*
D28*
X282685Y828294D03*
X243095Y828294D03*
D18*
X270251Y785114D03*
X254259Y785114D03*
X286644Y785114D03*
X302636Y785114D03*
X254767Y872744D03*
X270759Y872744D03*
D14*
X287655Y643133D03*
X287655Y659125D03*
D25*
X318313Y756539D03*
X308813Y756539D03*
D29*
X318285Y741478D03*
X305285Y741478D03*
X311785Y722070D03*
D21*
X351585Y719836D03*
X341835Y719836D03*
D30*
X275730Y758460D03*
X252730Y758460D03*
X229730Y758460D03*
D31*
X252730Y700008D03*
D19*
X334895Y698969D02*
X347645Y698969D01*
X347645Y678219D01*
X334895Y678219D01*
X334895Y698969D01*
X334895Y682256D02*
X347645Y682256D01*
X347645Y686293D02*
X334895Y686293D01*
X334895Y690330D02*
X347645Y690330D01*
X347645Y694367D02*
X334895Y694367D01*
X334895Y698404D02*
X347645Y698404D01*
X302645Y698969D02*
X289895Y698969D01*
X302645Y698969D02*
X302645Y678219D01*
X289895Y678219D01*
X289895Y698969D01*
X289895Y682256D02*
X302645Y682256D01*
X302645Y686293D02*
X289895Y686293D01*
X289895Y690330D02*
X302645Y690330D01*
X302645Y694367D02*
X289895Y694367D01*
X289895Y698404D02*
X302645Y698404D01*
D23*
X234526Y166370D03*
X219118Y166370D03*
X210904Y347980D03*
X195496Y347980D03*
X212936Y429514D03*
X197528Y429514D03*
D18*
X197226Y283972D03*
X181234Y283972D03*
D14*
X242316Y405262D03*
X242316Y421254D03*
D32*
X205842Y392374D03*
X186842Y392374D03*
X196342Y367086D03*
X206350Y215336D03*
X187350Y215336D03*
X196850Y190048D03*
X252070Y378404D03*
X233070Y378404D03*
X242570Y353116D03*
D25*
X269570Y360680D03*
X279070Y360680D03*
D18*
X256916Y215900D03*
X240924Y215900D03*
D14*
X226822Y291714D03*
X226822Y275722D03*
D23*
X212936Y446405D03*
X197528Y446405D03*
D18*
X179964Y166370D03*
X195956Y166370D03*
D19*
X220595Y258025D02*
X233345Y258025D01*
X233345Y237275D01*
X220595Y237275D01*
X220595Y258025D01*
X220595Y241312D02*
X233345Y241312D01*
X233345Y245349D02*
X220595Y245349D01*
X220595Y249386D02*
X233345Y249386D01*
X233345Y253423D02*
X220595Y253423D01*
X220595Y257460D02*
X233345Y257460D01*
X188345Y258025D02*
X175595Y258025D01*
X188345Y258025D02*
X188345Y237275D01*
X175595Y237275D01*
X175595Y258025D01*
X175595Y241312D02*
X188345Y241312D01*
X188345Y245349D02*
X175595Y245349D01*
X175595Y249386D02*
X188345Y249386D01*
X188345Y253423D02*
X175595Y253423D01*
X175595Y257460D02*
X188345Y257460D01*
X220595Y329145D02*
X233345Y329145D01*
X233345Y308395D01*
X220595Y308395D01*
X220595Y329145D01*
X220595Y312432D02*
X233345Y312432D01*
X233345Y316469D02*
X220595Y316469D01*
X220595Y320506D02*
X233345Y320506D01*
X233345Y324543D02*
X220595Y324543D01*
X220595Y328580D02*
X233345Y328580D01*
X188345Y329145D02*
X175595Y329145D01*
X188345Y329145D02*
X188345Y308395D01*
X175595Y308395D01*
X175595Y329145D01*
X175595Y312432D02*
X188345Y312432D01*
X188345Y316469D02*
X175595Y316469D01*
X175595Y320506D02*
X188345Y320506D01*
X188345Y324543D02*
X175595Y324543D01*
X175595Y328580D02*
X188345Y328580D01*
D33*
X165100Y425540D03*
X165100Y468540D03*
D23*
X385656Y167640D03*
X370248Y167640D03*
X360764Y347980D03*
X345356Y347980D03*
X361653Y429514D03*
X346245Y429514D03*
D18*
X347086Y283972D03*
X331094Y283972D03*
D14*
X394716Y405262D03*
X394716Y421254D03*
D32*
X355702Y392374D03*
X336702Y392374D03*
X346202Y367086D03*
X362560Y215336D03*
X343560Y215336D03*
X353060Y190048D03*
X404470Y375864D03*
X385470Y375864D03*
X394970Y350576D03*
D25*
X421970Y362712D03*
X431470Y362712D03*
D18*
X409316Y215900D03*
X393324Y215900D03*
D14*
X375412Y291714D03*
X375412Y275722D03*
D23*
X361653Y446405D03*
X346245Y446405D03*
D18*
X334904Y167640D03*
X350896Y167640D03*
D19*
X369185Y258025D02*
X381935Y258025D01*
X381935Y237275D01*
X369185Y237275D01*
X369185Y258025D01*
X369185Y241312D02*
X381935Y241312D01*
X381935Y245349D02*
X369185Y245349D01*
X369185Y249386D02*
X381935Y249386D01*
X381935Y253423D02*
X369185Y253423D01*
X369185Y257460D02*
X381935Y257460D01*
X336935Y258025D02*
X324185Y258025D01*
X336935Y258025D02*
X336935Y237275D01*
X324185Y237275D01*
X324185Y258025D01*
X324185Y241312D02*
X336935Y241312D01*
X336935Y245349D02*
X324185Y245349D01*
X324185Y249386D02*
X336935Y249386D01*
X336935Y253423D02*
X324185Y253423D01*
X324185Y257460D02*
X336935Y257460D01*
X369185Y329145D02*
X381935Y329145D01*
X381935Y308395D01*
X369185Y308395D01*
X369185Y329145D01*
X369185Y312432D02*
X381935Y312432D01*
X381935Y316469D02*
X369185Y316469D01*
X369185Y320506D02*
X381935Y320506D01*
X381935Y324543D02*
X369185Y324543D01*
X369185Y328580D02*
X381935Y328580D01*
X336935Y329145D02*
X324185Y329145D01*
X336935Y329145D02*
X336935Y308395D01*
X324185Y308395D01*
X324185Y329145D01*
X324185Y312432D02*
X336935Y312432D01*
X336935Y316469D02*
X324185Y316469D01*
X324185Y320506D02*
X336935Y320506D01*
X336935Y324543D02*
X324185Y324543D01*
X324185Y328580D02*
X336935Y328580D01*
D33*
X314198Y433160D03*
X314198Y476160D03*
D23*
X538056Y167640D03*
X522648Y167640D03*
X514434Y347980D03*
X499026Y347980D03*
X516466Y429514D03*
X501058Y429514D03*
D18*
X502026Y283972D03*
X486034Y283972D03*
D14*
X549656Y409072D03*
X549656Y425064D03*
D32*
X510642Y392374D03*
X491642Y392374D03*
X501142Y367086D03*
X517500Y215336D03*
X498500Y215336D03*
X508000Y190048D03*
X558394Y380944D03*
X539394Y380944D03*
X548894Y355656D03*
D17*
X595630Y381940D03*
X595630Y372440D03*
D18*
X560954Y214884D03*
X544962Y214884D03*
D14*
X530352Y291714D03*
X530352Y275722D03*
D23*
X516466Y446405D03*
X501058Y446405D03*
D18*
X488574Y167640D03*
X504566Y167640D03*
D19*
X524125Y258025D02*
X536875Y258025D01*
X536875Y237275D01*
X524125Y237275D01*
X524125Y258025D01*
X524125Y241312D02*
X536875Y241312D01*
X536875Y245349D02*
X524125Y245349D01*
X524125Y249386D02*
X536875Y249386D01*
X536875Y253423D02*
X524125Y253423D01*
X524125Y257460D02*
X536875Y257460D01*
X491875Y258025D02*
X479125Y258025D01*
X491875Y258025D02*
X491875Y237275D01*
X479125Y237275D01*
X479125Y258025D01*
X479125Y241312D02*
X491875Y241312D01*
X491875Y245349D02*
X479125Y245349D01*
X479125Y249386D02*
X491875Y249386D01*
X491875Y253423D02*
X479125Y253423D01*
X479125Y257460D02*
X491875Y257460D01*
X522855Y329145D02*
X535605Y329145D01*
X535605Y308395D01*
X522855Y308395D01*
X522855Y329145D01*
X522855Y312432D02*
X535605Y312432D01*
X535605Y316469D02*
X522855Y316469D01*
X522855Y320506D02*
X535605Y320506D01*
X535605Y324543D02*
X522855Y324543D01*
X522855Y328580D02*
X535605Y328580D01*
X490605Y329145D02*
X477855Y329145D01*
X490605Y329145D02*
X490605Y308395D01*
X477855Y308395D01*
X477855Y329145D01*
X477855Y312432D02*
X490605Y312432D01*
X490605Y316469D02*
X477855Y316469D01*
X477855Y320506D02*
X490605Y320506D01*
X490605Y324543D02*
X477855Y324543D01*
X477855Y328580D02*
X490605Y328580D01*
D33*
X466598Y423000D03*
X466598Y466000D03*
D25*
X658190Y579120D03*
X667690Y579120D03*
X602310Y575310D03*
X611810Y575310D03*
D17*
X665480Y590880D03*
X665480Y600380D03*
X665480Y616280D03*
X665480Y625780D03*
D15*
X647700Y626194D03*
X647700Y610786D03*
D25*
X566750Y629920D03*
X576250Y629920D03*
X541350Y617220D03*
X550850Y617220D03*
D11*
X494792Y701716D03*
X494792Y684108D03*
D15*
X523240Y585386D03*
X523240Y600794D03*
D25*
X550850Y600710D03*
X541350Y600710D03*
D34*
X626016Y590710D03*
X626016Y595710D03*
X626016Y600710D03*
X626016Y605710D03*
X626016Y610710D03*
X583024Y610710D03*
X583024Y605710D03*
X583024Y600710D03*
X583024Y595710D03*
X583024Y590710D03*
D35*
X580900Y549910D03*
X562100Y549910D03*
D36*
X499735Y627255D03*
X454035Y627255D03*
D37*
X476885Y554305D03*
D35*
X580900Y572770D03*
X562100Y572770D03*
D38*
X541020Y570994D03*
X541020Y552194D03*
D15*
X518160Y700616D03*
X518160Y685208D03*
D25*
X584530Y629920D03*
X594030Y629920D03*
D19*
X444285Y695321D02*
X444285Y708071D01*
X465035Y708071D01*
X465035Y695321D01*
X444285Y695321D01*
X444285Y699358D02*
X465035Y699358D01*
X465035Y703395D02*
X444285Y703395D01*
X444285Y707432D02*
X465035Y707432D01*
X444285Y663071D02*
X444285Y650321D01*
X444285Y663071D02*
X465035Y663071D01*
X465035Y650321D01*
X444285Y650321D01*
X444285Y654358D02*
X465035Y654358D01*
X465035Y658395D02*
X444285Y658395D01*
X444285Y662432D02*
X465035Y662432D01*
D10*
X607060Y631190D03*
D39*
X371319Y473710D03*
X342421Y473710D03*
X229079Y478790D03*
X200181Y478790D03*
D10*
X281940Y468630D03*
X410210Y468630D03*
D40*
X221070Y132080D03*
X264070Y132080D03*
X370295Y132080D03*
X413295Y132080D03*
X523330Y132080D03*
X566330Y132080D03*
D10*
X655320Y416560D03*
X617220Y416560D03*
X581660Y416560D03*
X373380Y1325880D03*
X320040Y1047496D03*
X309880Y980186D03*
X369824Y1304544D03*
X585978Y1097788D03*
X329438Y1325880D03*
X50800Y977900D03*
D41*
X134730Y1015754D02*
X134730Y1022714D01*
X141230Y1022714D02*
X141230Y1015754D01*
X147730Y1015754D02*
X147730Y1022714D01*
X154230Y1022714D02*
X154230Y1015754D01*
X160730Y1015754D02*
X160730Y1022714D01*
X167230Y1022714D02*
X167230Y1015754D01*
X173730Y1015754D02*
X173730Y1022714D01*
X180230Y1022714D02*
X180230Y1015754D01*
X187596Y1030080D02*
X194556Y1030080D01*
X194556Y1036580D02*
X187596Y1036580D01*
X187596Y1043080D02*
X194556Y1043080D01*
X194556Y1049580D02*
X187596Y1049580D01*
X187596Y1056080D02*
X194556Y1056080D01*
X194556Y1062580D02*
X187596Y1062580D01*
X187596Y1069080D02*
X194556Y1069080D01*
X194556Y1075580D02*
X187596Y1075580D01*
X180230Y1082946D02*
X180230Y1089906D01*
X173730Y1089906D02*
X173730Y1082946D01*
X167230Y1082946D02*
X167230Y1089906D01*
X160730Y1089906D02*
X160730Y1082946D01*
X154230Y1082946D02*
X154230Y1089906D01*
X147730Y1089906D02*
X147730Y1082946D01*
X141230Y1082946D02*
X141230Y1089906D01*
X134730Y1089906D02*
X134730Y1082946D01*
X127364Y1075580D02*
X120404Y1075580D01*
X120404Y1069080D02*
X127364Y1069080D01*
X127364Y1062580D02*
X120404Y1062580D01*
X120404Y1056080D02*
X127364Y1056080D01*
X127364Y1049580D02*
X120404Y1049580D01*
X120404Y1043080D02*
X127364Y1043080D01*
X127364Y1036580D02*
X120404Y1036580D01*
X120404Y1030080D02*
X127364Y1030080D01*
D42*
X145480Y1040830D03*
X145480Y1065080D03*
X169730Y1065080D03*
X169730Y1040830D03*
D21*
X185215Y1106170D03*
X175465Y1106170D03*
X167816Y1105916D03*
X158066Y1105916D03*
D15*
X228600Y1071329D03*
X228600Y1055921D03*
D25*
X219126Y1086231D03*
X209626Y1086231D03*
D17*
X167640Y989660D03*
X167640Y999160D03*
D23*
X185336Y981710D03*
X200744Y981710D03*
D17*
X153670Y999160D03*
X153670Y989660D03*
D25*
X209626Y1098550D03*
X219126Y1098550D03*
X194996Y964184D03*
X185496Y964184D03*
D17*
X211074Y1060145D03*
X211074Y1069645D03*
D12*
X210820Y1043735D03*
X210820Y1033985D03*
D25*
X228270Y986790D03*
X218770Y986790D03*
X228270Y999490D03*
X218770Y999490D03*
X228270Y1012190D03*
X218770Y1012190D03*
X228270Y1024890D03*
X218770Y1024890D03*
D41*
X216924Y1236870D02*
X223884Y1236870D01*
X223884Y1230370D02*
X216924Y1230370D01*
X216924Y1223870D02*
X223884Y1223870D01*
X223884Y1217370D02*
X216924Y1217370D01*
X216924Y1210870D02*
X223884Y1210870D01*
X223884Y1204370D02*
X216924Y1204370D01*
X216924Y1197870D02*
X223884Y1197870D01*
X223884Y1191370D02*
X216924Y1191370D01*
X231250Y1184004D02*
X231250Y1177044D01*
X237750Y1177044D02*
X237750Y1184004D01*
X244250Y1184004D02*
X244250Y1177044D01*
X250750Y1177044D02*
X250750Y1184004D01*
X257250Y1184004D02*
X257250Y1177044D01*
X263750Y1177044D02*
X263750Y1184004D01*
X270250Y1184004D02*
X270250Y1177044D01*
X276750Y1177044D02*
X276750Y1184004D01*
X284116Y1191370D02*
X291076Y1191370D01*
X291076Y1197870D02*
X284116Y1197870D01*
X284116Y1204370D02*
X291076Y1204370D01*
X291076Y1210870D02*
X284116Y1210870D01*
X284116Y1217370D02*
X291076Y1217370D01*
X291076Y1223870D02*
X284116Y1223870D01*
X284116Y1230370D02*
X291076Y1230370D01*
X291076Y1236870D02*
X284116Y1236870D01*
X276750Y1244236D02*
X276750Y1251196D01*
X270250Y1251196D02*
X270250Y1244236D01*
X263750Y1244236D02*
X263750Y1251196D01*
X257250Y1251196D02*
X257250Y1244236D01*
X250750Y1244236D02*
X250750Y1251196D01*
X244250Y1251196D02*
X244250Y1244236D01*
X237750Y1244236D02*
X237750Y1251196D01*
X231250Y1251196D02*
X231250Y1244236D01*
D42*
X242000Y1226120D03*
X266250Y1226120D03*
X266250Y1201870D03*
X242000Y1201870D03*
D12*
X307340Y1186385D03*
X307340Y1196135D03*
X307340Y1203784D03*
X307340Y1213534D03*
D23*
X268689Y1142492D03*
X253281Y1142492D03*
D17*
X285115Y1149680D03*
X285115Y1159180D03*
D25*
X190830Y1203960D03*
X200330Y1203960D03*
D15*
X180340Y1186264D03*
X180340Y1170856D03*
D25*
X200330Y1217930D03*
X190830Y1217930D03*
D17*
X298450Y1159180D03*
X298450Y1149680D03*
X163830Y1176350D03*
X163830Y1185850D03*
D25*
X258775Y1158240D03*
X268275Y1158240D03*
D21*
X243889Y1157986D03*
X234139Y1157986D03*
D17*
X185420Y1145870D03*
X185420Y1155370D03*
X198120Y1145870D03*
X198120Y1155370D03*
X210820Y1145870D03*
X210820Y1155370D03*
X223520Y1145870D03*
X223520Y1155370D03*
D41*
X445524Y1233060D02*
X452484Y1233060D01*
X452484Y1226560D02*
X445524Y1226560D01*
X445524Y1220060D02*
X452484Y1220060D01*
X452484Y1213560D02*
X445524Y1213560D01*
X445524Y1207060D02*
X452484Y1207060D01*
X452484Y1200560D02*
X445524Y1200560D01*
X445524Y1194060D02*
X452484Y1194060D01*
X452484Y1187560D02*
X445524Y1187560D01*
X459850Y1180194D02*
X459850Y1173234D01*
X466350Y1173234D02*
X466350Y1180194D01*
X472850Y1180194D02*
X472850Y1173234D01*
X479350Y1173234D02*
X479350Y1180194D01*
X485850Y1180194D02*
X485850Y1173234D01*
X492350Y1173234D02*
X492350Y1180194D01*
X498850Y1180194D02*
X498850Y1173234D01*
X505350Y1173234D02*
X505350Y1180194D01*
X512716Y1187560D02*
X519676Y1187560D01*
X519676Y1194060D02*
X512716Y1194060D01*
X512716Y1200560D02*
X519676Y1200560D01*
X519676Y1207060D02*
X512716Y1207060D01*
X512716Y1213560D02*
X519676Y1213560D01*
X519676Y1220060D02*
X512716Y1220060D01*
X512716Y1226560D02*
X519676Y1226560D01*
X519676Y1233060D02*
X512716Y1233060D01*
X505350Y1240426D02*
X505350Y1247386D01*
X498850Y1247386D02*
X498850Y1240426D01*
X492350Y1240426D02*
X492350Y1247386D01*
X485850Y1247386D02*
X485850Y1240426D01*
X479350Y1240426D02*
X479350Y1247386D01*
X472850Y1247386D02*
X472850Y1240426D01*
X466350Y1240426D02*
X466350Y1247386D01*
X459850Y1247386D02*
X459850Y1240426D01*
D42*
X470600Y1222310D03*
X494850Y1222310D03*
X494850Y1198060D03*
X470600Y1198060D03*
D12*
X535940Y1182575D03*
X535940Y1192325D03*
X535940Y1199974D03*
X535940Y1209724D03*
D23*
X497289Y1139190D03*
X481881Y1139190D03*
D17*
X513715Y1145870D03*
X513715Y1155370D03*
D25*
X419430Y1200150D03*
X428930Y1200150D03*
D15*
X408940Y1182454D03*
X408940Y1167046D03*
D25*
X428930Y1214120D03*
X419430Y1214120D03*
D17*
X527050Y1155370D03*
X527050Y1145870D03*
X392430Y1172540D03*
X392430Y1182040D03*
D25*
X489280Y1156716D03*
X498780Y1156716D03*
D21*
X474521Y1156716D03*
X464771Y1156716D03*
D17*
X416560Y1142060D03*
X416560Y1151560D03*
X429260Y1142060D03*
X429260Y1151560D03*
X441706Y1142060D03*
X441706Y1151560D03*
X454152Y1142314D03*
X454152Y1151814D03*
D41*
X563770Y1050536D02*
X563770Y1043576D01*
X557270Y1043576D02*
X557270Y1050536D01*
X550770Y1050536D02*
X550770Y1043576D01*
X544270Y1043576D02*
X544270Y1050536D01*
X537770Y1050536D02*
X537770Y1043576D01*
X531270Y1043576D02*
X531270Y1050536D01*
X524770Y1050536D02*
X524770Y1043576D01*
X518270Y1043576D02*
X518270Y1050536D01*
X510904Y1036210D02*
X503944Y1036210D01*
X503944Y1029710D02*
X510904Y1029710D01*
X510904Y1023210D02*
X503944Y1023210D01*
X503944Y1016710D02*
X510904Y1016710D01*
X510904Y1010210D02*
X503944Y1010210D01*
X503944Y1003710D02*
X510904Y1003710D01*
X510904Y997210D02*
X503944Y997210D01*
X503944Y990710D02*
X510904Y990710D01*
X518270Y983344D02*
X518270Y976384D01*
X524770Y976384D02*
X524770Y983344D01*
X531270Y983344D02*
X531270Y976384D01*
X537770Y976384D02*
X537770Y983344D01*
X544270Y983344D02*
X544270Y976384D01*
X550770Y976384D02*
X550770Y983344D01*
X557270Y983344D02*
X557270Y976384D01*
X563770Y976384D02*
X563770Y983344D01*
X571136Y990710D02*
X578096Y990710D01*
X578096Y997210D02*
X571136Y997210D01*
X571136Y1003710D02*
X578096Y1003710D01*
X578096Y1010210D02*
X571136Y1010210D01*
X571136Y1016710D02*
X578096Y1016710D01*
X578096Y1023210D02*
X571136Y1023210D01*
X571136Y1029710D02*
X578096Y1029710D01*
X578096Y1036210D02*
X571136Y1036210D01*
D42*
X553020Y1025460D03*
X553020Y1001210D03*
X528770Y1001210D03*
X528770Y1025460D03*
D21*
X510491Y960374D03*
X520241Y960374D03*
X527890Y960120D03*
X537640Y960120D03*
D15*
X467614Y996993D03*
X467614Y1012401D03*
D25*
X476580Y982345D03*
X486080Y982345D03*
D17*
X530860Y1076630D03*
X530860Y1067130D03*
D23*
X513164Y1084580D03*
X497756Y1084580D03*
D17*
X544830Y1067130D03*
X544830Y1076630D03*
D25*
X486080Y969010D03*
X476580Y969010D03*
X503250Y1101090D03*
X512750Y1101090D03*
D17*
X485648Y1006145D03*
X485648Y996645D03*
D12*
X485902Y1021793D03*
X485902Y1031543D03*
D25*
X470230Y1079500D03*
X479730Y1079500D03*
X470230Y1066800D03*
X479730Y1066800D03*
X470230Y1054100D03*
X479730Y1054100D03*
X470230Y1041400D03*
X479730Y1041400D03*
D10*
X132080Y482600D03*
D38*
X132080Y442720D03*
X132080Y461520D03*
X278130Y424940D03*
X278130Y443740D03*
X431800Y445260D03*
X431800Y464060D03*
D10*
X650240Y284480D03*
D38*
X581660Y485900D03*
X581660Y504700D03*
D25*
X279070Y375920D03*
X269570Y375920D03*
X431470Y377190D03*
X421970Y377190D03*
D17*
X580390Y372440D03*
X580390Y381940D03*
D38*
X617220Y485900D03*
X617220Y504700D03*
X655320Y485900D03*
X655320Y504700D03*
X660400Y689735D03*
X660400Y708535D03*
X429260Y856490D03*
X429260Y837690D03*
D10*
X45720Y1270000D03*
X645160Y1270000D03*
D19*
X449365Y882950D02*
X449365Y870200D01*
X449365Y882950D02*
X470115Y882950D01*
X470115Y870200D01*
X449365Y870200D01*
X449365Y874237D02*
X470115Y874237D01*
X470115Y878274D02*
X449365Y878274D01*
X449365Y882311D02*
X470115Y882311D01*
X449365Y837950D02*
X449365Y825200D01*
X449365Y837950D02*
X470115Y837950D01*
X470115Y825200D01*
X449365Y825200D01*
X449365Y829237D02*
X470115Y829237D01*
X470115Y833274D02*
X449365Y833274D01*
X449365Y837311D02*
X470115Y837311D01*
M02*
